<?xml version="1.0" encoding="UTF-8" standalone="no"?>
<svg
   xmlns:dc="http://purl.org/dc/elements/1.1/"
   xmlns:cc="http://creativecommons.org/ns#"
   xmlns:rdf="http://www.w3.org/1999/02/22-rdf-syntax-ns#"
   xmlns:svg="http://www.w3.org/2000/svg"
   xmlns="http://www.w3.org/2000/svg"
   xmlns:sodipodi="http://sodipodi.sourceforge.net/DTD/sodipodi-0.dtd"
   xmlns:inkscape="http://www.inkscape.org/namespaces/inkscape"
   id="Layer_1"
   xml:space="preserve"
   height="401px"
   viewBox="312.809 0 401 401"
   width="401px"
   version="1.1"
   y="0px"
   x="0px"
   enable-background="new 312.809 0 401 401"
   inkscape:version="0.91 r13725"
   sodipodi:docname="avatar.svg"><metadata
     id="metadata19"><rdf:RDF><cc:Work
         rdf:about=""><dc:format>image/svg+xml</dc:format><dc:type
           rdf:resource="http://purl.org/dc/dcmitype/StillImage" /></cc:Work></rdf:RDF></metadata><defs
     id="defs17" /><sodipodi:namedview
     pagecolor="#ffffff"
     bordercolor="#666666"
     borderopacity="1"
     objecttolerance="10"
     gridtolerance="10"
     guidetolerance="10"
     inkscape:pageopacity="0"
     inkscape:pageshadow="2"
     inkscape:window-width="1366"
     inkscape:window-height="705"
     id="namedview15"
     showgrid="false"
     inkscape:zoom="0.58852868"
     inkscape:cx="200.5"
     inkscape:cy="200.5"
     inkscape:window-x="-8"
     inkscape:window-y="-8"
     inkscape:window-maximized="1"
     inkscape:current-layer="g3" /><g
     transform="matrix(1.223 0 0 1.223 -467.5 -843.44)"
     id="g3"><rect
       y="653.07"
       x="601.45"
       height="401"
       width="401"
       id="rect5"
       fill="#E4E6E7" /><path
       d="m802.38 908.08c-84.515 0-153.52 48.185-157.38 108.62h314.79c-3.87-60.44-72.9-108.62-157.41-108.62z"
       id="path7"
       fill="#AEB4B7" /><path
       d="m881.37 818.86c0 46.746-35.106 84.641-78.41 84.641s-78.41-37.895-78.41-84.641 35.106-84.641 78.41-84.641c43.31 0 78.41 37.9 78.41 84.64z"
       id="path9"
       fill="#AEB4B7" /><rect
       y="729.06"
       x="735.89"
       height="281.41"
       width="206.99"
       id="rect11"
       fill="none" /></g></svg>