<?xml version="1.0" encoding="UTF-8" standalone="no"?>
<!-- Created with Inkscape (http://www.inkscape.org/) -->

<svg
   xmlns:dc="http://purl.org/dc/elements/1.1/"
   xmlns:cc="http://creativecommons.org/ns#"
   xmlns:rdf="http://www.w3.org/1999/02/22-rdf-syntax-ns#"
   xmlns:svg="http://www.w3.org/2000/svg"
   xmlns="http://www.w3.org/2000/svg"
   xmlns:sodipodi="http://sodipodi.sourceforge.net/DTD/sodipodi-0.dtd"
   xmlns:inkscape="http://www.inkscape.org/namespaces/inkscape"
   width="170"
   height="154"
   id="svg2"
   version="1.1"
   inkscape:version="0.91 r13725"
   inkscape:export-filename="/home/angela/Escritorio/lemos2.png"
   inkscape:export-xdpi="90"
   inkscape:export-ydpi="90"
   sodipodi:docname="Cortesia.svg">
  <defs
     id="defs4" />
  <sodipodi:namedview
     id="base"
     pagecolor="#ffffff"
     bordercolor="#666666"
     borderopacity="1.0"
     inkscape:pageopacity="0.0"
     inkscape:pageshadow="2"
     inkscape:zoom="0.84355469"
     inkscape:cx="132.23851"
     inkscape:cy="92.969048"
     inkscape:document-units="px"
     inkscape:current-layer="layer1"
     showgrid="false"
     inkscape:window-width="1366"
     inkscape:window-height="705"
     inkscape:window-x="-8"
     inkscape:window-y="-8"
     inkscape:window-maximized="1"
     units="px" />
  <metadata
     id="metadata7">
    <rdf:RDF>
      <cc:Work
         rdf:about="">
        <dc:format>image/svg+xml</dc:format>
        <dc:type
           rdf:resource="http://purl.org/dc/dcmitype/StillImage" />
        <dc:title></dc:title>
      </cc:Work>
    </rdf:RDF>
  </metadata>
  <g
     inkscape:label="Capa 1"
     inkscape:groupmode="layer"
     id="layer1"
     transform="translate(0,-898.36216)">
    <path
       d="m 110.06778,1052.2552 c 3.89701,-18.8564 3.89701,-18.4466 3.89701,-18.4466 l 0,-13.9373 0,-18.8565 8.96317,-34.02363 24.55126,4.50917 -5.06615,79.11526 z"
       id="path3212-0"
       style="fill:#0c0c0c;stroke:#0c0c0c;stroke-width:0.33715621px;stroke-linecap:butt;stroke-linejoin:miter;stroke-opacity:1"
       inkscape:connector-curvature="0" />
    <path
       d="M 114.4781,1000.2644 87.233669,984.90107 71.034271,943.14425 70.405775,913.55155 c 30.547245,-1.11416 14.709456,-1.6932 30.634195,0.44171 l 34.42372,27.18133 c 19.44522,18.5655 25.49229,55.48073 33.13512,90.21041 -0.66607,1.3363 -8.43476,-0.9118 -14.97537,-0.059 -3.10014,0.4042 -6.72417,7.2338 -7.11471,4.3924 l -3.68168,-26.7874 c 2.42265,-17.68235 2.44514,-29.46545 2.33185,-33.65423 -0.0343,-1.26957 -21.51802,-3.71617 -22.76519,-5.739 z"
       id="path3216-3"
       style="fill:#0c0c0c;stroke:#0c0c0c;stroke-width:0.32125288px;stroke-linecap:butt;stroke-linejoin:miter;stroke-opacity:1"
       inkscape:connector-curvature="0"
       sodipodi:nodetypes="ccccccccscscc" />
    <path
       d="M 114.70641,1004.6541 86.526539,981.55329 c 0,0 -2.88652,12.917 -7.577129,13.28606 -4.6906,0.36905 -26.700356,-7.75021 -26.700356,-7.75021 l 3.968975,-18.45287 c 0,0 20.205674,7.75021 20.205674,5.90492 0,-1.84529 -5.623575,-31.3741 -5.623575,-31.3741 l 4.901948,16.24275 c 2.958412,7.34544 2.230317,8.83164 4.690588,12.17889 l 5.773062,9.59549"
       id="path3218-4"
       style="fill:#0c0c0c;stroke:#0c0c0c;stroke-width:0.30782428px;stroke-linecap:butt;stroke-linejoin:miter;stroke-opacity:1"
       inkscape:connector-curvature="0"
       sodipodi:nodetypes="ccsccscccc" />
    <path
       d="m 71.770608,945.11391 -5.154356,-4.33324 4.049852,-26.7874 0,0"
       id="path3220-76"
       style="fill:none;stroke:#0c0c0c;stroke-width:0.32125288px;stroke-linecap:butt;stroke-linejoin:miter;stroke-opacity:1"
       inkscape:connector-curvature="0" />
    <path
       d="m 66.432179,940.78067 c -1.805833,2.44468 -3.115483,7.68044 -6.227278,5.46724 l -0.952005,-1.134 c -1.868108,0.60017 -2.986152,0.39777 -3.466015,-0.48746 l 0.185996,-3.35048 -1.138001,3.05008 c -1.691922,0.83518 -0.938276,-1.87851 -1.176789,-4.5113 l 0.05188,0.0747 -0.541087,1.37466 c -0.361341,-0.21127 -1.454933,6.52089 -3.650089,-5.40956 -10.853444,-5.73858 -9.331341,-13.24142 -4.992602,-24.61872 9.71181,-16.46918 19.998853,-4.66233 20.249236,-0.78786 l 6.25886,3.54539 z"
       id="path3224-0"
       style="fill:#0c0c0c;stroke:#0c0c0c;stroke-width:0.32125288px;stroke-linecap:butt;stroke-linejoin:miter;stroke-opacity:1"
       inkscape:connector-curvature="0" />
    <path
       d="m 56.30755,971.3104 c -1.760521,0.12597 -5.851589,-4.22578 -8.14033,-6.18424 -7.596607,-6.50037 -11.863891,-10.03089 -11.151723,-6.51307 l 2.268912,4.03081 c -2.943141,-2.23751 -3.025751,-2.77397 -3.822063,-2.0393 -1.435931,1.12293 1.233667,2.88272 2.157396,3.93086 l -1.737634,-1.62743 c -1.275796,-2.05167 -3.339606,1.1495 0.683599,3.24988 l -0.04716,0.0314 c -2.133311,-1.28278 -2.034011,-2.16939 -2.033686,-1.86869 -0.18777,-0.7116 -2.92101,1.26457 1.205318,4.03533 l 0,0.0492 -2.202466,-1.89157 c -2.359273,1.57685 3.764114,5.06093 6.620475,5.97862 l 10.67688,3.93932 4.786179,3.54539 0,0 z"
       id="path3226-1"
       style="fill:#0c0c0c;stroke:#0c0c0c;stroke-width:0.32125288px;stroke-linecap:butt;stroke-linejoin:miter;stroke-opacity:1"
       inkscape:connector-curvature="0" />
    <path
       d="M 34.168968,960.32604 5.3867715,950.17734 C 4.8244138,949.48918 2.576163,947.89862 3.9102646,947.14126 L 37.05497,959.00702 c 0.718859,0.78432 -1.360444,1.50387 -2.886002,1.31902 z"
       id="path3228-50"
       style="fill:#0c0c0c;stroke:#0c0c0c;stroke-width:0.32125288px;stroke-linecap:butt;stroke-linejoin:miter;stroke-opacity:1"
       inkscape:connector-curvature="0" />
    <path
       d="m 5.1384368,949.81542 c -3.8753673,9.13114 -8.6903873,20.30024 8.7078552,26.73796 7.623842,3.09109 15.164066,2.56588 21.127674,-16.255 z"
       id="path3230-4"
       style="fill:#0c0c0c;stroke:#0c0c0c;stroke-width:0.34487578px;stroke-linecap:butt;stroke-linejoin:miter;stroke-opacity:1"
       inkscape:connector-curvature="0" />
    <path
       d="m 79.214973,960.6143 21.105787,21.18546 c -8.969213,3.2137 -16.121269,6.4274 -15.461025,9.64111 l 9.487955,18.73453 c 6.6185,-4.9022 22.83852,-19.89953 18.2729,-15.4943 l -3.60638,-15.01228 -10.646149,-4.51309 z"
       id="path4036-1"
       style="fill:#0c0c0c;stroke:#0c0c0c;stroke-width:0.26936883px;stroke-linecap:butt;stroke-linejoin:miter;stroke-opacity:1"
       inkscape:connector-curvature="0" />
    <path
       d="m 91.336125,992.65109 c -0.681797,1.74128 -6.148877,3.71119 -8.809391,5.0261 -8.830573,4.36441 -14.150108,7.75641 -10.890844,8.64761 l 3.463682,-0.5664 c -1.524328,-0.2582 -2.567261,1.1633 -2.309117,2.2539 0.296776,1.8763 3.237612,-0.089 4.526847,-0.5044 l -2.137408,0.9355 c -2.28556,0.3038 -0.532103,3.7102 3.022503,0.7987 l 0.0052,0.059 c -2.026159,1.4683 -2.722969,0.9769 -2.471452,1.111 -0.678826,-0.1384 -0.248756,3.361 3.912386,0.6505 l 0.04115,0.022 -2.566019,1.2623 c 0.263432,2.963 5.913758,-1.34 7.957974,-3.6635 l 8.066714,-8.4575 5.103747,-2.99566 0,0 z"
       id="path3226-8-8"
       style="fill:#0c0c0c;stroke:#0c0c0c;stroke-width:0.32125288px;stroke-linecap:butt;stroke-linejoin:miter;stroke-opacity:1"
       inkscape:connector-curvature="0" />
    <path
       d="m 44.931452,931.58258 1.822345,3.62117 -3.124011,-2.78552 0.780998,1.94986 c -0.671646,-1.40484 -2.136609,-2.38527 -1.562006,-4.45683 l -0.520669,3.06406 c -0.702505,-2.6971 -1.143409,-6.92555 -0.520657,-8.91365 1.351568,-6.01557 3.083782,-9.03143 4.425666,-15.04182 4.307324,-5.24156 6.275561,-5.22014 9.892701,-5.29249 1.381986,0.1954 3.470185,0.13844 8.851364,3.89972 1.580396,15.35224 -13.363821,15.97033 -20.045731,23.9555 z"
       id="path4072-7"
       style="fill:#0c0c0c;stroke:#0c0c0c;stroke-width:0.32125288px;stroke-linecap:butt;stroke-linejoin:miter;stroke-opacity:1"
       inkscape:connector-curvature="0" />
  </g>
</svg>
