<?xml version="1.0" encoding="UTF-8" standalone="no"?>
<!-- Created with Inkscape (http://www.inkscape.org/) -->

<svg
   xmlns:dc="http://purl.org/dc/elements/1.1/"
   xmlns:cc="http://creativecommons.org/ns#"
   xmlns:rdf="http://www.w3.org/1999/02/22-rdf-syntax-ns#"
   xmlns:svg="http://www.w3.org/2000/svg"
   xmlns="http://www.w3.org/2000/svg"
   xmlns:xlink="http://www.w3.org/1999/xlink"
   xmlns:sodipodi="http://sodipodi.sourceforge.net/DTD/sodipodi-0.dtd"
   xmlns:inkscape="http://www.inkscape.org/namespaces/inkscape"
   version="1.1"
   width="130"
   height="190"
   id="svg2"
   inkscape:version="0.91 r13725"
   sodipodi:docname="Honestidad.svg">
  <sodipodi:namedview
     pagecolor="#ffffff"
     bordercolor="#666666"
     borderopacity="1"
     objecttolerance="10"
     gridtolerance="10"
     guidetolerance="10"
     inkscape:pageopacity="0"
     inkscape:pageshadow="2"
     inkscape:window-width="1366"
     inkscape:window-height="705"
     id="namedview66"
     showgrid="false"
     inkscape:zoom="0.63429568"
     inkscape:cx="177.89809"
     inkscape:cy="65.79951"
     inkscape:window-x="-8"
     inkscape:window-y="-8"
     inkscape:window-maximized="1"
     inkscape:current-layer="svg2"
     units="px" />
  <defs
     id="defs4">
    <linearGradient
       id="linearGradient5030">
      <stop
         id="stop5032"
         style="stop-color:#ffd5d5;stop-opacity:1"
         offset="0" />
      <stop
         id="stop5034"
         style="stop-color:#006680;stop-opacity:1"
         offset="1" />
    </linearGradient>
    <linearGradient
       id="linearGradient5008">
      <stop
         id="stop5010"
         style="stop-color:#0066ff;stop-opacity:1"
         offset="0" />
      <stop
         id="stop5012"
         style="stop-color:#0066ff;stop-opacity:0"
         offset="1" />
    </linearGradient>
    <linearGradient
       id="linearGradient5306">
      <stop
         id="stop5308"
         style="stop-color:#000000;stop-opacity:1"
         offset="0" />
    </linearGradient>
    <inkscape:path-effect
       effect="spiro"
       id="path-effect3060"
       is_visible="true" />
    <linearGradient
       x1="493.59207"
       y1="722.95215"
       x2="537.22888"
       y2="722.95215"
       id="linearGradient5310"
       xlink:href="#linearGradient5306"
       gradientUnits="userSpaceOnUse" />
    <linearGradient
       x1="283.19565"
       y1="700.25885"
       x2="342.85947"
       y2="700.25885"
       id="linearGradient5312"
       xlink:href="#linearGradient5306"
       gradientUnits="userSpaceOnUse" />
    <linearGradient
       x1="183.22441"
       y1="699.76306"
       x2="646.65955"
       y2="699.76306"
       id="linearGradient5314"
       xlink:href="#linearGradient5306"
       gradientUnits="userSpaceOnUse" />
    <linearGradient
       x1="185.55998"
       y1="726.72583"
       x2="651.33075"
       y2="726.72583"
       id="linearGradient5316"
       xlink:href="#linearGradient5306"
       gradientUnits="userSpaceOnUse" />
    <linearGradient
       x1="493.59207"
       y1="722.95215"
       x2="537.22888"
       y2="722.95215"
       id="linearGradient5310-1"
       xlink:href="#linearGradient5306-6"
       gradientUnits="userSpaceOnUse" />
    <linearGradient
       id="linearGradient5306-6">
      <stop
         id="stop5308-9"
         style="stop-color:#000000;stop-opacity:1"
         offset="0" />
    </linearGradient>
    <linearGradient
       x1="493.59207"
       y1="722.95215"
       x2="537.22888"
       y2="722.95215"
       id="linearGradient5336"
       xlink:href="#linearGradient5306-6"
       gradientUnits="userSpaceOnUse"
       gradientTransform="translate(90.736965,-474.42004)" />
    <linearGradient
       x1="493.59207"
       y1="722.95215"
       x2="537.22888"
       y2="722.95215"
       id="linearGradient5310-0"
       xlink:href="#linearGradient5306-8"
       gradientUnits="userSpaceOnUse" />
    <linearGradient
       id="linearGradient5306-8">
      <stop
         id="stop5308-7"
         style="stop-color:#000000;stop-opacity:1"
         offset="0" />
    </linearGradient>
    <linearGradient
       x1="493.59207"
       y1="722.95215"
       x2="537.22888"
       y2="722.95215"
       id="linearGradient5417-4"
       xlink:href="#linearGradient5306-8-9"
       gradientUnits="userSpaceOnUse"
       gradientTransform="translate(6.1859515,-177.89605)" />
    <linearGradient
       id="linearGradient5306-8-9">
      <stop
         id="stop5308-7-6"
         style="stop-color:#000000;stop-opacity:1"
         offset="0" />
    </linearGradient>
    <linearGradient
       id="linearGradient5306-8-9-5">
      <stop
         id="stop5308-7-6-6"
         style="stop-color:#000000;stop-opacity:1"
         offset="0" />
    </linearGradient>
    <linearGradient
       id="linearGradient5306-8-6">
      <stop
         id="stop5308-7-5"
         style="stop-color:#000000;stop-opacity:1"
         offset="0" />
    </linearGradient>
    <linearGradient
       id="linearGradient5306-7">
      <stop
         id="stop5308-4"
         style="stop-color:#000000;stop-opacity:1"
         offset="0" />
    </linearGradient>
    <linearGradient
       id="linearGradient5503">
      <stop
         id="stop5505"
         style="stop-color:#000000;stop-opacity:1"
         offset="0" />
    </linearGradient>
    <linearGradient
       id="linearGradient5508">
      <stop
         id="stop5510"
         style="stop-color:#000000;stop-opacity:1"
         offset="0" />
    </linearGradient>
    <linearGradient
       x1="185.55998"
       y1="726.72583"
       x2="651.33075"
       y2="726.72583"
       id="linearGradient5316-7"
       xlink:href="#linearGradient5306-7"
       gradientUnits="userSpaceOnUse" />
    <linearGradient
       id="linearGradient5513">
      <stop
         id="stop5515"
         style="stop-color:#000000;stop-opacity:1"
         offset="0" />
    </linearGradient>
    <linearGradient
       x1="611.69714"
       y1="808.75024"
       x2="692.30841"
       y2="898.84515"
       id="linearGradient5006"
       xlink:href="#linearGradient5008"
       gradientUnits="userSpaceOnUse" />
    <linearGradient
       x1="681.63928"
       y1="809.93567"
       x2="681.04651"
       y2="810.52844"
       id="linearGradient5036"
       xlink:href="#linearGradient5030"
       gradientUnits="userSpaceOnUse"
       gradientTransform="translate(-582.90072,99.32276)" />
    <linearGradient
       inkscape:collect="always"
       xlink:href="#linearGradient5030"
       id="linearGradient3043"
       x1="617.22003"
       y1="871.05872"
       x2="682.64691"
       y2="903.77216"
       gradientUnits="userSpaceOnUse"
       gradientTransform="translate(-582.90072,99.32276)" />
  </defs>
  <metadata
     id="metadata7">
    <rdf:RDF>
      <cc:Work
         rdf:about="">
        <dc:format>image/svg+xml</dc:format>
        <dc:type
           rdf:resource="http://purl.org/dc/dcmitype/StillImage" />
        <dc:title></dc:title>
      </cc:Work>
    </rdf:RDF>
  </metadata>
  <g
     id="layer1"
     transform="matrix(1.0677965,0,0,0.65136617,-0.31431707,-495.64222)">
    <path
       d="m 50.825126,1012.7981 -22.68139,-4.72 -4.35742,17.8434 c 1.56637,4.7611 2.92573,9.6693 16.48709,5.9055 z"
       id="path3925-8"
       style="fill:#ffb380;stroke:#000000;stroke-width:1.77165353;stroke-linecap:butt;stroke-linejoin:miter;stroke-miterlimit:4;stroke-dasharray:none;stroke-opacity:1"
       inkscape:connector-curvature="0" />
    <path
       d="m 81.350346,911.79316 -11.28314,-22.01774 -30.62568,10.00806 -1.61187,14.0113 18.53659,15.01212 z"
       id="path4802"
       style="fill:#ffb380;stroke:#000000;stroke-width:2.9190526;stroke-linecap:butt;stroke-linejoin:miter;stroke-miterlimit:4;stroke-dasharray:none;stroke-opacity:1"
       inkscape:connector-curvature="0" />
    <path
       d="m 18.920336,1029.5485 c -6.66619,-5.9945 -10.18394,-5.093 -11.94876,-0.3523 -3.09528,6.8737 1.5669,17.6365 4.37268,16.7085 12.42176,4.0112 25.65505,1.9311 31.59074,-0.3953 l -0.0932,-17.9089 c -7.74268,2.0858 -14.14148,-4.9005 -17.1349,-7.4935 z"
       id="path4954-7-9-7-4"
       style="fill:#000000;stroke:#000000;stroke-width:2.9190526;stroke-linecap:butt;stroke-linejoin:miter;stroke-miterlimit:4;stroke-dasharray:none;stroke-opacity:0.9915963"
       inkscape:connector-curvature="0"
       sodipodi:nodetypes="ccccccc" />
    <path
       d="m 37.966046,903.33931 c -12.70827,-4.18523 -28.05406,-28.4683 -27.16113,-60.69319 0.85058,-30.69658 11.22417,-63.07278 40.21079,-71.05806 37.26772,-5.65089 47.4539,30.4466 51.189684,51.87231 6.4665,37.08897 -4.396054,75.8512 -39.988894,80.07863 -8.25531,0.9805 -8.39285,1.73459 -24.25045,-0.19969 z"
       id="path4206-7-5-7-8"
       style="fill:#ffb380;stroke:#000000;stroke-width:1.77165353;stroke-linecap:butt;stroke-linejoin:miter;stroke-miterlimit:4;stroke-dasharray:none;stroke-opacity:0.9915963"
       inkscape:connector-curvature="0" />
    <path
       d="m 33.686526,867.19992 3.68479,-9.0889 c 5.23591,27.46633 21.85782,25.1473 23.82337,24.13958 12.97997,-5.44937 20.34395,-18.16789 16.25048,-45.71779 l -0.36486,-2.48145 10.02159,6.60647"
       id="path4352-5-4-5-3"
       style="fill:#ffb380;stroke:#000000;stroke-width:2.9190526;stroke-linecap:butt;stroke-linejoin:miter;stroke-miterlimit:4;stroke-dasharray:none;stroke-opacity:0.9915963"
       inkscape:connector-curvature="0" />
    <path
       d="m 48.757126,838.34224 a 6.56817,3.3265138 80.389772 1 1 -0.1006,-0.22752"
       id="path4601-1-3-0"
       style="fill:#000000;stroke:#000000;stroke-width:2.91905284;stroke-linejoin:bevel;stroke-miterlimit:4;stroke-dasharray:none;stroke-dashoffset:0.1;stroke-opacity:0.9915963"
       inkscape:connector-curvature="0" />
    <path
       d="m 64.570276,831.64812 a 6.56817,3.3265138 80.389772 1 1 -0.1006,-0.22752"
       id="path4601-2-6-2-5"
       style="fill:#000000;stroke:#000000;stroke-width:2.91905284;stroke-linejoin:bevel;stroke-miterlimit:4;stroke-dasharray:none;stroke-dashoffset:0.1;stroke-opacity:0.9915963"
       inkscape:connector-curvature="0" />
    <path
       d="m 111.66649,820.70721 a 4.5143906,12.988653 3.9040976 1 1 -0.0201,-3.53174 l -4.53499,4.13942 z"
       id="path4729-7-5-5"
       style="fill:#ffb380;stroke:#000000;stroke-width:1.77165353;stroke-linejoin:bevel;stroke-miterlimit:4;stroke-dasharray:none;stroke-dashoffset:0.1;stroke-opacity:0.9915963"
       inkscape:connector-curvature="0" />
    <path
       d="m 2.357256,850.62481 a 13.11821,3.3826864 83.068279 1 1 0.37266,3.60944 l 3.24085,-1.30485 z"
       id="path4729-5-9-5-2"
       style="fill:#ffb380;stroke:#000000;stroke-width:1.77165353;stroke-linejoin:bevel;stroke-miterlimit:4;stroke-dasharray:none;stroke-dashoffset:0.1;stroke-opacity:0.9915963"
       inkscape:connector-curvature="0" />
    <path
       d="m 35.673136,968.44348 -15.89616,38.23042 31.35958,6.2012 c 3.39639,-7.5558 4.20441,-15.11171 7.6008,-22.66759 l 3.63855,-0.40929 7.12157,22.43328 28.00435,-11.8529 -8.18142,-25.40296 -4.00888,-10.16565"
       id="path4623-1-6-7"
       style="fill:url(#linearGradient3043);fill-opacity:1;stroke:#000000;stroke-width:2.9190526;stroke-linecap:butt;stroke-linejoin:miter;stroke-miterlimit:4;stroke-dasharray:none;stroke-opacity:0.9915963"
       inkscape:connector-curvature="0" />
    <path
       d="m 61.141896,923.81385 c -3.85595,-4.66362 -21.08278,-12.03484 -21.08278,-12.03484 -7.83373,0.97932 -14.22895,-2.65355 -14.15709,1.40085 l -2.44259,30.66511 19.23213,5.3939 -7.98725,21.58513 c 52.48964,-3.92827 34.35205,-1.8943 51.52813,-2.84142 l -5.99824,-29.74659 22.334444,3.01742 c -0.66382,-8.70554 -0.9765,-34.23021 0.26415,-27.63641 l -0.82778,-2.5353 -21.484694,0.57544 -19.41483,13.14757"
       id="path4621-3-2-1"
       style="fill:url(#linearGradient5036);fill-opacity:1;stroke:#000000;stroke-width:2.12598419;stroke-linecap:butt;stroke-linejoin:miter;stroke-miterlimit:4;stroke-dasharray:none;stroke-opacity:0.9915963"
       inkscape:connector-curvature="0"
       sodipodi:nodetypes="csccccccccccc" />
    <path
       d="m 29.080546,984.5207 22.75207,-14.80621"
       id="path3872"
       style="fill:none;stroke:#000000;stroke-width:2.85202694;stroke-linecap:butt;stroke-linejoin:miter;stroke-miterlimit:4;stroke-dasharray:none;stroke-opacity:1"
       inkscape:connector-curvature="0" />
    <path
       d="m 68.623516,968.27408 12.0493,5.48907 10.59893,4.82836"
       id="path3874"
       style="fill:none;stroke:#000000;stroke-width:2.9190526;stroke-linecap:butt;stroke-linejoin:miter;stroke-miterlimit:4;stroke-dasharray:none;stroke-opacity:1"
       inkscape:connector-curvature="0" />
    <path
       d="m 107.10005,1032.8995 c 6.04362,-6.0188 9.47145,-5.3737 11.44294,-1.0186 3.37316,6.2839 -0.46786,16.67 -3.21422,15.959 -11.68193,4.4855 -24.500054,3.2913 -30.331334,1.4457 l -0.96199,-16.8413 c 7.55078,1.5155 12.2592,-4.5702 14.97885,-7.1802 z"
       id="path4954-7-9-7-4-8"
       style="fill:#000000;stroke:#000000;stroke-width:2.9190526;stroke-linecap:butt;stroke-linejoin:miter;stroke-miterlimit:4;stroke-dasharray:none;stroke-opacity:0.9915963"
       inkscape:connector-curvature="0" />
    <path
       d="m 73.153156,1009.9123 18.76569,-6.6327 7.7651,21.3719 c -1.53695,5.3473 -2.87075,10.8598 -16.17731,6.6326 z"
       id="path3925"
       style="fill:#ffb380;stroke:#000000;stroke-width:1.77165353;stroke-linecap:butt;stroke-linejoin:miter;stroke-miterlimit:4;stroke-dasharray:none;stroke-opacity:1"
       inkscape:connector-curvature="0" />
    <path
       d="m 18.656596,1026.2267 8.52251,7.2615 -2.62487,-7.0452 8.519,0.6283 -6.77327,-3.8281 2.18756,6.1868 z"
       id="path3963"
       style="fill:none;stroke:#ffffff;stroke-width:0.70866144;stroke-linecap:butt;stroke-linejoin:miter;stroke-miterlimit:4;stroke-dasharray:none;stroke-opacity:1"
       inkscape:connector-curvature="0" />
    <path
       d="m 96.922826,1033.3753 2.26921,-7.0199 2.269224,8.7749 6.80764,-3.51 -1.81536,6.4349 -4.08459,-8.1898 z"
       id="path3965"
       style="fill:none;stroke:#ffffff;stroke-width:0.83337414;stroke-linecap:butt;stroke-linejoin:miter;stroke-miterlimit:4;stroke-dasharray:none;stroke-opacity:1"
       inkscape:connector-curvature="0" />
    <path
       d="m 7.650136,851.55222 c -2.5035,7.31258 13.04891,10.62404 14.69459,7.6272 2.29743,-8.60652 5.041,-17.226 3.10116,-25.7094 3.55708,-9.79307 -2.01275,-12.31906 -5.72492,-16.32418 6.42948,4.77768 8.20021,-2.50847 11.46405,-5.9282 l -2.50221,-30.84708 c 1.17808,10.62218 0.99387,22.42987 7.93254,28.03901 13.88241,3.02242 17.36477,-2.72901 25.65255,-4.42643 l -10.74133,-11.31957 c 8.01308,8.5548 14.82387,10.72962 21.77502,13.64919 l -10.173,-18.84519 c 5.35518,8.88637 10.50858,17.93996 22.5514,21.28298 l -8.17344,-22.28977 c 8.84732,21.92092 16.35261,23.71024 24.319344,32.42162 4.41152,-14.72895 3.91658,-12.06703 -2.890384,-29.54946 -4.36997,-40.02636 -98.38759,-46.20164 -91.4867,63.58533"
       id="path4789"
       style="fill:#502d16;stroke:#000000;stroke-width:1.77165353;stroke-linecap:butt;stroke-linejoin:miter;stroke-miterlimit:4;stroke-dasharray:none;stroke-opacity:1"
       inkscape:connector-curvature="0"
       sodipodi:nodetypes="cccccccccccccccc" />
    <path
       d="m 66.634536,941.56424 c -2.68297,-13.10073 -11.34032,-11.47651 -12.49125,-6.41565 -1.31015,9.1995 12.62724,19.91579 14.5838,20.07554 22.81344,-21.45855 7.25592,-23.11911 8.61691,-22.97805 -2.07787,0.0238 -7.04103,4.08726 -10.70946,9.31816 z"
       id="path4963"
       style="fill:#ff0000;stroke:#000000;stroke-width:1.02166843;stroke-linecap:butt;stroke-linejoin:miter;stroke-miterlimit:4;stroke-dasharray:none;stroke-opacity:1"
       inkscape:connector-curvature="0" />
    <path
       d="m 112.43368,924.21094 c 6.73033,12.50465 15.09973,22.06117 8.37556,29.19787 -3.24754,3.7786 -15.49303,1.21567 -32.597144,-0.22654 -7.41123,-0.62491 -12.25503,-1.92197 -11.42299,-3.5192 -0.1054,-1.47836 4.45743,-1.18972 6.79933,-1.74174 -2.9918,-0.42092 -7.44709,0.54726 -8.81015,-1.41958 0.5903,-2.95433 5.37576,-1.30775 8.76714,-1.19011 -4.3275,-1.09082 -10.73749,-1.58713 -10.49241,-3.98338 0.7911,-2.53318 6.47233,0.29673 9.97834,0.74105 -2.7416,-1.54615 -8.07112,-2.3012 -7.97834,-3.43891 -0.50148,-3.98895 6.26552,-0.52298 9.02199,-0.0973 -3.18784,-10.96475 0.14203,-7.52444 0.0243,-7.77733 l 5.96647,9.12608 19.799224,4.40628 -6.80964,-8.30919 c -0.0833,-5.50586 -1.10517,-13.97374 -0.0407,-24.61975 4.99671,2.51883 7.41778,8.93943 9.41898,12.85177 z"
       id="path4810-6"
       style="fill:#ffb380;stroke:#000000;stroke-width:1.77165353;stroke-linecap:butt;stroke-linejoin:miter;stroke-miterlimit:4;stroke-dasharray:none;stroke-opacity:1"
       inkscape:connector-curvature="0"
       sodipodi:nodetypes="ccsccccccccccccccc" />
    <path
       d="m 15.320696,926.82572 c -7.7122,12.4958 -17.8366,24.12704 -10.13147,31.25869 3.72131,3.77592 17.75325,1.2148 37.35262,-0.22639 8.49242,-0.62446 14.04286,-1.9206 13.08943,-3.5167 0.12079,-1.47731 -5.10769,-1.18888 -7.79125,-1.74051 3.42826,-0.42061 8.53353,0.54688 10.09543,-1.41858 -0.67641,-2.95222 -6.16002,-1.30681 -10.04614,-1.18925 4.95883,-1.09006 12.30395,-1.58602 12.0231,-3.98057 -0.90649,-2.53139 -7.41653,0.29652 -11.43404,0.74052 3.14157,-1.54504 9.24859,-2.29956 9.14228,-3.43646 0.57464,-3.98614 -7.17957,-0.52261 -10.33818,-0.0972 3.65291,-10.95698 -0.16276,-7.51912 -0.0279,-7.77182 l -6.83689,9.11961 -22.68765,4.40316 5.24823,-7.4678 c 0.0955,-5.50196 1.26642,-19.93643 2.14393,-27.45048 z"
       id="path4810"
       style="fill:#ffb380;stroke:#000000;stroke-width:1.77165353;stroke-linecap:butt;stroke-linejoin:miter;stroke-miterlimit:4;stroke-dasharray:none;stroke-opacity:1"
       inkscape:connector-curvature="0" />
  </g>
</svg>
