<?xml version="1.0" encoding="UTF-8" standalone="no"?>
<!-- Created with Inkscape (http://www.inkscape.org/) -->

<svg
   xmlns:dc="http://purl.org/dc/elements/1.1/"
   xmlns:cc="http://creativecommons.org/ns#"
   xmlns:rdf="http://www.w3.org/1999/02/22-rdf-syntax-ns#"
   xmlns:svg="http://www.w3.org/2000/svg"
   xmlns="http://www.w3.org/2000/svg"
   xmlns:xlink="http://www.w3.org/1999/xlink"
   xmlns:sodipodi="http://sodipodi.sourceforge.net/DTD/sodipodi-0.dtd"
   xmlns:inkscape="http://www.inkscape.org/namespaces/inkscape"
   width="200"
   height="200"
   viewBox="0 0 199.99999 200.00008"
   id="svg2"
   version="1.1"
   inkscape:version="0.91 r13725"
   sodipodi:docname="Logincelular.svg">
  <defs
     id="defs4">
    <linearGradient
       inkscape:collect="always"
       id="linearGradient6066">
      <stop
         style="stop-color:#462200;stop-opacity:1;"
         offset="0"
         id="stop6068" />
      <stop
         style="stop-color:#462200;stop-opacity:0;"
         offset="1"
         id="stop6070" />
    </linearGradient>
    <linearGradient
       inkscape:collect="always"
       id="linearGradient4411">
      <stop
         style="stop-color:#30ad23;stop-opacity:1;"
         offset="0"
         id="stop4413" />
      <stop
         style="stop-color:#30ad23;stop-opacity:0;"
         offset="1"
         id="stop4415" />
    </linearGradient>
    <inkscape:perspective
       sodipodi:type="inkscape:persp3d"
       inkscape:vp_x="0 : 1360.63 : 1"
       inkscape:vp_y="0 : 1000.0001 : 0"
       inkscape:vp_z="4840.1574 : 1360.63 : 1"
       inkscape:persp3d-origin="2420.0788 : 907.08702 : 1"
       id="perspective4295" />
    <radialGradient
       inkscape:collect="always"
       xlink:href="#linearGradient4411"
       id="radialGradient4419"
       cx="4759.9995"
       cy="-1479.0663"
       fx="4759.9995"
       fy="-1479.0663"
       r="657.64288"
       gradientTransform="matrix(0.04625205,0,0,0.02933145,-31.549311,2566.8512)"
       gradientUnits="userSpaceOnUse" />
    <linearGradient
       inkscape:collect="always"
       xlink:href="#linearGradient6066"
       id="linearGradient6072"
       x1="4763.8794"
       y1="-103.25234"
       x2="4250.7217"
       y2="-111.33356"
       gradientUnits="userSpaceOnUse"
       gradientTransform="matrix(0.04867095,0,0,0.07696035,-31.016701,979.31045)" />
  </defs>
  <sodipodi:namedview
     id="base"
     pagecolor="#ffffff"
     bordercolor="#666666"
     borderopacity="1.0"
     inkscape:pageopacity="0.0"
     inkscape:pageshadow="2"
     inkscape:zoom="1.979899"
     inkscape:cx="110.20345"
     inkscape:cy="125.12134"
     inkscape:document-units="px"
     inkscape:current-layer="layer3"
     showgrid="false"
     units="px"
     inkscape:object-nodes="false"
     inkscape:window-width="1855"
     inkscape:window-height="1056"
     inkscape:window-x="65"
     inkscape:window-y="24"
     inkscape:window-maximized="1"
     showguides="false" />
  <metadata
     id="metadata7">
    <rdf:RDF>
      <cc:Work
         rdf:about="">
        <dc:format>image/svg+xml</dc:format>
        <dc:type
           rdf:resource="http://purl.org/dc/dcmitype/StillImage" />
        <dc:title />
      </cc:Work>
    </rdf:RDF>
  </metadata>
  <g
     inkscape:label="Capa 1"
     inkscape:groupmode="layer"
     id="layer1"
     transform="translate(0,-852.36213)"
     style="display:inline">
    <rect
       style="opacity:1;fill:#54d4f4;fill-opacity:1;fill-rule:nonzero;stroke:#30adff;stroke-width:0.34232581;stroke-linejoin:miter;stroke-miterlimit:4;stroke-dasharray:none;stroke-opacity:0.09411765"
       id="rect6153"
       width="223.90564"
       height="210.4102"
       x="-34.665543"
       y="847.59082" />
    <path
       style="display:inline;fill:#552200;fill-opacity:1;fill-rule:evenodd;stroke:#000000;stroke-width:0.05640257px;stroke-linecap:butt;stroke-linejoin:miter;stroke-opacity:1"
       d="m 166.63963,876.2061 c 0.32837,155.0153 -41.37267,156.9133 -41.37267,156.9133 l 80.1185,0 -0.6567,-156.9133 z"
       id="path4317"
       inkscape:connector-curvature="0" />
    <rect
       style="display:inline;opacity:1;fill:url(#linearGradient6072);fill-opacity:1;fill-rule:nonzero;stroke:#30adff;stroke-width:0.05517598;stroke-linejoin:miter;stroke-miterlimit:4;stroke-dasharray:none;stroke-opacity:0.09497208"
       id="rect5994"
       width="18.082579"
       height="133.69872"
       x="187.3228"
       y="894.94177" />
    <path
       style="fill:#552200;fill-opacity:1;fill-rule:evenodd;stroke:none;stroke-width:1px;stroke-linecap:butt;stroke-linejoin:miter;stroke-opacity:1"
       d="m 55.200395,877.57456 c 15.591764,6.13305 28.376853,12.94277 39.792529,18.22655 68.770166,31.83041 68.212226,47.07985 68.212226,47.07985 l 3.93846,-26.81001 z"
       id="path6074"
       inkscape:connector-curvature="0"
       sodipodi:nodetypes="csccc" />
    <rect
       style="color:#000000;clip-rule:nonzero;display:inline;overflow:visible;visibility:visible;opacity:1;isolation:auto;mix-blend-mode:normal;color-interpolation:sRGB;color-interpolation-filters:linearRGB;solid-color:#000000;solid-opacity:1;fill:#f9f9f9;fill-opacity:1;fill-rule:nonzero;stroke:none;stroke-width:3;stroke-linecap:butt;stroke-linejoin:miter;stroke-miterlimit:4;stroke-dasharray:none;stroke-dashoffset:0;stroke-opacity:1;color-rendering:auto;image-rendering:auto;shape-rendering:auto;text-rendering:auto;enable-background:accumulate"
       id="rect4391"
       width="31.42753"
       height="13.324449"
       x="109.98991"
       y="921.19159"
       ry="6.6622238" />
    <ellipse
       style="color:#000000;clip-rule:nonzero;display:inline;overflow:visible;visibility:visible;opacity:1;isolation:auto;mix-blend-mode:normal;color-interpolation:sRGB;color-interpolation-filters:linearRGB;solid-color:#000000;solid-opacity:1;fill:#f9f9f9;fill-opacity:1;fill-rule:nonzero;stroke:none;stroke-width:3;stroke-linecap:butt;stroke-linejoin:miter;stroke-miterlimit:4;stroke-dasharray:none;stroke-dashoffset:0;stroke-opacity:1;color-rendering:auto;image-rendering:auto;shape-rendering:auto;text-rendering:auto;enable-background:accumulate"
       id="path4393"
       cx="126.39902"
       cy="921.19159"
       rx="11.959149"
       ry="8.8829632" />
    <path
       style="fill:#462200;fill-opacity:1;fill-rule:evenodd;stroke:#30adff;stroke-width:0.06661072px;stroke-linecap:butt;stroke-linejoin:miter;stroke-opacity:0.09411765"
       d="m 29.063145,866.14513 c 111.910855,45.02093 132.980525,88.81306 132.980525,88.81306 2.05868,-10.86563 2.19144,-11.36124 2.46742,-21.42407 0.276,-10.06296 -134.955879,-67.75968 -135.447945,-67.38899 z"
       id="path6076"
       inkscape:connector-curvature="0"
       sodipodi:nodetypes="cczc" />
    <ellipse
       style="opacity:1;fill:#4fa736;fill-opacity:1;fill-rule:nonzero;stroke:none;stroke-width:1;stroke-linejoin:miter;stroke-miterlimit:4;stroke-dasharray:none;stroke-opacity:0.09411765"
       id="path6177"
       cx="4.1831374"
       cy="866.7049"
       rx="19.47887"
       ry="15.346012"
       transform="matrix(0.98695542,0.16099381,-0.03072739,0.9995278,0,0)" />
    <ellipse
       style="display:inline;opacity:1;fill:#4fa736;fill-opacity:1;fill-rule:nonzero;stroke:none;stroke-width:1;stroke-linejoin:miter;stroke-miterlimit:4;stroke-dasharray:none;stroke-opacity:0.09411765"
       id="path6177-8"
       cx="-0.040002748"
       cy="868.68359"
       rx="18.212568"
       ry="11.393619"
       transform="matrix(0.99990015,-0.01413151,0.01076408,0.99994207,0,0)" />
    <ellipse
       style="display:inline;opacity:1;fill:#4fa736;fill-opacity:1;fill-rule:nonzero;stroke:none;stroke-width:1;stroke-linejoin:miter;stroke-miterlimit:4;stroke-dasharray:none;stroke-opacity:0.09411765"
       id="path6177-5"
       cx="2.7257974"
       cy="870.55164"
       rx="21.718016"
       ry="12.799517"
       transform="matrix(0.99967269,-0.02558349,0.04446437,0.99901097,0,0)" />
    <ellipse
       style="display:inline;opacity:1;fill:#4fa736;fill-opacity:1;fill-rule:nonzero;stroke:none;stroke-width:1;stroke-linejoin:miter;stroke-miterlimit:4;stroke-dasharray:none;stroke-opacity:0.09411765"
       id="path6177-5-3"
       cx="38.504749"
       cy="876.16077"
       rx="21.718016"
       ry="12.799517"
       transform="matrix(0.99967269,-0.02558349,0.04446437,0.99901097,0,0)" />
    <ellipse
       style="display:inline;opacity:1;fill:#4fa736;fill-opacity:1;fill-rule:nonzero;stroke:none;stroke-width:1;stroke-linejoin:miter;stroke-miterlimit:4;stroke-dasharray:none;stroke-opacity:0.09411765"
       id="path6177-5-5"
       cx="71.945282"
       cy="881.63745"
       rx="23.664116"
       ry="13.294356"
       transform="matrix(0.99970265,-0.02438485,0.04664672,0.99891145,0,0)" />
    <ellipse
       style="display:inline;opacity:1;fill:#4fa736;fill-opacity:1;fill-rule:nonzero;stroke:none;stroke-width:1;stroke-linejoin:miter;stroke-miterlimit:4;stroke-dasharray:none;stroke-opacity:0.09411765"
       id="path6177-5-2"
       cx="167.62038"
       cy="865.7934"
       rx="25.74505"
       ry="12.824744"
       transform="matrix(0.99139411,0.13091108,-0.01542807,0.99988098,0,0)" />
    <ellipse
       style="display:inline;opacity:1;fill:#4fa736;fill-opacity:1;fill-rule:nonzero;stroke:none;stroke-width:1;stroke-linejoin:miter;stroke-miterlimit:4;stroke-dasharray:none;stroke-opacity:0.09411765"
       id="path6177-5-7"
       cx="157.61882"
       cy="894.03076"
       rx="21.718016"
       ry="12.799517"
       transform="matrix(0.99967269,-0.02558349,0.04446437,0.99901097,0,0)" />
    <ellipse
       style="color:#000000;clip-rule:nonzero;display:inline;overflow:visible;visibility:visible;opacity:1;isolation:auto;mix-blend-mode:normal;color-interpolation:sRGB;color-interpolation-filters:linearRGB;solid-color:#000000;solid-opacity:1;fill:#462200;fill-opacity:1;fill-rule:nonzero;stroke:none;stroke-width:0.9989633;stroke-linecap:butt;stroke-linejoin:miter;stroke-miterlimit:4;stroke-dasharray:none;stroke-dashoffset:0;stroke-opacity:0.09411765;color-rendering:auto;image-rendering:auto;shape-rendering:auto;text-rendering:auto;enable-background:accumulate"
       id="path4184"
       cx="187.72452"
       cy="932.95844"
       rx="7.5092325"
       ry="11.653996" />
    <path
       sodipodi:type="spiral"
       style="fill:none;fill-rule:evenodd;stroke:#000000;stroke-width:1px;stroke-linecap:butt;stroke-linejoin:miter;stroke-opacity:1"
       id="path4186"
       sodipodi:cx="4302.8564"
       sodipodi:cy="-141.92349"
       sodipodi:expansion="1"
       sodipodi:revolution="3"
       sodipodi:radius="92.140083"
       sodipodi:argument="-17.403114"
       sodipodi:t0="0"
       d="m 4302.8564,-141.92349 c 0.5731,4.58408 -5.8965,3.03403 -7.619,0.95238 -4.6679,-5.64115 0.046,-13.57359 5.7143,-16.19048 10.139,-4.68099 21.3667,2.57942 24.7619,12.38096 4.9826,14.38416 -5.1118,29.29301 -19.0476,33.33333 -18.5744,5.38511 -37.2702,-7.63913 -41.9048,-25.7143 -5.8321,-22.74575 10.163,-45.27252 32.381,-50.47618 26.9089,-6.30232 53.2892,12.68467 59.0476,39.04764 6.7861,31.06784 -15.205,61.314797 -45.7143,67.619027 -35.2243,7.278483 -69.3464,-17.724259 -76.1905,-52.380967 -7.7766,-39.37916 20.243,-77.3822 59.0477,-84.76189 43.533,-8.27889 85.421,22.76115 93.3333,65.71431 8.7841,47.68614 -25.2791,93.462183 -72.381,101.904737"
       transform="matrix(0.03437275,0,0,0.07703262,29.364386,984.81729)" />
    <path
       sodipodi:type="spiral"
       style="fill:none;fill-rule:evenodd;stroke:#000000;stroke-width:1px;stroke-linecap:butt;stroke-linejoin:miter;stroke-opacity:1"
       id="path4188"
       sodipodi:cx="3828.571"
       sodipodi:cy="423.79086"
       sodipodi:expansion="1"
       sodipodi:revolution="3"
       sodipodi:radius="97.310776"
       sodipodi:argument="-17.981016"
       sodipodi:t0="0"
       d="m 3828.571,423.79086 c 3.1516,3.72457 -3.4657,6.08581 -6.1904,5.2381 -7.3838,-2.29725 -7.7902,-12.03401 -4.2857,-17.61905 6.2686,-9.99033 20.3894,-10.04515 29.0476,-3.33333 12.7062,9.84988 12.3778,28.86214 2.3809,40.47619 -13.3243,15.47971 -37.377,14.74435 -51.9047,1.42856 -18.2818,-16.75657 -17.1285,-45.91205 -0.4762,-63.33333 20.1681,-21.09952 54.4585,-19.5227 74.7619,0.47621 23.9268,23.56804 21.9234,63.0121 -1.4286,86.19048 -26.9608,26.76035 -71.5704,24.32838 -97.6191,-2.38099 -29.598,-30.34888 -26.7363,-80.13211 3.3334,-109.04762 33.7337,-32.43883 88.6962,-29.14649 120.4762,4.28576 35.2818,37.11614 31.5583,97.26214 -5.2381,131.90476"
       transform="matrix(0.03888015,0,0,0.05491129,13.360984,975.12682)" />
    <path
       sodipodi:type="spiral"
       style="fill:none;fill-rule:evenodd;stroke:#000000;stroke-width:1px;stroke-linecap:butt;stroke-linejoin:miter;stroke-opacity:1"
       id="path4190"
       sodipodi:cx="4314.2852"
       sodipodi:cy="458.07657"
       sodipodi:expansion="1"
       sodipodi:revolution="3"
       sodipodi:radius="109.76784"
       sodipodi:argument="-17.953501"
       sodipodi:t0="0"
       d="m 4314.2852,458.07657 c 3.438,4.29758 -4.0969,6.75471 -7.1429,5.71429 -8.2545,-2.8195 -8.4106,-13.81114 -4.2857,-20 7.3784,-11.07042 23.3026,-10.69401 32.8571,-2.85715 14.0217,11.5009 13.0614,32.92868 1.4286,45.71428 -15.5047,17.0412 -42.6033,15.46557 -58.5714,1e-5 -20.0942,-19.46182 -17.889,-52.30134 1.4285,-71.42856 23.3961,-23.16563 62.0126,-20.32348 84.2857,2.85712 26.2482,27.31753 22.7651,71.73194 -4.2856,97.14285 -31.2312,29.33791 -81.4569,25.21124 -110,-5.71426 -32.4326,-35.13952 -27.6608,-91.18559 7.1428,-122.85714 39.0443,-35.53069 100.9171,-30.1126 135.7143,8.5714 38.6314,42.94658 32.5662,110.65083 -10,148.57142"
       transform="matrix(0.02324308,0.03947788,-0.03565304,0.0524845,94.521544,819.28653)" />
    <ellipse
       style="color:#000000;clip-rule:nonzero;display:inline;overflow:visible;visibility:visible;opacity:1;isolation:auto;mix-blend-mode:normal;color-interpolation:sRGB;color-interpolation-filters:linearRGB;solid-color:#000000;solid-opacity:1;fill:#3c2200;fill-opacity:1;fill-rule:nonzero;stroke:none;stroke-width:0.9989633;stroke-linecap:butt;stroke-linejoin:miter;stroke-miterlimit:4;stroke-dasharray:none;stroke-dashoffset:0;stroke-opacity:0.09411765;color-rendering:auto;image-rendering:auto;shape-rendering:auto;text-rendering:auto;enable-background:accumulate"
       id="path4196"
       cx="187.58531"
       cy="933.53583"
       rx="5.4233356"
       ry="8.2457514" />
    <rect
       style="color:#000000;clip-rule:nonzero;display:inline;overflow:visible;visibility:visible;opacity:1;isolation:auto;mix-blend-mode:normal;color-interpolation:sRGB;color-interpolation-filters:linearRGB;solid-color:#000000;solid-opacity:1;fill:#f9f9f9;fill-opacity:1;fill-rule:nonzero;stroke:none;stroke-width:3;stroke-linecap:butt;stroke-linejoin:miter;stroke-miterlimit:4;stroke-dasharray:none;stroke-dashoffset:0;stroke-opacity:1;color-rendering:auto;image-rendering:auto;shape-rendering:auto;text-rendering:auto;enable-background:accumulate"
       id="rect4385"
       width="34.962994"
       height="16.60228"
       x="-26.526363"
       y="905.78912"
       ry="8.3011408" />
    <rect
       style="color:#000000;clip-rule:nonzero;display:inline;overflow:visible;visibility:visible;opacity:1;isolation:auto;mix-blend-mode:normal;color-interpolation:sRGB;color-interpolation-filters:linearRGB;solid-color:#000000;solid-opacity:1;fill:#f9f9f9;fill-opacity:1;fill-rule:nonzero;stroke:none;stroke-width:3;stroke-linecap:butt;stroke-linejoin:miter;stroke-miterlimit:4;stroke-dasharray:none;stroke-dashoffset:0;stroke-opacity:1;color-rendering:auto;image-rendering:auto;shape-rendering:auto;text-rendering:auto;enable-background:accumulate"
       id="rect4397"
       width="24.141111"
       height="15.137371"
       x="-20.421816"
       y="897.9762"
       ry="7.5686855" />
    <ellipse
       style="color:#000000;clip-rule:nonzero;display:inline;overflow:visible;visibility:visible;opacity:1;isolation:auto;mix-blend-mode:normal;color-interpolation:sRGB;color-interpolation-filters:linearRGB;solid-color:#000000;solid-opacity:1;fill:#f9f9f9;fill-opacity:1;fill-rule:nonzero;stroke:none;stroke-width:3;stroke-linecap:butt;stroke-linejoin:miter;stroke-miterlimit:4;stroke-dasharray:none;stroke-dashoffset:0;stroke-opacity:1;color-rendering:auto;image-rendering:auto;shape-rendering:auto;text-rendering:auto;enable-background:accumulate"
       id="path4399"
       cx="-13.484616"
       cy="903.10345"
       rx="9.7119436"
       ry="12.940015" />
    <rect
       style="color:#000000;clip-rule:nonzero;display:inline;overflow:visible;visibility:visible;opacity:1;isolation:auto;mix-blend-mode:normal;color-interpolation:sRGB;color-interpolation-filters:linearRGB;solid-color:#000000;solid-opacity:1;fill:#f9f9f9;fill-opacity:1;fill-rule:nonzero;stroke:none;stroke-width:3;stroke-linecap:butt;stroke-linejoin:miter;stroke-miterlimit:4;stroke-dasharray:none;stroke-dashoffset:0;stroke-opacity:1;color-rendering:auto;image-rendering:auto;shape-rendering:auto;text-rendering:auto;enable-background:accumulate"
       id="rect4385-4"
       width="14.462226"
       height="6.4189143"
       x="26.275946"
       y="952.44043"
       ry="3.2094572" />
    <rect
       style="color:#000000;clip-rule:nonzero;display:inline;overflow:visible;visibility:visible;opacity:1;isolation:auto;mix-blend-mode:normal;color-interpolation:sRGB;color-interpolation-filters:linearRGB;solid-color:#000000;solid-opacity:1;fill:#f9f9f9;fill-opacity:1;fill-rule:nonzero;stroke:none;stroke-width:3;stroke-linecap:butt;stroke-linejoin:miter;stroke-miterlimit:4;stroke-dasharray:none;stroke-dashoffset:0;stroke-opacity:1;color-rendering:auto;image-rendering:auto;shape-rendering:auto;text-rendering:auto;enable-background:accumulate"
       id="rect4397-0"
       width="9.9858208"
       height="5.8525395"
       x="28.801176"
       y="949.41974"
       ry="2.9262698" />
    <ellipse
       style="color:#000000;clip-rule:nonzero;display:inline;overflow:visible;visibility:visible;opacity:1;isolation:auto;mix-blend-mode:normal;color-interpolation:sRGB;color-interpolation-filters:linearRGB;solid-color:#000000;solid-opacity:1;fill:#f9f9f9;fill-opacity:1;fill-rule:nonzero;stroke:none;stroke-width:3;stroke-linecap:butt;stroke-linejoin:miter;stroke-miterlimit:4;stroke-dasharray:none;stroke-dashoffset:0;stroke-opacity:1;color-rendering:auto;image-rendering:auto;shape-rendering:auto;text-rendering:auto;enable-background:accumulate"
       id="path4399-5"
       cx="31.670591"
       cy="951.4021"
       rx="4.0172849"
       ry="5.0029783" />
    <rect
       style="color:#000000;clip-rule:nonzero;display:inline;overflow:visible;visibility:visible;opacity:1;isolation:auto;mix-blend-mode:normal;color-interpolation:sRGB;color-interpolation-filters:linearRGB;solid-color:#000000;solid-opacity:1;fill:#f9f9f9;fill-opacity:1;fill-rule:nonzero;stroke:none;stroke-width:3;stroke-linecap:butt;stroke-linejoin:miter;stroke-miterlimit:4;stroke-dasharray:none;stroke-dashoffset:0;stroke-opacity:1;color-rendering:auto;image-rendering:auto;shape-rendering:auto;text-rendering:auto;enable-background:accumulate"
       id="rect4385-4-1"
       width="14.462226"
       height="7.2030764"
       x="73.000153"
       y="901.23981"
       ry="3.6015382" />
    <rect
       style="color:#000000;clip-rule:nonzero;display:inline;overflow:visible;visibility:visible;opacity:1;isolation:auto;mix-blend-mode:normal;color-interpolation:sRGB;color-interpolation-filters:linearRGB;solid-color:#000000;solid-opacity:1;fill:#f9f9f9;fill-opacity:1;fill-rule:nonzero;stroke:none;stroke-width:3;stroke-linecap:butt;stroke-linejoin:miter;stroke-miterlimit:4;stroke-dasharray:none;stroke-dashoffset:0;stroke-opacity:1;color-rendering:auto;image-rendering:auto;shape-rendering:auto;text-rendering:auto;enable-background:accumulate"
       id="rect4397-0-0"
       width="9.9858208"
       height="6.5675106"
       x="75.5252"
       y="897.8501"
       ry="3.2837553" />
    <ellipse
       style="color:#000000;clip-rule:nonzero;display:inline;overflow:visible;visibility:visible;opacity:1;isolation:auto;mix-blend-mode:normal;color-interpolation:sRGB;color-interpolation-filters:linearRGB;solid-color:#000000;solid-opacity:1;fill:#f9f9f9;fill-opacity:1;fill-rule:nonzero;stroke:none;stroke-width:3;stroke-linecap:butt;stroke-linejoin:miter;stroke-miterlimit:4;stroke-dasharray:none;stroke-dashoffset:0;stroke-opacity:1;color-rendering:auto;image-rendering:auto;shape-rendering:auto;text-rendering:auto;enable-background:accumulate"
       id="path4399-5-6"
       cx="78.394615"
       cy="900.07458"
       rx="4.0172849"
       ry="5.6141639" />
    <ellipse
       style="color:#000000;clip-rule:nonzero;display:inline;overflow:visible;visibility:visible;opacity:1;isolation:auto;mix-blend-mode:normal;color-interpolation:sRGB;color-interpolation-filters:linearRGB;solid-color:#000000;solid-opacity:1;fill:#f9f9f9;fill-opacity:1;fill-rule:nonzero;stroke:none;stroke-width:3;stroke-linecap:butt;stroke-linejoin:miter;stroke-miterlimit:4;stroke-dasharray:none;stroke-dashoffset:0;stroke-opacity:1;color-rendering:auto;image-rendering:auto;shape-rendering:auto;text-rendering:auto;enable-background:accumulate"
       id="path4443"
       cx="81.76796"
       cy="899.11487"
       rx="2.2615941"
       ry="5.7577701" />
    <path
       sodipodi:type="spiral"
       style="fill:none;fill-rule:evenodd;stroke:#000000;stroke-width:1px;stroke-linecap:butt;stroke-linejoin:miter;stroke-opacity:1"
       id="path4445"
       sodipodi:cx="4248.5708"
       sodipodi:cy="-873.35193"
       sodipodi:expansion="1"
       sodipodi:revolution="3"
       sodipodi:radius="61.345459"
       sodipodi:argument="-17.763237"
       sodipodi:t0="0"
       d="m 4248.5708,-873.35193 c 1.4325,2.7218 -2.9622,3.27386 -4.5238,2.38095 -4.2319,-2.41972 -3.1559,-8.46821 -0.2381,-11.42857 5.2192,-5.29539 13.9183,-3.40578 18.3333,1.90477 6.4793,7.79345 3.6876,19.4511 -4.0476,25.23809 -10.3098,7.71316 -25.0145,3.9844 -32.1429,-6.19049 -8.9703,-12.80405 -4.2892,-30.59266 8.3334,-39.04761 15.2877,-10.24008 36.1793,-4.59893 45.9524,10.47621 11.5172,17.76554 4.9115,41.77115 -12.6191,52.85714 -20.2398,12.7992 -47.3665,5.22614 -59.7619,-14.76194 -14.0844,-22.71173 -5.5421,-52.96437 16.9048,-66.66666 25.1821,-15.37189 58.564,-5.85912 73.5714,19.04766 16.6611,27.65125 6.1769,64.16498 -21.1905,80.47618"
       transform="matrix(0.04867097,0,0,0.08636215,-31.016701,984.27871)" />
    <path
       sodipodi:type="spiral"
       style="fill:none;fill-rule:evenodd;stroke:#000000;stroke-width:1px;stroke-linecap:butt;stroke-linejoin:miter;stroke-opacity:1"
       id="path4447"
       sodipodi:cx="4088.571"
       sodipodi:cy="-590.49487"
       sodipodi:expansion="1"
       sodipodi:revolution="3"
       sodipodi:radius="77.984818"
       sodipodi:argument="-17.775183"
       sodipodi:t0="0"
       d="m 4088.571,-590.49487 c 1.8623,3.43806 -3.7156,4.20654 -5.7142,3.09524 -5.4162,-3.01156 -4.1402,-10.71644 -0.4762,-14.52381 6.5539,-6.81049 17.6404,-4.54061 23.3333,2.14285 8.3545,9.80824 4.9828,24.66925 -4.7619,32.14285 -12.9882,9.96114 -31.7366,5.44462 -40.9524,-7.38093 -11.5971,-16.13965 -5.9169,-38.82272 10,-49.76191 19.2775,-13.24882 45.9194,-6.39532 58.5714,12.61903 14.91,22.40775 6.8777,53.02279 -15.238,67.38095 -25.5335,16.57706 -60.1306,7.3625 -76.1905,-17.85711 -18.2483,-28.65613 -7.8492,-67.24148 20.4761,-85 31.7768,-19.92239 74.3547,-8.33716 93.8096,23.0952 21.5986,34.89587 8.8261,81.46949 -25.7143,102.61905"
       transform="matrix(0.02757567,0.02609379,-0.02502602,0.06612646,41.444698,876.18079)" />
  </g>
  <g
     inkscape:groupmode="layer"
     id="layer3"
     inkscape:label="Capa 3"
     transform="translate(0,-2521.2606)">
    <ellipse
       style="display:inline;opacity:1;fill:#8bc123;fill-opacity:1;stroke:none;stroke-width:1;stroke-linejoin:miter;stroke-miterlimit:4;stroke-dasharray:none;stroke-opacity:1"
       id="path4323"
       cx="204.79565"
       cy="2532.8806"
       rx="32.345016"
       ry="20.598019" />
    <ellipse
       style="display:inline;opacity:1;fill:#8bc123;fill-opacity:1;stroke:none;stroke-width:1;stroke-linejoin:miter;stroke-miterlimit:4;stroke-dasharray:none;stroke-opacity:1"
       id="path4323-0"
       cx="157.82663"
       cy="2545.6755"
       rx="31.983772"
       ry="19.246424" />
    <ellipse
       style="display:inline;opacity:1;fill:#8bc123;fill-opacity:1;stroke:none;stroke-width:1;stroke-linejoin:miter;stroke-miterlimit:4;stroke-dasharray:none;stroke-opacity:1"
       id="path4323-7"
       cx="113.88366"
       cy="2537.7793"
       rx="31.983772"
       ry="19.246424" />
    <ellipse
       style="display:inline;opacity:1;fill:#8bc123;fill-opacity:1;stroke:none;stroke-width:1;stroke-linejoin:miter;stroke-miterlimit:4;stroke-dasharray:none;stroke-opacity:1"
       id="path4323-5"
       cx="82.177933"
       cy="2532.3511"
       rx="31.983772"
       ry="19.246424" />
    <ellipse
       style="display:inline;opacity:1;fill:#8bc123;fill-opacity:1;stroke:none;stroke-width:1;stroke-linejoin:miter;stroke-miterlimit:4;stroke-dasharray:none;stroke-opacity:1"
       id="path4323-9"
       cx="36.63942"
       cy="2526.1821"
       rx="30.394217"
       ry="20.480171" />
    <ellipse
       style="display:inline;opacity:1;fill:#8bc123;fill-opacity:1;stroke:none;stroke-width:1;stroke-linejoin:miter;stroke-miterlimit:4;stroke-dasharray:none;stroke-opacity:1"
       id="path4323-9-4"
       cx="6.602459"
       cy="2527.3223"
       rx="29.665514"
       ry="19.043791" />
    <ellipse
       style="display:inline;opacity:1;fill:#8bc123;fill-opacity:1;stroke:none;stroke-width:1;stroke-linejoin:miter;stroke-miterlimit:4;stroke-dasharray:none;stroke-opacity:1"
       id="path4323-9-3"
       cx="-20.294268"
       cy="2527.8105"
       rx="20.963627"
       ry="19.043791" />
    <ellipse
       style="display:inline;opacity:1;fill:#8bc123;fill-opacity:1;stroke:url(#radialGradient4419);stroke-width:0.06320149;stroke-linejoin:miter;stroke-miterlimit:4;stroke-dasharray:none;stroke-opacity:1"
       id="path4323-9-8"
       cx="188.61041"
       cy="2523.4678"
       rx="30.394217"
       ry="19.246424" />
    <ellipse
       style="display:inline;opacity:1;fill:#8bc123;fill-opacity:1;stroke:none;stroke-width:1;stroke-linejoin:miter;stroke-miterlimit:4;stroke-dasharray:none;stroke-opacity:1"
       id="path4323-9-9"
       cx="154.51614"
       cy="2520.9998"
       rx="30.394217"
       ry="19.246424" />
    <ellipse
       style="display:inline;opacity:1;fill:#8bc123;fill-opacity:1;stroke:none;stroke-width:1;stroke-linejoin:miter;stroke-miterlimit:4;stroke-dasharray:none;stroke-opacity:1"
       id="path4323-9-49"
       cx="113.02135"
       cy="2524.4546"
       rx="30.394217"
       ry="19.246424" />
    <ellipse
       style="display:inline;opacity:1;fill:#8bc123;fill-opacity:1;stroke:none;stroke-width:1;stroke-linejoin:miter;stroke-miterlimit:4;stroke-dasharray:none;stroke-opacity:1"
       id="path4323-9-0"
       cx="70.733894"
       cy="2520.5068"
       rx="30.394217"
       ry="19.246424" />
  </g>
  <g
     inkscape:groupmode="layer"
     id="layer4"
     inkscape:label="Capa 4"
     transform="translate(0,-2521.2606)">
    <ellipse
       style="display:inline;opacity:1;fill:#008000;fill-opacity:1;stroke:#30ad23;stroke-width:0.04561862;stroke-linejoin:miter;stroke-miterlimit:4;stroke-dasharray:none;stroke-opacity:1"
       id="path4215-2-4"
       cx="56.221424"
       cy="2713.0471"
       rx="28.228769"
       ry="16.976957" />
    <ellipse
       style="display:inline;opacity:1;fill:#008000;fill-opacity:1;stroke:#30ad23;stroke-width:0.04520554;stroke-linejoin:miter;stroke-miterlimit:4;stroke-dasharray:none;stroke-opacity:1"
       id="path4215-2-9"
       cx="92.413475"
       cy="2714.5151"
       rx="28.788069"
       ry="16.346985" />
    <ellipse
       style="display:inline;opacity:1;fill:#008000;fill-opacity:1;stroke:#30ad23;stroke-width:0.03751078;stroke-linejoin:miter;stroke-miterlimit:4;stroke-dasharray:none;stroke-opacity:1"
       id="path4215-2-2"
       cx="136.46423"
       cy="2709.5444"
       rx="27.22761"
       ry="11.900609" />
    <ellipse
       style="display:inline;opacity:1;fill:#008000;fill-opacity:1;stroke:#30ad23;stroke-width:0.0358121;stroke-linejoin:miter;stroke-miterlimit:4;stroke-dasharray:none;stroke-opacity:1"
       id="path4215-2-8"
       cx="170.50974"
       cy="2708.0237"
       rx="25.633537"
       ry="11.521734" />
    <ellipse
       style="display:inline;opacity:1;fill:#008000;fill-opacity:1;stroke:#30ad23;stroke-width:0.03619283;stroke-linejoin:miter;stroke-miterlimit:4;stroke-dasharray:none;stroke-opacity:1"
       id="path4215-2-49"
       cx="198.64044"
       cy="2711.6545"
       rx="19.943111"
       ry="15.125818" />
    <ellipse
       style="display:inline;opacity:1;fill:#008000;fill-opacity:1;stroke:#30ad23;stroke-width:0.04561862;stroke-linejoin:miter;stroke-miterlimit:4;stroke-dasharray:none;stroke-opacity:1"
       id="path4215-2-4-1"
       cx="19.678671"
       cy="2713.6233"
       rx="28.228769"
       ry="16.976957" />
    <ellipse
       style="display:inline;opacity:1;fill:#008000;fill-opacity:1;stroke:#30ad23;stroke-width:0.04489899;stroke-linejoin:miter;stroke-miterlimit:4;stroke-dasharray:none;stroke-opacity:1"
       id="path4215-2-4-3"
       cx="-13.836058"
       cy="2716.5789"
       rx="27.635649"
       ry="16.798492" />
  </g>
  <g
     inkscape:groupmode="layer"
     id="layer2"
     inkscape:label="Capa 2"
     style="display:inline"
     transform="translate(0,-2521.2606)">
    <ellipse
       style="display:inline;opacity:1;fill:#30c323;fill-opacity:1;stroke:#30ad23;stroke-width:0.04342677;stroke-linejoin:miter;stroke-miterlimit:4;stroke-dasharray:none;stroke-opacity:1"
       id="path4215"
       cx="-12.352926"
       cy="2719.0483"
       rx="28.416992"
       ry="15.282842" />
    <ellipse
       style="display:inline;opacity:1;fill:#30c323;fill-opacity:1;stroke:none;stroke-width:0.8065291;stroke-linejoin:miter;stroke-miterlimit:4;stroke-dasharray:none;stroke-opacity:1"
       id="path4215-8"
       ry="16.74036"
       rx="27.832148"
       cy="2717.6875"
       cx="21.637686" />
    <ellipse
       style="display:inline;opacity:1;fill:#30c323;fill-opacity:1;stroke:none;stroke-width:0.80104667;stroke-linejoin:miter;stroke-miterlimit:4;stroke-dasharray:none;stroke-opacity:1"
       id="path4215-8-0"
       cx="54.794575"
       cy="2716.335"
       rx="34.617065"
       ry="16.202639" />
    <ellipse
       style="display:inline;opacity:1;fill:#30c323;fill-opacity:1;stroke:none;stroke-width:0.81738371;stroke-linejoin:miter;stroke-miterlimit:4;stroke-dasharray:none;stroke-opacity:1"
       id="path4215-8-5"
       cx="92.97757"
       cy="2717.4263"
       rx="30.388472"
       ry="15.97918" />
    <ellipse
       style="display:inline;opacity:1;fill:#30c323;fill-opacity:1;stroke:none;stroke-width:0.82809597;stroke-linejoin:miter;stroke-miterlimit:4;stroke-dasharray:none;stroke-opacity:1"
       id="path4215-8-3"
       cx="135.87471"
       cy="2718.3718"
       rx="34.616409"
       ry="16.685457" />
    <ellipse
       style="display:inline;opacity:1;fill:#30c323;fill-opacity:1;stroke:none;stroke-width:0.83867151;stroke-linejoin:miter;stroke-miterlimit:4;stroke-dasharray:none;stroke-opacity:1"
       id="path4215-8-05"
       cx="171.93674"
       cy="2717.5352"
       rx="34.616154"
       ry="16.815565" />
    <ellipse
       style="display:inline;opacity:1;fill:#30c323;fill-opacity:1;stroke:none;stroke-width:0.8065291;stroke-linejoin:miter;stroke-miterlimit:4;stroke-dasharray:none;stroke-opacity:1"
       id="path4215-8-2"
       cx="197.30597"
       cy="2716.9807"
       rx="22.42399"
       ry="16.425243" />
  </g>
</svg>
