<?xml version="1.0" encoding="UTF-8" standalone="no"?>
<!-- Created with Inkscape (http://www.inkscape.org/) -->

<svg
   xmlns:dc="http://purl.org/dc/elements/1.1/"
   xmlns:cc="http://creativecommons.org/ns#"
   xmlns:rdf="http://www.w3.org/1999/02/22-rdf-syntax-ns#"
   xmlns:svg="http://www.w3.org/2000/svg"
   xmlns="http://www.w3.org/2000/svg"
   xmlns:sodipodi="http://sodipodi.sourceforge.net/DTD/sodipodi-0.dtd"
   xmlns:inkscape="http://www.inkscape.org/namespaces/inkscape"
   width="15"
   height="85"
   viewBox="0 0 15.000001 85"
   id="svg2"
   version="1.1"
   inkscape:version="0.91 r13725"
   sodipodi:docname="tornillos.svg">
  <defs
     id="defs4" />
  <sodipodi:namedview
     id="base"
     pagecolor="#ffffff"
     bordercolor="#666666"
     borderopacity="1.0"
     inkscape:pageopacity="0.0"
     inkscape:pageshadow="2"
     inkscape:zoom="3.959798"
     inkscape:cx="-42.411798"
     inkscape:cy="56.860344"
     inkscape:document-units="px"
     inkscape:current-layer="layer1"
     showgrid="false"
     units="px"
     inkscape:window-width="1366"
     inkscape:window-height="705"
     inkscape:window-x="-8"
     inkscape:window-y="-8"
     inkscape:window-maximized="1" />
  <metadata
     id="metadata7">
    <rdf:RDF>
      <cc:Work
         rdf:about="">
        <dc:format>image/svg+xml</dc:format>
        <dc:type
           rdf:resource="http://purl.org/dc/dcmitype/StillImage" />
        <dc:title />
      </cc:Work>
    </rdf:RDF>
  </metadata>
  <g
     inkscape:label="Capa 1"
     inkscape:groupmode="layer"
     id="layer1"
     transform="translate(0,-967.3622)">
    <g
       id="g4206"
       transform="translate(-0.5050763,48.487324)">
      <ellipse
         ry="4.2857141"
         rx="4.4642859"
         cy="975.04071"
         cx="8.5714283"
         id="path4138"
         style="color:#000000;clip-rule:nonzero;display:inline;overflow:visible;visibility:visible;opacity:1;isolation:auto;mix-blend-mode:normal;color-interpolation:sRGB;color-interpolation-filters:linearRGB;solid-color:#000000;solid-opacity:1;fill:#c8c4b7;fill-opacity:1;fill-rule:nonzero;stroke:#aca793;stroke-width:1.023;stroke-linecap:round;stroke-linejoin:miter;stroke-miterlimit:4;stroke-dasharray:none;stroke-dashoffset:0;stroke-opacity:1;color-rendering:auto;image-rendering:auto;shape-rendering:auto;text-rendering:auto;enable-background:accumulate" />
      <path
         transform="matrix(0.75458712,0.61648575,-0.64300993,0.72346038,628.95221,264.51008)"
         inkscape:transform-center-y="-0.77170191"
         inkscape:transform-center-x="0.20469161"
         d="m 6.7565774,978.55132 1.1193592,-3.56245 -1.6591313,-3.3173 2.525497,2.75062 3.7024267,0.2218 -3.6448561,0.81183 z"
         inkscape:randomized="0"
         inkscape:rounded="0"
         inkscape:flatsided="false"
         sodipodi:arg2="3.0859527"
         sodipodi:arg1="2.0160974"
         sodipodi:r2="0.59769231"
         sodipodi:r1="3.9842317"
         sodipodi:cy="974.95563"
         sodipodi:cx="8.4727039"
         sodipodi:sides="3"
         id="path4189"
         style="color:#000000;clip-rule:nonzero;display:inline;overflow:visible;visibility:visible;opacity:1;isolation:auto;mix-blend-mode:normal;color-interpolation:sRGB;color-interpolation-filters:linearRGB;solid-color:#000000;solid-opacity:1;fill:#c8c4b7;fill-opacity:1;fill-rule:nonzero;stroke:#aca793;stroke-width:0.23407964;stroke-linecap:round;stroke-linejoin:miter;stroke-miterlimit:4;stroke-dasharray:none;stroke-dashoffset:0;stroke-opacity:1;color-rendering:auto;image-rendering:auto;shape-rendering:auto;text-rendering:auto;enable-background:accumulate"
         sodipodi:type="star" />
    </g>
    <g
       id="g4206-6"
       transform="translate(-0.99528365,6.6108096)">
      <ellipse
         ry="4.2857141"
         rx="4.4642859"
         cy="975.04071"
         cx="8.5714283"
         id="path4138-8"
         style="color:#000000;clip-rule:nonzero;display:inline;overflow:visible;visibility:visible;opacity:1;isolation:auto;mix-blend-mode:normal;color-interpolation:sRGB;color-interpolation-filters:linearRGB;solid-color:#000000;solid-opacity:1;fill:#c8c4b7;fill-opacity:1;fill-rule:nonzero;stroke:#aca793;stroke-width:1.023;stroke-linecap:round;stroke-linejoin:miter;stroke-miterlimit:4;stroke-dasharray:none;stroke-dashoffset:0;stroke-opacity:1;color-rendering:auto;image-rendering:auto;shape-rendering:auto;text-rendering:auto;enable-background:accumulate" />
      <path
         transform="matrix(0.75458712,0.61648575,-0.64300993,0.72346038,628.95221,264.51008)"
         inkscape:transform-center-y="-0.77170191"
         inkscape:transform-center-x="0.20469161"
         d="m 6.7565774,978.55132 1.1193592,-3.56245 -1.6591313,-3.3173 2.525497,2.75062 3.7024267,0.2218 -3.6448561,0.81183 z"
         inkscape:randomized="0"
         inkscape:rounded="0"
         inkscape:flatsided="false"
         sodipodi:arg2="3.0859527"
         sodipodi:arg1="2.0160974"
         sodipodi:r2="0.59769231"
         sodipodi:r1="3.9842317"
         sodipodi:cy="974.95563"
         sodipodi:cx="8.4727039"
         sodipodi:sides="3"
         id="path4189-0"
         style="color:#000000;clip-rule:nonzero;display:inline;overflow:visible;visibility:visible;opacity:1;isolation:auto;mix-blend-mode:normal;color-interpolation:sRGB;color-interpolation-filters:linearRGB;solid-color:#000000;solid-opacity:1;fill:#c8c4b7;fill-opacity:1;fill-rule:nonzero;stroke:#aca793;stroke-width:0.23407964;stroke-linecap:round;stroke-linejoin:miter;stroke-miterlimit:4;stroke-dasharray:none;stroke-dashoffset:0;stroke-opacity:1;color-rendering:auto;image-rendering:auto;shape-rendering:auto;text-rendering:auto;enable-background:accumulate"
         sodipodi:type="star" />
    </g>
  </g>
</svg>
