<?xml version="1.0" encoding="UTF-8" standalone="no"?>
<!-- Created with Inkscape (http://www.inkscape.org/) -->

<svg
   xmlns:dc="http://purl.org/dc/elements/1.1/"
   xmlns:cc="http://creativecommons.org/ns#"
   xmlns:rdf="http://www.w3.org/1999/02/22-rdf-syntax-ns#"
   xmlns:svg="http://www.w3.org/2000/svg"
   xmlns="http://www.w3.org/2000/svg"
   xmlns:sodipodi="http://sodipodi.sourceforge.net/DTD/sodipodi-0.dtd"
   xmlns:inkscape="http://www.inkscape.org/namespaces/inkscape"
   width="1960"
   height="30"
   viewBox="0 0 1960 30"
   id="svg2"
   version="1.1"
   inkscape:version="0.91 r13725"
   sodipodi:docname="transition.svg">
  <defs
     id="defs4" />
  <sodipodi:namedview
     id="base"
     pagecolor="#ffffff"
     bordercolor="#666666"
     borderopacity="1.0"
     inkscape:pageopacity="0.0"
     inkscape:pageshadow="2"
     inkscape:zoom="3.959798"
     inkscape:cx="1845.9748"
     inkscape:cy="-30.67235"
     inkscape:document-units="px"
     inkscape:current-layer="layer1"
     showgrid="true"
     units="px"
     inkscape:window-width="1855"
     inkscape:window-height="1056"
     inkscape:window-x="65"
     inkscape:window-y="24"
     inkscape:window-maximized="1" />
  <metadata
     id="metadata7">
    <rdf:RDF>
      <cc:Work
         rdf:about="">
        <dc:format>image/svg+xml</dc:format>
        <dc:type
           rdf:resource="http://purl.org/dc/dcmitype/StillImage" />
        <dc:title></dc:title>
      </cc:Work>
    </rdf:RDF>
  </metadata>
  <g
     inkscape:label="Capa 1"
     inkscape:groupmode="layer"
     id="layer1"
     transform="translate(0,-1022.3622)">
    <ellipse
       style="color:#000000;clip-rule:nonzero;display:inline;overflow:visible;visibility:visible;opacity:1;isolation:auto;mix-blend-mode:normal;color-interpolation:sRGB;color-interpolation-filters:linearRGB;solid-color:#000000;solid-opacity:1;fill:#30c323;fill-opacity:1;fill-rule:nonzero;stroke:none;stroke-width:1.023;stroke-linecap:round;stroke-linejoin:miter;stroke-miterlimit:4;stroke-dasharray:none;stroke-dashoffset:0;stroke-opacity:1;color-rendering:auto;image-rendering:auto;shape-rendering:auto;text-rendering:auto;enable-background:accumulate"
       id="path4138"
       cx="18.463499"
       cy="1022.4265"
       rx="21.88658"
       ry="19.955408"
       transform="matrix(0.99998006,0.00631498,-0.00631498,0.99998006,0,0)" />
    <ellipse
       style="color:#000000;clip-rule:nonzero;display:inline;overflow:visible;visibility:visible;opacity:1;isolation:auto;mix-blend-mode:normal;color-interpolation:sRGB;color-interpolation-filters:linearRGB;solid-color:#000000;solid-opacity:1;fill:#30c323;fill-opacity:1;fill-rule:nonzero;stroke:none;stroke-width:1.023;stroke-linecap:round;stroke-linejoin:miter;stroke-miterlimit:4;stroke-dasharray:none;stroke-dashoffset:0;stroke-opacity:1;color-rendering:auto;image-rendering:auto;shape-rendering:auto;text-rendering:auto;enable-background:accumulate"
       id="path4138-1"
       cx="50.586361"
       cy="1021.1633"
       rx="22.656981"
       ry="20.982571"
       transform="matrix(0.99997943,0.00641425,-0.00621724,0.99998067,0,0)" />
    <ellipse
       style="color:#000000;clip-rule:nonzero;display:inline;overflow:visible;visibility:visible;opacity:1;isolation:auto;mix-blend-mode:normal;color-interpolation:sRGB;color-interpolation-filters:linearRGB;solid-color:#000000;solid-opacity:1;fill:#30c323;fill-opacity:1;fill-rule:nonzero;stroke:none;stroke-width:1.023;stroke-linecap:round;stroke-linejoin:miter;stroke-miterlimit:4;stroke-dasharray:none;stroke-dashoffset:0;stroke-opacity:1;color-rendering:auto;image-rendering:auto;shape-rendering:auto;text-rendering:auto;enable-background:accumulate"
       id="path4138-9"
       cx="85.086853"
       cy="1022.0714"
       rx="21.88658"
       ry="19.955408"
       transform="matrix(0.99998006,0.00631498,-0.00631498,0.99998006,0,0)" />
    <ellipse
       style="color:#000000;clip-rule:nonzero;display:inline;overflow:visible;visibility:visible;opacity:1;isolation:auto;mix-blend-mode:normal;color-interpolation:sRGB;color-interpolation-filters:linearRGB;solid-color:#000000;solid-opacity:1;fill:#30c323;fill-opacity:1;fill-rule:nonzero;stroke:none;stroke-width:1.023;stroke-linecap:round;stroke-linejoin:miter;stroke-miterlimit:4;stroke-dasharray:none;stroke-dashoffset:0;stroke-opacity:1;color-rendering:auto;image-rendering:auto;shape-rendering:auto;text-rendering:auto;enable-background:accumulate"
       id="path4138-8"
       cx="119.71868"
       cy="1021.7946"
       rx="21.88658"
       ry="19.955408"
       transform="matrix(0.99998006,0.00631498,-0.00631498,0.99998006,0,0)" />
    <ellipse
       style="color:#000000;clip-rule:nonzero;display:inline;overflow:visible;visibility:visible;opacity:1;isolation:auto;mix-blend-mode:normal;color-interpolation:sRGB;color-interpolation-filters:linearRGB;solid-color:#000000;solid-opacity:1;fill:#30c323;fill-opacity:1;fill-rule:nonzero;stroke:none;stroke-width:1.023;stroke-linecap:round;stroke-linejoin:miter;stroke-miterlimit:4;stroke-dasharray:none;stroke-dashoffset:0;stroke-opacity:1;color-rendering:auto;image-rendering:auto;shape-rendering:auto;text-rendering:auto;enable-background:accumulate"
       id="path4138-0"
       cx="153.07901"
       cy="1020.2519"
       rx="22.400206"
       ry="21.239346"
       transform="matrix(0.99997844,0.00656718,-0.00607246,0.99998156,0,0)" />
    <ellipse
       style="color:#000000;clip-rule:nonzero;display:inline;overflow:visible;visibility:visible;opacity:1;isolation:auto;mix-blend-mode:normal;color-interpolation:sRGB;color-interpolation-filters:linearRGB;solid-color:#000000;solid-opacity:1;fill:#30c323;fill-opacity:1;fill-rule:nonzero;stroke:none;stroke-width:1.023;stroke-linecap:round;stroke-linejoin:miter;stroke-miterlimit:4;stroke-dasharray:none;stroke-dashoffset:0;stroke-opacity:1;color-rendering:auto;image-rendering:auto;shape-rendering:auto;text-rendering:auto;enable-background:accumulate"
       id="path4138-7"
       cx="186.94215"
       cy="1021.4472"
       rx="21.88658"
       ry="19.955408"
       transform="matrix(0.99998006,0.00631498,-0.00631498,0.99998006,0,0)" />
    <ellipse
       style="color:#000000;clip-rule:nonzero;display:inline;overflow:visible;visibility:visible;opacity:1;isolation:auto;mix-blend-mode:normal;color-interpolation:sRGB;color-interpolation-filters:linearRGB;solid-color:#000000;solid-opacity:1;fill:#30c323;fill-opacity:1;fill-rule:nonzero;stroke:none;stroke-width:1.023;stroke-linecap:round;stroke-linejoin:miter;stroke-miterlimit:4;stroke-dasharray:none;stroke-dashoffset:0;stroke-opacity:1;color-rendering:auto;image-rendering:auto;shape-rendering:auto;text-rendering:auto;enable-background:accumulate"
       id="path4138-6"
       cx="220.15915"
       cy="1019.9869"
       rx="22.14341"
       ry="20.982552"
       transform="matrix(0.99997846,0.00656302,-0.00607631,0.99998154,0,0)" />
    <ellipse
       style="color:#000000;clip-rule:nonzero;display:inline;overflow:visible;visibility:visible;opacity:1;isolation:auto;mix-blend-mode:normal;color-interpolation:sRGB;color-interpolation-filters:linearRGB;solid-color:#000000;solid-opacity:1;fill:#30c323;fill-opacity:1;fill-rule:nonzero;stroke:none;stroke-width:1.023;stroke-linecap:round;stroke-linejoin:miter;stroke-miterlimit:4;stroke-dasharray:none;stroke-dashoffset:0;stroke-opacity:1;color-rendering:auto;image-rendering:auto;shape-rendering:auto;text-rendering:auto;enable-background:accumulate"
       id="path4138-72"
       cx="251.62134"
       cy="1020.9318"
       rx="21.88658"
       ry="19.955408"
       transform="matrix(0.99998006,0.00631498,-0.00631498,0.99998006,0,0)" />
    <ellipse
       style="color:#000000;clip-rule:nonzero;display:inline;overflow:visible;visibility:visible;opacity:1;isolation:auto;mix-blend-mode:normal;color-interpolation:sRGB;color-interpolation-filters:linearRGB;solid-color:#000000;solid-opacity:1;fill:#30c323;fill-opacity:1;fill-rule:nonzero;stroke:none;stroke-width:1.023;stroke-linecap:round;stroke-linejoin:miter;stroke-miterlimit:4;stroke-dasharray:none;stroke-dashoffset:0;stroke-opacity:1;color-rendering:auto;image-rendering:auto;shape-rendering:auto;text-rendering:auto;enable-background:accumulate"
       id="path4138-12"
       cx="283.65479"
       cy="1020.6721"
       rx="21.88658"
       ry="19.955408"
       transform="matrix(0.99998006,0.00631498,-0.00631498,0.99998006,0,0)" />
    <ellipse
       style="color:#000000;clip-rule:nonzero;display:inline;overflow:visible;visibility:visible;opacity:1;isolation:auto;mix-blend-mode:normal;color-interpolation:sRGB;color-interpolation-filters:linearRGB;solid-color:#000000;solid-opacity:1;fill:#30c323;fill-opacity:1;fill-rule:nonzero;stroke:none;stroke-width:1.023;stroke-linecap:round;stroke-linejoin:miter;stroke-miterlimit:4;stroke-dasharray:none;stroke-dashoffset:0;stroke-opacity:1;color-rendering:auto;image-rendering:auto;shape-rendering:auto;text-rendering:auto;enable-background:accumulate"
       id="path4138-61"
       cx="319.99408"
       cy="1019.7205"
       rx="22.913754"
       ry="20.725796"
       transform="matrix(0.99998038,0.00626475,-0.00636561,0.99997974,0,0)" />
    <ellipse
       style="color:#000000;clip-rule:nonzero;display:inline;overflow:visible;visibility:visible;opacity:1;isolation:auto;mix-blend-mode:normal;color-interpolation:sRGB;color-interpolation-filters:linearRGB;solid-color:#000000;solid-opacity:1;fill:#30c323;fill-opacity:1;fill-rule:nonzero;stroke:none;stroke-width:1.023;stroke-linecap:round;stroke-linejoin:miter;stroke-miterlimit:4;stroke-dasharray:none;stroke-dashoffset:0;stroke-opacity:1;color-rendering:auto;image-rendering:auto;shape-rendering:auto;text-rendering:auto;enable-background:accumulate"
       id="path4138-1-5"
       cx="355.36771"
       cy="1020.214"
       rx="21.88658"
       ry="19.955408"
       transform="matrix(0.99998006,0.00631498,-0.00631498,0.99998006,0,0)" />
    <ellipse
       style="color:#000000;clip-rule:nonzero;display:inline;overflow:visible;visibility:visible;opacity:1;isolation:auto;mix-blend-mode:normal;color-interpolation:sRGB;color-interpolation-filters:linearRGB;solid-color:#000000;solid-opacity:1;fill:#30c323;fill-opacity:1;fill-rule:nonzero;stroke:none;stroke-width:1.023;stroke-linecap:round;stroke-linejoin:miter;stroke-miterlimit:4;stroke-dasharray:none;stroke-dashoffset:0;stroke-opacity:1;color-rendering:auto;image-rendering:auto;shape-rendering:auto;text-rendering:auto;enable-background:accumulate"
       id="path4138-9-1"
       cx="392.03043"
       cy="1020.0758"
       rx="21.88658"
       ry="19.955408"
       transform="matrix(0.99998006,0.00631498,-0.00631498,0.99998006,0,0)" />
    <ellipse
       style="color:#000000;clip-rule:nonzero;display:inline;overflow:visible;visibility:visible;opacity:1;isolation:auto;mix-blend-mode:normal;color-interpolation:sRGB;color-interpolation-filters:linearRGB;solid-color:#000000;solid-opacity:1;fill:#30c323;fill-opacity:1;fill-rule:nonzero;stroke:none;stroke-width:1.023;stroke-linecap:round;stroke-linejoin:miter;stroke-miterlimit:4;stroke-dasharray:none;stroke-dashoffset:0;stroke-opacity:1;color-rendering:auto;image-rendering:auto;shape-rendering:auto;text-rendering:auto;enable-background:accumulate"
       id="path4138-8-8"
       cx="427.14764"
       cy="1019.763"
       rx="22.913733"
       ry="20.212229"
       transform="matrix(0.99998134,0.00610952,-0.00652735,0.9999787,0,0)" />
    <ellipse
       style="color:#000000;clip-rule:nonzero;display:inline;overflow:visible;visibility:visible;opacity:1;isolation:auto;mix-blend-mode:normal;color-interpolation:sRGB;color-interpolation-filters:linearRGB;solid-color:#000000;solid-opacity:1;fill:#30c323;fill-opacity:1;fill-rule:nonzero;stroke:none;stroke-width:1.023;stroke-linecap:round;stroke-linejoin:miter;stroke-miterlimit:4;stroke-dasharray:none;stroke-dashoffset:0;stroke-opacity:1;color-rendering:auto;image-rendering:auto;shape-rendering:auto;text-rendering:auto;enable-background:accumulate"
       id="path4138-0-9"
       cx="460.66544"
       cy="1019.5763"
       rx="21.88658"
       ry="19.955408"
       transform="matrix(0.99998006,0.00631498,-0.00631498,0.99998006,0,0)" />
    <ellipse
       style="color:#000000;clip-rule:nonzero;display:inline;overflow:visible;visibility:visible;opacity:1;isolation:auto;mix-blend-mode:normal;color-interpolation:sRGB;color-interpolation-filters:linearRGB;solid-color:#000000;solid-opacity:1;fill:#30c323;fill-opacity:1;fill-rule:nonzero;stroke:none;stroke-width:1.023;stroke-linecap:round;stroke-linejoin:miter;stroke-miterlimit:4;stroke-dasharray:none;stroke-dashoffset:0;stroke-opacity:1;color-rendering:auto;image-rendering:auto;shape-rendering:auto;text-rendering:auto;enable-background:accumulate"
       id="path4138-7-3"
       cx="493.88568"
       cy="1019.4516"
       rx="21.88658"
       ry="19.955408"
       transform="matrix(0.99998006,0.00631498,-0.00631498,0.99998006,0,0)" />
    <ellipse
       style="color:#000000;clip-rule:nonzero;display:inline;overflow:visible;visibility:visible;opacity:1;isolation:auto;mix-blend-mode:normal;color-interpolation:sRGB;color-interpolation-filters:linearRGB;solid-color:#000000;solid-opacity:1;fill:#30c323;fill-opacity:1;fill-rule:nonzero;stroke:none;stroke-width:1.023;stroke-linecap:round;stroke-linejoin:miter;stroke-miterlimit:4;stroke-dasharray:none;stroke-dashoffset:0;stroke-opacity:1;color-rendering:auto;image-rendering:auto;shape-rendering:auto;text-rendering:auto;enable-background:accumulate"
       id="path4138-6-2"
       cx="526.2077"
       cy="1018.761"
       rx="22.913744"
       ry="20.469011"
       transform="matrix(0.99998086,0.00618714,-0.00644546,0.99997923,0,0)" />
    <ellipse
       style="color:#000000;clip-rule:nonzero;display:inline;overflow:visible;visibility:visible;opacity:1;isolation:auto;mix-blend-mode:normal;color-interpolation:sRGB;color-interpolation-filters:linearRGB;solid-color:#000000;solid-opacity:1;fill:#30c323;fill-opacity:1;fill-rule:nonzero;stroke:none;stroke-width:1.023;stroke-linecap:round;stroke-linejoin:miter;stroke-miterlimit:4;stroke-dasharray:none;stroke-dashoffset:0;stroke-opacity:1;color-rendering:auto;image-rendering:auto;shape-rendering:auto;text-rendering:auto;enable-background:accumulate"
       id="path4138-72-6"
       cx="562.35284"
       cy="1018.9122"
       rx="21.88658"
       ry="19.955408"
       transform="matrix(0.99998006,0.00631498,-0.00631498,0.99998006,0,0)" />
    <ellipse
       style="color:#000000;clip-rule:nonzero;display:inline;overflow:visible;visibility:visible;opacity:1;isolation:auto;mix-blend-mode:normal;color-interpolation:sRGB;color-interpolation-filters:linearRGB;solid-color:#000000;solid-opacity:1;fill:#30c323;fill-opacity:1;fill-rule:nonzero;stroke:none;stroke-width:1.023;stroke-linecap:round;stroke-linejoin:miter;stroke-miterlimit:4;stroke-dasharray:none;stroke-dashoffset:0;stroke-opacity:1;color-rendering:auto;image-rendering:auto;shape-rendering:auto;text-rendering:auto;enable-background:accumulate"
       id="path4138-12-9"
       cx="593.88202"
       cy="1018.7819"
       rx="21.88658"
       ry="19.955408"
       transform="matrix(0.99998006,0.00631498,-0.00631498,0.99998006,0,0)" />
    <ellipse
       style="color:#000000;clip-rule:nonzero;display:inline;overflow:visible;visibility:visible;opacity:1;isolation:auto;mix-blend-mode:normal;color-interpolation:sRGB;color-interpolation-filters:linearRGB;solid-color:#000000;solid-opacity:1;fill:#30c323;fill-opacity:1;fill-rule:nonzero;stroke:none;stroke-width:1.023;stroke-linecap:round;stroke-linejoin:miter;stroke-miterlimit:4;stroke-dasharray:none;stroke-dashoffset:0;stroke-opacity:1;color-rendering:auto;image-rendering:auto;shape-rendering:auto;text-rendering:auto;enable-background:accumulate"
       id="path4138-3"
       cx="628.14038"
       cy="1018.5201"
       rx="21.88658"
       ry="19.955408"
       transform="matrix(0.99998006,0.00631498,-0.00631498,0.99998006,0,0)" />
    <ellipse
       style="color:#000000;clip-rule:nonzero;display:inline;overflow:visible;visibility:visible;opacity:1;isolation:auto;mix-blend-mode:normal;color-interpolation:sRGB;color-interpolation-filters:linearRGB;solid-color:#000000;solid-opacity:1;fill:#30c323;fill-opacity:1;fill-rule:nonzero;stroke:none;stroke-width:1.023;stroke-linecap:round;stroke-linejoin:miter;stroke-miterlimit:4;stroke-dasharray:none;stroke-dashoffset:0;stroke-opacity:1;color-rendering:auto;image-rendering:auto;shape-rendering:auto;text-rendering:auto;enable-background:accumulate"
       id="path4138-1-3"
       cx="661.64191"
       cy="1018.3893"
       rx="21.88658"
       ry="19.955408"
       transform="matrix(0.99998006,0.00631498,-0.00631498,0.99998006,0,0)" />
    <ellipse
       style="color:#000000;clip-rule:nonzero;display:inline;overflow:visible;visibility:visible;opacity:1;isolation:auto;mix-blend-mode:normal;color-interpolation:sRGB;color-interpolation-filters:linearRGB;solid-color:#000000;solid-opacity:1;fill:#30c323;fill-opacity:1;fill-rule:nonzero;stroke:none;stroke-width:1.023;stroke-linecap:round;stroke-linejoin:miter;stroke-miterlimit:4;stroke-dasharray:none;stroke-dashoffset:0;stroke-opacity:1;color-rendering:auto;image-rendering:auto;shape-rendering:auto;text-rendering:auto;enable-background:accumulate"
       id="path4138-9-3"
       cx="696.52692"
       cy="1018.0096"
       rx="21.88658"
       ry="19.955408"
       transform="matrix(0.99998006,0.00631498,-0.00631498,0.99998006,0,0)" />
    <ellipse
       style="color:#000000;clip-rule:nonzero;display:inline;overflow:visible;visibility:visible;opacity:1;isolation:auto;mix-blend-mode:normal;color-interpolation:sRGB;color-interpolation-filters:linearRGB;solid-color:#000000;solid-opacity:1;fill:#30c323;fill-opacity:1;fill-rule:nonzero;stroke:none;stroke-width:1.023;stroke-linecap:round;stroke-linejoin:miter;stroke-miterlimit:4;stroke-dasharray:none;stroke-dashoffset:0;stroke-opacity:1;color-rendering:auto;image-rendering:auto;shape-rendering:auto;text-rendering:auto;enable-background:accumulate"
       id="path4138-8-6"
       cx="734.60364"
       cy="1017.9722"
       rx="21.88658"
       ry="19.955408"
       transform="matrix(0.99998006,0.00631498,-0.00631498,0.99998006,0,0)" />
    <ellipse
       style="color:#000000;clip-rule:nonzero;display:inline;overflow:visible;visibility:visible;opacity:1;isolation:auto;mix-blend-mode:normal;color-interpolation:sRGB;color-interpolation-filters:linearRGB;solid-color:#000000;solid-opacity:1;fill:#30c323;fill-opacity:1;fill-rule:nonzero;stroke:none;stroke-width:1.023;stroke-linecap:round;stroke-linejoin:miter;stroke-miterlimit:4;stroke-dasharray:none;stroke-dashoffset:0;stroke-opacity:1;color-rendering:auto;image-rendering:auto;shape-rendering:auto;text-rendering:auto;enable-background:accumulate"
       id="path4138-0-1"
       cx="767.9397"
       cy="1017.4927"
       rx="21.88658"
       ry="19.955408"
       transform="matrix(0.99998006,0.00631498,-0.00631498,0.99998006,0,0)" />
    <ellipse
       style="color:#000000;clip-rule:nonzero;display:inline;overflow:visible;visibility:visible;opacity:1;isolation:auto;mix-blend-mode:normal;color-interpolation:sRGB;color-interpolation-filters:linearRGB;solid-color:#000000;solid-opacity:1;fill:#30c323;fill-opacity:1;fill-rule:nonzero;stroke:none;stroke-width:1.023;stroke-linecap:round;stroke-linejoin:miter;stroke-miterlimit:4;stroke-dasharray:none;stroke-dashoffset:0;stroke-opacity:1;color-rendering:auto;image-rendering:auto;shape-rendering:auto;text-rendering:auto;enable-background:accumulate"
       id="path4138-7-6"
       cx="801.41248"
       cy="1017.3664"
       rx="21.88658"
       ry="19.955408"
       transform="matrix(0.99998006,0.00631498,-0.00631498,0.99998006,0,0)" />
    <ellipse
       style="color:#000000;clip-rule:nonzero;display:inline;overflow:visible;visibility:visible;opacity:1;isolation:auto;mix-blend-mode:normal;color-interpolation:sRGB;color-interpolation-filters:linearRGB;solid-color:#000000;solid-opacity:1;fill:#30c323;fill-opacity:1;fill-rule:nonzero;stroke:none;stroke-width:1.023;stroke-linecap:round;stroke-linejoin:miter;stroke-miterlimit:4;stroke-dasharray:none;stroke-dashoffset:0;stroke-opacity:1;color-rendering:auto;image-rendering:auto;shape-rendering:auto;text-rendering:auto;enable-background:accumulate"
       id="path4138-6-5"
       cx="835.2641"
       cy="1017.238"
       rx="21.88658"
       ry="19.955408"
       transform="matrix(0.99998006,0.00631498,-0.00631498,0.99998006,0,0)" />
    <ellipse
       style="color:#000000;clip-rule:nonzero;display:inline;overflow:visible;visibility:visible;opacity:1;isolation:auto;mix-blend-mode:normal;color-interpolation:sRGB;color-interpolation-filters:linearRGB;solid-color:#000000;solid-opacity:1;fill:#30c323;fill-opacity:1;fill-rule:nonzero;stroke:none;stroke-width:1.023;stroke-linecap:round;stroke-linejoin:miter;stroke-miterlimit:4;stroke-dasharray:none;stroke-dashoffset:0;stroke-opacity:1;color-rendering:auto;image-rendering:auto;shape-rendering:auto;text-rendering:auto;enable-background:accumulate"
       id="path4138-72-9"
       cx="868.6178"
       cy="1016.9613"
       rx="21.88658"
       ry="19.955408"
       transform="matrix(0.99998006,0.00631498,-0.00631498,0.99998006,0,0)" />
    <ellipse
       style="color:#000000;clip-rule:nonzero;display:inline;overflow:visible;visibility:visible;opacity:1;isolation:auto;mix-blend-mode:normal;color-interpolation:sRGB;color-interpolation-filters:linearRGB;solid-color:#000000;solid-opacity:1;fill:#30c323;fill-opacity:1;fill-rule:nonzero;stroke:none;stroke-width:1.023;stroke-linecap:round;stroke-linejoin:miter;stroke-miterlimit:4;stroke-dasharray:none;stroke-dashoffset:0;stroke-opacity:1;color-rendering:auto;image-rendering:auto;shape-rendering:auto;text-rendering:auto;enable-background:accumulate"
       id="path4138-12-8"
       cx="900.27252"
       cy="1016.704"
       rx="21.88658"
       ry="19.955408"
       transform="matrix(0.99998006,0.00631498,-0.00631498,0.99998006,0,0)" />
    <ellipse
       style="color:#000000;clip-rule:nonzero;display:inline;overflow:visible;visibility:visible;opacity:1;isolation:auto;mix-blend-mode:normal;color-interpolation:sRGB;color-interpolation-filters:linearRGB;solid-color:#000000;solid-opacity:1;fill:#30c323;fill-opacity:1;fill-rule:nonzero;stroke:none;stroke-width:1.023;stroke-linecap:round;stroke-linejoin:miter;stroke-miterlimit:4;stroke-dasharray:none;stroke-dashoffset:0;stroke-opacity:1;color-rendering:auto;image-rendering:auto;shape-rendering:auto;text-rendering:auto;enable-background:accumulate"
       id="path4138-82"
       cx="935.22125"
       cy="1016.6821"
       rx="21.88658"
       ry="19.955408"
       transform="matrix(0.99998006,0.00631498,-0.00631498,0.99998006,0,0)" />
    <ellipse
       style="color:#000000;clip-rule:nonzero;display:inline;overflow:visible;visibility:visible;opacity:1;isolation:auto;mix-blend-mode:normal;color-interpolation:sRGB;color-interpolation-filters:linearRGB;solid-color:#000000;solid-opacity:1;fill:#30c323;fill-opacity:1;fill-rule:nonzero;stroke:none;stroke-width:1.023;stroke-linecap:round;stroke-linejoin:miter;stroke-miterlimit:4;stroke-dasharray:none;stroke-dashoffset:0;stroke-opacity:1;color-rendering:auto;image-rendering:auto;shape-rendering:auto;text-rendering:auto;enable-background:accumulate"
       id="path4138-1-0"
       cx="969.35358"
       cy="1016.4211"
       rx="21.88658"
       ry="19.955408"
       transform="matrix(0.99998006,0.00631498,-0.00631498,0.99998006,0,0)" />
    <ellipse
       style="color:#000000;clip-rule:nonzero;display:inline;overflow:visible;visibility:visible;opacity:1;isolation:auto;mix-blend-mode:normal;color-interpolation:sRGB;color-interpolation-filters:linearRGB;solid-color:#000000;solid-opacity:1;fill:#30c323;fill-opacity:1;fill-rule:nonzero;stroke:none;stroke-width:1.023;stroke-linecap:round;stroke-linejoin:miter;stroke-miterlimit:4;stroke-dasharray:none;stroke-dashoffset:0;stroke-opacity:1;color-rendering:auto;image-rendering:auto;shape-rendering:auto;text-rendering:auto;enable-background:accumulate"
       id="path4138-6-2-2"
       cx="1004.6296"
       cy="1015.9111"
       rx="22.913744"
       ry="20.469011"
       transform="matrix(0.99998086,0.00618714,-0.00644546,0.99997923,0,0)" />
    <ellipse
       style="color:#000000;clip-rule:nonzero;display:inline;overflow:visible;visibility:visible;opacity:1;isolation:auto;mix-blend-mode:normal;color-interpolation:sRGB;color-interpolation-filters:linearRGB;solid-color:#000000;solid-opacity:1;fill:#30c323;fill-opacity:1;fill-rule:nonzero;stroke:none;stroke-width:1.023;stroke-linecap:round;stroke-linejoin:miter;stroke-miterlimit:4;stroke-dasharray:none;stroke-dashoffset:0;stroke-opacity:1;color-rendering:auto;image-rendering:auto;shape-rendering:auto;text-rendering:auto;enable-background:accumulate"
       id="path4138-72-6-6"
       cx="1038.1235"
       cy="1016.0177"
       rx="21.88658"
       ry="19.955408"
       transform="matrix(0.99998006,0.00631498,-0.00631498,0.99998006,0,0)" />
    <ellipse
       style="color:#000000;clip-rule:nonzero;display:inline;overflow:visible;visibility:visible;opacity:1;isolation:auto;mix-blend-mode:normal;color-interpolation:sRGB;color-interpolation-filters:linearRGB;solid-color:#000000;solid-opacity:1;fill:#30c323;fill-opacity:1;fill-rule:nonzero;stroke:none;stroke-width:1.023;stroke-linecap:round;stroke-linejoin:miter;stroke-miterlimit:4;stroke-dasharray:none;stroke-dashoffset:0;stroke-opacity:1;color-rendering:auto;image-rendering:auto;shape-rendering:auto;text-rendering:auto;enable-background:accumulate"
       id="path4138-12-9-6"
       cx="1068.641"
       cy="1015.6412"
       rx="21.88658"
       ry="19.955408"
       transform="matrix(0.99998006,0.00631498,-0.00631498,0.99998006,0,0)" />
    <ellipse
       style="color:#000000;clip-rule:nonzero;display:inline;overflow:visible;visibility:visible;opacity:1;isolation:auto;mix-blend-mode:normal;color-interpolation:sRGB;color-interpolation-filters:linearRGB;solid-color:#000000;solid-opacity:1;fill:#30c323;fill-opacity:1;fill-rule:nonzero;stroke:none;stroke-width:1.023;stroke-linecap:round;stroke-linejoin:miter;stroke-miterlimit:4;stroke-dasharray:none;stroke-dashoffset:0;stroke-opacity:1;color-rendering:auto;image-rendering:auto;shape-rendering:auto;text-rendering:auto;enable-background:accumulate"
       id="path4138-3-3"
       cx="1101.2579"
       cy="1015.3899"
       rx="21.88658"
       ry="19.955408"
       transform="matrix(0.99998006,0.00631498,-0.00631498,0.99998006,0,0)" />
    <ellipse
       style="color:#000000;clip-rule:nonzero;display:inline;overflow:visible;visibility:visible;opacity:1;isolation:auto;mix-blend-mode:normal;color-interpolation:sRGB;color-interpolation-filters:linearRGB;solid-color:#000000;solid-opacity:1;fill:#30c323;fill-opacity:1;fill-rule:nonzero;stroke:none;stroke-width:1.023;stroke-linecap:round;stroke-linejoin:miter;stroke-miterlimit:4;stroke-dasharray:none;stroke-dashoffset:0;stroke-opacity:1;color-rendering:auto;image-rendering:auto;shape-rendering:auto;text-rendering:auto;enable-background:accumulate"
       id="path4138-1-3-2"
       cx="1135.1398"
       cy="1015.5092"
       rx="21.88658"
       ry="19.955408"
       transform="matrix(0.99998006,0.00631498,-0.00631498,0.99998006,0,0)" />
    <ellipse
       style="color:#000000;clip-rule:nonzero;display:inline;overflow:visible;visibility:visible;opacity:1;isolation:auto;mix-blend-mode:normal;color-interpolation:sRGB;color-interpolation-filters:linearRGB;solid-color:#000000;solid-opacity:1;fill:#30c323;fill-opacity:1;fill-rule:nonzero;stroke:none;stroke-width:1.023;stroke-linecap:round;stroke-linejoin:miter;stroke-miterlimit:4;stroke-dasharray:none;stroke-dashoffset:0;stroke-opacity:1;color-rendering:auto;image-rendering:auto;shape-rendering:auto;text-rendering:auto;enable-background:accumulate"
       id="path4138-9-3-5"
       cx="1167.6266"
       cy="1015.2709"
       rx="21.88658"
       ry="19.955408"
       transform="matrix(0.99998006,0.00631498,-0.00631498,0.99998006,0,0)" />
    <ellipse
       style="color:#000000;clip-rule:nonzero;display:inline;overflow:visible;visibility:visible;opacity:1;isolation:auto;mix-blend-mode:normal;color-interpolation:sRGB;color-interpolation-filters:linearRGB;solid-color:#000000;solid-opacity:1;fill:#30c323;fill-opacity:1;fill-rule:nonzero;stroke:none;stroke-width:1.023;stroke-linecap:round;stroke-linejoin:miter;stroke-miterlimit:4;stroke-dasharray:none;stroke-dashoffset:0;stroke-opacity:1;color-rendering:auto;image-rendering:auto;shape-rendering:auto;text-rendering:auto;enable-background:accumulate"
       id="path4138-8-6-8"
       cx="1198.3783"
       cy="1015.0272"
       rx="21.88658"
       ry="19.955408"
       transform="matrix(0.99998006,0.00631498,-0.00631498,0.99998006,0,0)" />
    <ellipse
       style="color:#000000;clip-rule:nonzero;display:inline;overflow:visible;visibility:visible;opacity:1;isolation:auto;mix-blend-mode:normal;color-interpolation:sRGB;color-interpolation-filters:linearRGB;solid-color:#000000;solid-opacity:1;fill:#30c323;fill-opacity:1;fill-rule:nonzero;stroke:none;stroke-width:1.023;stroke-linecap:round;stroke-linejoin:miter;stroke-miterlimit:4;stroke-dasharray:none;stroke-dashoffset:0;stroke-opacity:1;color-rendering:auto;image-rendering:auto;shape-rendering:auto;text-rendering:auto;enable-background:accumulate"
       id="path4138-0-1-3"
       cx="1230.7058"
       cy="1014.8066"
       rx="21.88658"
       ry="19.955408"
       transform="matrix(0.99998006,0.00631498,-0.00631498,0.99998006,0,0)" />
    <ellipse
       style="color:#000000;clip-rule:nonzero;display:inline;overflow:visible;visibility:visible;opacity:1;isolation:auto;mix-blend-mode:normal;color-interpolation:sRGB;color-interpolation-filters:linearRGB;solid-color:#000000;solid-opacity:1;fill:#30c323;fill-opacity:1;fill-rule:nonzero;stroke:none;stroke-width:1.023;stroke-linecap:round;stroke-linejoin:miter;stroke-miterlimit:4;stroke-dasharray:none;stroke-dashoffset:0;stroke-opacity:1;color-rendering:auto;image-rendering:auto;shape-rendering:auto;text-rendering:auto;enable-background:accumulate"
       id="path4138-7-6-3"
       cx="1259.7592"
       cy="1014.7082"
       rx="21.88658"
       ry="19.955408"
       transform="matrix(0.99998006,0.00631498,-0.00631498,0.99998006,0,0)" />
    <ellipse
       style="color:#000000;clip-rule:nonzero;display:inline;overflow:visible;visibility:visible;opacity:1;isolation:auto;mix-blend-mode:normal;color-interpolation:sRGB;color-interpolation-filters:linearRGB;solid-color:#000000;solid-opacity:1;fill:#30c323;fill-opacity:1;fill-rule:nonzero;stroke:none;stroke-width:1.023;stroke-linecap:round;stroke-linejoin:miter;stroke-miterlimit:4;stroke-dasharray:none;stroke-dashoffset:0;stroke-opacity:1;color-rendering:auto;image-rendering:auto;shape-rendering:auto;text-rendering:auto;enable-background:accumulate"
       id="path4138-6-5-6"
       cx="1289.1899"
       cy="1014.3553"
       rx="21.88658"
       ry="19.955408"
       transform="matrix(0.99998006,0.00631498,-0.00631498,0.99998006,0,0)" />
    <ellipse
       style="color:#000000;clip-rule:nonzero;display:inline;overflow:visible;visibility:visible;opacity:1;isolation:auto;mix-blend-mode:normal;color-interpolation:sRGB;color-interpolation-filters:linearRGB;solid-color:#000000;solid-opacity:1;fill:#30c323;fill-opacity:1;fill-rule:nonzero;stroke:none;stroke-width:1.023;stroke-linecap:round;stroke-linejoin:miter;stroke-miterlimit:4;stroke-dasharray:none;stroke-dashoffset:0;stroke-opacity:1;color-rendering:auto;image-rendering:auto;shape-rendering:auto;text-rendering:auto;enable-background:accumulate"
       id="path4138-72-9-8"
       cx="1313.8328"
       cy="1014.386"
       rx="21.88658"
       ry="19.955408"
       transform="matrix(0.99998006,0.00631498,-0.00631498,0.99998006,0,0)" />
    <ellipse
       style="color:#000000;clip-rule:nonzero;display:inline;overflow:visible;visibility:visible;opacity:1;isolation:auto;mix-blend-mode:normal;color-interpolation:sRGB;color-interpolation-filters:linearRGB;solid-color:#000000;solid-opacity:1;fill:#30c323;fill-opacity:1;fill-rule:nonzero;stroke:none;stroke-width:1.023;stroke-linecap:round;stroke-linejoin:miter;stroke-miterlimit:4;stroke-dasharray:none;stroke-dashoffset:0;stroke-opacity:1;color-rendering:auto;image-rendering:auto;shape-rendering:auto;text-rendering:auto;enable-background:accumulate"
       id="path4138-12-8-4"
       cx="1338.7961"
       cy="1014.2972"
       rx="21.88658"
       ry="19.955408"
       transform="matrix(0.99998006,0.00631498,-0.00631498,0.99998006,0,0)" />
    <ellipse
       style="color:#000000;clip-rule:nonzero;display:inline;overflow:visible;visibility:visible;opacity:1;isolation:auto;mix-blend-mode:normal;color-interpolation:sRGB;color-interpolation-filters:linearRGB;solid-color:#000000;solid-opacity:1;fill:#30c323;fill-opacity:1;fill-rule:nonzero;stroke:none;stroke-width:1.023;stroke-linecap:round;stroke-linejoin:miter;stroke-miterlimit:4;stroke-dasharray:none;stroke-dashoffset:0;stroke-opacity:1;color-rendering:auto;image-rendering:auto;shape-rendering:auto;text-rendering:auto;enable-background:accumulate"
       id="path4138-12-8-8"
       cx="1373.4175"
       cy="1013.9327"
       rx="21.88658"
       ry="19.955408"
       transform="matrix(0.99998006,0.00631498,-0.00631498,0.99998006,0,0)" />
    <ellipse
       style="color:#000000;clip-rule:nonzero;display:inline;overflow:visible;visibility:visible;opacity:1;isolation:auto;mix-blend-mode:normal;color-interpolation:sRGB;color-interpolation-filters:linearRGB;solid-color:#000000;solid-opacity:1;fill:#30c323;fill-opacity:1;fill-rule:nonzero;stroke:none;stroke-width:1.023;stroke-linecap:round;stroke-linejoin:miter;stroke-miterlimit:4;stroke-dasharray:none;stroke-dashoffset:0;stroke-opacity:1;color-rendering:auto;image-rendering:auto;shape-rendering:auto;text-rendering:auto;enable-background:accumulate"
       id="path4138-82-7"
       cx="1408.3662"
       cy="1013.9109"
       rx="21.88658"
       ry="19.955408"
       transform="matrix(0.99998006,0.00631498,-0.00631498,0.99998006,0,0)" />
    <ellipse
       style="color:#000000;clip-rule:nonzero;display:inline;overflow:visible;visibility:visible;opacity:1;isolation:auto;mix-blend-mode:normal;color-interpolation:sRGB;color-interpolation-filters:linearRGB;solid-color:#000000;solid-opacity:1;fill:#30c323;fill-opacity:1;fill-rule:nonzero;stroke:none;stroke-width:1.023;stroke-linecap:round;stroke-linejoin:miter;stroke-miterlimit:4;stroke-dasharray:none;stroke-dashoffset:0;stroke-opacity:1;color-rendering:auto;image-rendering:auto;shape-rendering:auto;text-rendering:auto;enable-background:accumulate"
       id="path4138-1-0-9"
       cx="1442.4985"
       cy="1013.6498"
       rx="21.88658"
       ry="19.955408"
       transform="matrix(0.99998006,0.00631498,-0.00631498,0.99998006,0,0)" />
    <ellipse
       style="color:#000000;clip-rule:nonzero;display:inline;overflow:visible;visibility:visible;opacity:1;isolation:auto;mix-blend-mode:normal;color-interpolation:sRGB;color-interpolation-filters:linearRGB;solid-color:#000000;solid-opacity:1;fill:#30c323;fill-opacity:1;fill-rule:nonzero;stroke:none;stroke-width:1.023;stroke-linecap:round;stroke-linejoin:miter;stroke-miterlimit:4;stroke-dasharray:none;stroke-dashoffset:0;stroke-opacity:1;color-rendering:auto;image-rendering:auto;shape-rendering:auto;text-rendering:auto;enable-background:accumulate"
       id="path4138-6-2-2-4"
       cx="1477.7742"
       cy="1013.2003"
       rx="22.913744"
       ry="20.469011"
       transform="matrix(0.99998086,0.00618714,-0.00644546,0.99997923,0,0)" />
    <ellipse
       style="color:#000000;clip-rule:nonzero;display:inline;overflow:visible;visibility:visible;opacity:1;isolation:auto;mix-blend-mode:normal;color-interpolation:sRGB;color-interpolation-filters:linearRGB;solid-color:#000000;solid-opacity:1;fill:#30c323;fill-opacity:1;fill-rule:nonzero;stroke:none;stroke-width:1.023;stroke-linecap:round;stroke-linejoin:miter;stroke-miterlimit:4;stroke-dasharray:none;stroke-dashoffset:0;stroke-opacity:1;color-rendering:auto;image-rendering:auto;shape-rendering:auto;text-rendering:auto;enable-background:accumulate"
       id="path4138-72-6-6-4"
       cx="1511.2686"
       cy="1013.2464"
       rx="21.88658"
       ry="19.955408"
       transform="matrix(0.99998006,0.00631498,-0.00631498,0.99998006,0,0)" />
    <ellipse
       style="color:#000000;clip-rule:nonzero;display:inline;overflow:visible;visibility:visible;opacity:1;isolation:auto;mix-blend-mode:normal;color-interpolation:sRGB;color-interpolation-filters:linearRGB;solid-color:#000000;solid-opacity:1;fill:#30c323;fill-opacity:1;fill-rule:nonzero;stroke:none;stroke-width:1.023;stroke-linecap:round;stroke-linejoin:miter;stroke-miterlimit:4;stroke-dasharray:none;stroke-dashoffset:0;stroke-opacity:1;color-rendering:auto;image-rendering:auto;shape-rendering:auto;text-rendering:auto;enable-background:accumulate"
       id="path4138-12-9-6-0"
       cx="1541.786"
       cy="1012.8699"
       rx="21.88658"
       ry="19.955408"
       transform="matrix(0.99998006,0.00631498,-0.00631498,0.99998006,0,0)" />
    <ellipse
       style="color:#000000;clip-rule:nonzero;display:inline;overflow:visible;visibility:visible;opacity:1;isolation:auto;mix-blend-mode:normal;color-interpolation:sRGB;color-interpolation-filters:linearRGB;solid-color:#000000;solid-opacity:1;fill:#30c323;fill-opacity:1;fill-rule:nonzero;stroke:none;stroke-width:1.023;stroke-linecap:round;stroke-linejoin:miter;stroke-miterlimit:4;stroke-dasharray:none;stroke-dashoffset:0;stroke-opacity:1;color-rendering:auto;image-rendering:auto;shape-rendering:auto;text-rendering:auto;enable-background:accumulate"
       id="path4138-3-3-8"
       cx="1574.403"
       cy="1012.6186"
       rx="21.88658"
       ry="19.955408"
       transform="matrix(0.99998006,0.00631498,-0.00631498,0.99998006,0,0)" />
    <ellipse
       style="color:#000000;clip-rule:nonzero;display:inline;overflow:visible;visibility:visible;opacity:1;isolation:auto;mix-blend-mode:normal;color-interpolation:sRGB;color-interpolation-filters:linearRGB;solid-color:#000000;solid-opacity:1;fill:#30c323;fill-opacity:1;fill-rule:nonzero;stroke:none;stroke-width:1.023;stroke-linecap:round;stroke-linejoin:miter;stroke-miterlimit:4;stroke-dasharray:none;stroke-dashoffset:0;stroke-opacity:1;color-rendering:auto;image-rendering:auto;shape-rendering:auto;text-rendering:auto;enable-background:accumulate"
       id="path4138-1-3-2-9"
       cx="1608.2848"
       cy="1012.7379"
       rx="21.88658"
       ry="19.955408"
       transform="matrix(0.99998006,0.00631498,-0.00631498,0.99998006,0,0)" />
    <ellipse
       style="color:#000000;clip-rule:nonzero;display:inline;overflow:visible;visibility:visible;opacity:1;isolation:auto;mix-blend-mode:normal;color-interpolation:sRGB;color-interpolation-filters:linearRGB;solid-color:#000000;solid-opacity:1;fill:#30c323;fill-opacity:1;fill-rule:nonzero;stroke:none;stroke-width:1.023;stroke-linecap:round;stroke-linejoin:miter;stroke-miterlimit:4;stroke-dasharray:none;stroke-dashoffset:0;stroke-opacity:1;color-rendering:auto;image-rendering:auto;shape-rendering:auto;text-rendering:auto;enable-background:accumulate"
       id="path4138-9-3-5-6"
       cx="1640.7716"
       cy="1012.4996"
       rx="21.88658"
       ry="19.955408"
       transform="matrix(0.99998006,0.00631498,-0.00631498,0.99998006,0,0)" />
    <ellipse
       style="color:#000000;clip-rule:nonzero;display:inline;overflow:visible;visibility:visible;opacity:1;isolation:auto;mix-blend-mode:normal;color-interpolation:sRGB;color-interpolation-filters:linearRGB;solid-color:#000000;solid-opacity:1;fill:#30c323;fill-opacity:1;fill-rule:nonzero;stroke:none;stroke-width:1.023;stroke-linecap:round;stroke-linejoin:miter;stroke-miterlimit:4;stroke-dasharray:none;stroke-dashoffset:0;stroke-opacity:1;color-rendering:auto;image-rendering:auto;shape-rendering:auto;text-rendering:auto;enable-background:accumulate"
       id="path4138-8-6-8-5"
       cx="1671.5233"
       cy="1012.256"
       rx="21.88658"
       ry="19.955408"
       transform="matrix(0.99998006,0.00631498,-0.00631498,0.99998006,0,0)" />
    <ellipse
       style="color:#000000;clip-rule:nonzero;display:inline;overflow:visible;visibility:visible;opacity:1;isolation:auto;mix-blend-mode:normal;color-interpolation:sRGB;color-interpolation-filters:linearRGB;solid-color:#000000;solid-opacity:1;fill:#30c323;fill-opacity:1;fill-rule:nonzero;stroke:none;stroke-width:1.023;stroke-linecap:round;stroke-linejoin:miter;stroke-miterlimit:4;stroke-dasharray:none;stroke-dashoffset:0;stroke-opacity:1;color-rendering:auto;image-rendering:auto;shape-rendering:auto;text-rendering:auto;enable-background:accumulate"
       id="path4138-0-1-3-5"
       cx="1703.8508"
       cy="1012.0353"
       rx="21.88658"
       ry="19.955408"
       transform="matrix(0.99998006,0.00631498,-0.00631498,0.99998006,0,0)" />
    <ellipse
       style="color:#000000;clip-rule:nonzero;display:inline;overflow:visible;visibility:visible;opacity:1;isolation:auto;mix-blend-mode:normal;color-interpolation:sRGB;color-interpolation-filters:linearRGB;solid-color:#000000;solid-opacity:1;fill:#30c323;fill-opacity:1;fill-rule:nonzero;stroke:none;stroke-width:1.023;stroke-linecap:round;stroke-linejoin:miter;stroke-miterlimit:4;stroke-dasharray:none;stroke-dashoffset:0;stroke-opacity:1;color-rendering:auto;image-rendering:auto;shape-rendering:auto;text-rendering:auto;enable-background:accumulate"
       id="path4138-7-6-3-8"
       cx="1732.9042"
       cy="1011.9369"
       rx="21.88658"
       ry="19.955408"
       transform="matrix(0.99998006,0.00631498,-0.00631498,0.99998006,0,0)" />
    <ellipse
       style="color:#000000;clip-rule:nonzero;display:inline;overflow:visible;visibility:visible;opacity:1;isolation:auto;mix-blend-mode:normal;color-interpolation:sRGB;color-interpolation-filters:linearRGB;solid-color:#000000;solid-opacity:1;fill:#30c323;fill-opacity:1;fill-rule:nonzero;stroke:none;stroke-width:1.023;stroke-linecap:round;stroke-linejoin:miter;stroke-miterlimit:4;stroke-dasharray:none;stroke-dashoffset:0;stroke-opacity:1;color-rendering:auto;image-rendering:auto;shape-rendering:auto;text-rendering:auto;enable-background:accumulate"
       id="path4138-6-5-6-1"
       cx="1762.335"
       cy="1011.584"
       rx="21.88658"
       ry="19.955408"
       transform="matrix(0.99998006,0.00631498,-0.00631498,0.99998006,0,0)" />
    <ellipse
       style="color:#000000;clip-rule:nonzero;display:inline;overflow:visible;visibility:visible;opacity:1;isolation:auto;mix-blend-mode:normal;color-interpolation:sRGB;color-interpolation-filters:linearRGB;solid-color:#000000;solid-opacity:1;fill:#30c323;fill-opacity:1;fill-rule:nonzero;stroke:none;stroke-width:1.023;stroke-linecap:round;stroke-linejoin:miter;stroke-miterlimit:4;stroke-dasharray:none;stroke-dashoffset:0;stroke-opacity:1;color-rendering:auto;image-rendering:auto;shape-rendering:auto;text-rendering:auto;enable-background:accumulate"
       id="path4138-72-9-8-4"
       cx="1786.9778"
       cy="1011.6147"
       rx="21.88658"
       ry="19.955408"
       transform="matrix(0.99998006,0.00631498,-0.00631498,0.99998006,0,0)" />
    <ellipse
       style="color:#000000;clip-rule:nonzero;display:inline;overflow:visible;visibility:visible;opacity:1;isolation:auto;mix-blend-mode:normal;color-interpolation:sRGB;color-interpolation-filters:linearRGB;solid-color:#000000;solid-opacity:1;fill:#30c323;fill-opacity:1;fill-rule:nonzero;stroke:none;stroke-width:1.023;stroke-linecap:round;stroke-linejoin:miter;stroke-miterlimit:4;stroke-dasharray:none;stroke-dashoffset:0;stroke-opacity:1;color-rendering:auto;image-rendering:auto;shape-rendering:auto;text-rendering:auto;enable-background:accumulate"
       id="path4138-12-8-4-9"
       cx="1811.9412"
       cy="1011.5259"
       rx="21.88658"
       ry="19.955408"
       transform="matrix(0.99998006,0.00631498,-0.00631498,0.99998006,0,0)" />
    <ellipse
       style="color:#000000;clip-rule:nonzero;display:inline;overflow:visible;visibility:visible;opacity:1;isolation:auto;mix-blend-mode:normal;color-interpolation:sRGB;color-interpolation-filters:linearRGB;solid-color:#000000;solid-opacity:1;fill:#30c323;fill-opacity:1;fill-rule:nonzero;stroke:none;stroke-width:1.023;stroke-linecap:round;stroke-linejoin:miter;stroke-miterlimit:4;stroke-dasharray:none;stroke-dashoffset:0;stroke-opacity:1;color-rendering:auto;image-rendering:auto;shape-rendering:auto;text-rendering:auto;enable-background:accumulate"
       id="path4138-8-6-8-5-0"
       cx="1843.74"
       cy="1010.8546"
       rx="21.88658"
       ry="19.955408"
       transform="matrix(0.99998006,0.00631498,-0.00631498,0.99998006,0,0)" />
    <ellipse
       style="color:#000000;clip-rule:nonzero;display:inline;overflow:visible;visibility:visible;opacity:1;isolation:auto;mix-blend-mode:normal;color-interpolation:sRGB;color-interpolation-filters:linearRGB;solid-color:#000000;solid-opacity:1;fill:#30c323;fill-opacity:1;fill-rule:nonzero;stroke:none;stroke-width:1.023;stroke-linecap:round;stroke-linejoin:miter;stroke-miterlimit:4;stroke-dasharray:none;stroke-dashoffset:0;stroke-opacity:1;color-rendering:auto;image-rendering:auto;shape-rendering:auto;text-rendering:auto;enable-background:accumulate"
       id="path4138-0-1-3-5-7"
       cx="1876.0675"
       cy="1010.6339"
       rx="21.88658"
       ry="19.955408"
       transform="matrix(0.99998006,0.00631498,-0.00631498,0.99998006,0,0)" />
    <ellipse
       style="color:#000000;clip-rule:nonzero;display:inline;overflow:visible;visibility:visible;opacity:1;isolation:auto;mix-blend-mode:normal;color-interpolation:sRGB;color-interpolation-filters:linearRGB;solid-color:#000000;solid-opacity:1;fill:#30c323;fill-opacity:1;fill-rule:nonzero;stroke:none;stroke-width:1.023;stroke-linecap:round;stroke-linejoin:miter;stroke-miterlimit:4;stroke-dasharray:none;stroke-dashoffset:0;stroke-opacity:1;color-rendering:auto;image-rendering:auto;shape-rendering:auto;text-rendering:auto;enable-background:accumulate"
       id="path4138-7-6-3-8-7"
       cx="1905.1208"
       cy="1010.5355"
       rx="21.88658"
       ry="19.955408"
       transform="matrix(0.99998006,0.00631498,-0.00631498,0.99998006,0,0)" />
    <ellipse
       style="color:#000000;clip-rule:nonzero;display:inline;overflow:visible;visibility:visible;opacity:1;isolation:auto;mix-blend-mode:normal;color-interpolation:sRGB;color-interpolation-filters:linearRGB;solid-color:#000000;solid-opacity:1;fill:#30c323;fill-opacity:1;fill-rule:nonzero;stroke:none;stroke-width:1.023;stroke-linecap:round;stroke-linejoin:miter;stroke-miterlimit:4;stroke-dasharray:none;stroke-dashoffset:0;stroke-opacity:1;color-rendering:auto;image-rendering:auto;shape-rendering:auto;text-rendering:auto;enable-background:accumulate"
       id="path4138-6-5-6-1-6"
       cx="1934.5516"
       cy="1010.1826"
       rx="21.88658"
       ry="19.955408"
       transform="matrix(0.99998006,0.00631498,-0.00631498,0.99998006,0,0)" />
    <ellipse
       style="color:#000000;clip-rule:nonzero;display:inline;overflow:visible;visibility:visible;opacity:1;isolation:auto;mix-blend-mode:normal;color-interpolation:sRGB;color-interpolation-filters:linearRGB;solid-color:#000000;solid-opacity:1;fill:#30c323;fill-opacity:1;fill-rule:nonzero;stroke:none;stroke-width:1.023;stroke-linecap:round;stroke-linejoin:miter;stroke-miterlimit:4;stroke-dasharray:none;stroke-dashoffset:0;stroke-opacity:1;color-rendering:auto;image-rendering:auto;shape-rendering:auto;text-rendering:auto;enable-background:accumulate"
       id="path4138-72-9-8-4-3"
       cx="1959.1945"
       cy="1010.2133"
       rx="21.88658"
       ry="19.955408"
       transform="matrix(0.99998006,0.00631498,-0.00631498,0.99998006,0,0)" />
  </g>
</svg>
