<?xml version="1.0" encoding="UTF-8" standalone="no"?>
<!-- Created with Inkscape (http://www.inkscape.org/) -->

<svg
   xmlns:dc="http://purl.org/dc/elements/1.1/"
   xmlns:cc="http://creativecommons.org/ns#"
   xmlns:rdf="http://www.w3.org/1999/02/22-rdf-syntax-ns#"
   xmlns:svg="http://www.w3.org/2000/svg"
   xmlns="http://www.w3.org/2000/svg"
   xmlns:xlink="http://www.w3.org/1999/xlink"
   version="1.2"
   width="990"
   height="765"
   id="svg2">
  <defs
     id="defs4">
    <radialGradient
       cx="385.02646"
       cy="959.69623"
       r="383.86896"
       fx="385.02646"
       fy="959.69623"
       id="radialGradient3611"
       xlink:href="#linearGradient4643-8"
       gradientUnits="userSpaceOnUse"
       gradientTransform="matrix(1,0,0,0.24068037,0,728.71616)" />
    <linearGradient
       id="linearGradient4643-8">
      <stop
         id="stop4645-8"
         style="stop-color:#000000;stop-opacity:1"
         offset="0" />
      <stop
         id="stop4647-3"
         style="stop-color:#000000;stop-opacity:0"
         offset="1" />
    </linearGradient>
    <radialGradient
       cx="385.02646"
       cy="959.69623"
       r="383.86896"
       fx="385.02646"
       fy="959.69623"
       id="radialGradient4162"
       xlink:href="#linearGradient4643-8"
       gradientUnits="userSpaceOnUse"
       gradientTransform="matrix(1,0,0,0.24068037,0,728.71616)" />
    <radialGradient
       cx="385.02646"
       cy="959.69623"
       r="383.86896"
       fx="385.02646"
       fy="959.69623"
       id="radialGradient4160"
       xlink:href="#linearGradient4643-8"
       gradientUnits="userSpaceOnUse"
       gradientTransform="matrix(1,0,0,0.24068037,0,728.71616)" />
    <radialGradient
       cx="385.02646"
       cy="959.69623"
       r="383.86896"
       fx="385.02646"
       fy="959.69623"
       id="radialGradient4158"
       xlink:href="#linearGradient4643-8"
       gradientUnits="userSpaceOnUse"
       gradientTransform="matrix(1,0,0,0.24068037,0,728.71616)" />
    <radialGradient
       cx="385.02646"
       cy="959.69623"
       r="383.86896"
       fx="385.02646"
       fy="959.69623"
       id="radialGradient4156"
       xlink:href="#linearGradient4643-8"
       gradientUnits="userSpaceOnUse"
       gradientTransform="matrix(1,0,0,0.24068037,0,728.71616)" />
    <radialGradient
       cx="385.02646"
       cy="959.69623"
       r="383.86896"
       fx="385.02646"
       fy="959.69623"
       id="radialGradient4154"
       xlink:href="#linearGradient4643-8"
       gradientUnits="userSpaceOnUse"
       gradientTransform="matrix(1,0,0,0.24068037,0,728.71616)" />
    <radialGradient
       cx="385.02646"
       cy="959.69623"
       r="383.86896"
       fx="385.02646"
       fy="959.69623"
       id="radialGradient4152"
       xlink:href="#linearGradient4643-8"
       gradientUnits="userSpaceOnUse"
       gradientTransform="matrix(1,0,0,0.24068037,0,728.71616)" />
    <radialGradient
       cx="385.02646"
       cy="959.69623"
       r="383.86896"
       fx="385.02646"
       fy="959.69623"
       id="radialGradient4150"
       xlink:href="#linearGradient4643-8"
       gradientUnits="userSpaceOnUse"
       gradientTransform="matrix(1,0,0,0.24068037,0,728.71616)" />
    <radialGradient
       cx="385.02646"
       cy="959.69623"
       r="383.86896"
       fx="385.02646"
       fy="959.69623"
       id="radialGradient4148"
       xlink:href="#linearGradient4643-8"
       gradientUnits="userSpaceOnUse"
       gradientTransform="matrix(1,0,0,0.24068037,0,728.71616)" />
    <radialGradient
       cx="385.02646"
       cy="959.69623"
       r="383.86896"
       fx="385.02646"
       fy="959.69623"
       id="radialGradient4146"
       xlink:href="#linearGradient4643-8"
       gradientUnits="userSpaceOnUse"
       gradientTransform="matrix(1,0,0,0.24068037,0,728.71616)" />
    <radialGradient
       cx="385.02646"
       cy="959.69623"
       r="383.86896"
       fx="385.02646"
       fy="959.69623"
       id="radialGradient4144"
       xlink:href="#linearGradient4643-8"
       gradientUnits="userSpaceOnUse"
       gradientTransform="matrix(1,0,0,0.24068037,0,728.71616)" />
    <radialGradient
       cx="385.02646"
       cy="959.69623"
       r="383.86896"
       fx="385.02646"
       fy="959.69623"
       id="radialGradient4142"
       xlink:href="#linearGradient4643-8"
       gradientUnits="userSpaceOnUse"
       gradientTransform="matrix(1,0,0,0.24068037,0,728.71616)" />
    <radialGradient
       cx="385.02646"
       cy="959.69623"
       r="383.86896"
       fx="385.02646"
       fy="959.69623"
       id="radialGradient4140"
       xlink:href="#linearGradient4643-8"
       gradientUnits="userSpaceOnUse"
       gradientTransform="matrix(1,0,0,0.24068037,0,728.71616)" />
    <radialGradient
       cx="385.02646"
       cy="959.69623"
       r="383.86896"
       fx="385.02646"
       fy="959.69623"
       id="radialGradient4128"
       xlink:href="#linearGradient4643-8"
       gradientUnits="userSpaceOnUse"
       gradientTransform="matrix(1,0,0,0.24068037,0,728.71616)" />
    <radialGradient
       cx="385.02646"
       cy="959.69623"
       r="383.86896"
       fx="385.02646"
       fy="959.69623"
       id="radialGradient4138"
       xlink:href="#linearGradient4643-8"
       gradientUnits="userSpaceOnUse"
       gradientTransform="matrix(1,0,0,0.24068037,0,728.71616)" />
    <radialGradient
       cx="385.02646"
       cy="959.69623"
       r="383.86896"
       fx="385.02646"
       fy="959.69623"
       id="radialGradient4136"
       xlink:href="#linearGradient4643-8"
       gradientUnits="userSpaceOnUse"
       gradientTransform="matrix(1,0,0,0.24068037,0,728.71616)" />
    <radialGradient
       cx="385.02646"
       cy="959.69623"
       r="383.86896"
       fx="385.02646"
       fy="959.69623"
       id="radialGradient4132"
       xlink:href="#linearGradient4643-8"
       gradientUnits="userSpaceOnUse"
       gradientTransform="matrix(1,0,0,0.24068037,0,728.71616)" />
    <radialGradient
       cx="385.02646"
       cy="959.69623"
       r="383.86896"
       fx="385.02646"
       fy="959.69623"
       id="radialGradient4130"
       xlink:href="#linearGradient4643-8"
       gradientUnits="userSpaceOnUse"
       gradientTransform="matrix(1,0,0,0.24068037,0,728.71616)" />
    <radialGradient
       cx="385.02646"
       cy="959.69623"
       r="383.86896"
       fx="385.02646"
       fy="959.69623"
       id="radialGradient4134"
       xlink:href="#linearGradient4643-8"
       gradientUnits="userSpaceOnUse"
       gradientTransform="matrix(1,0,0,0.24068037,0,728.71616)" />
    <radialGradient
       cx="385.02646"
       cy="959.69623"
       r="383.86896"
       fx="385.02646"
       fy="959.69623"
       id="radialGradient3551"
       xlink:href="#linearGradient4643-8"
       gradientUnits="userSpaceOnUse"
       gradientTransform="matrix(1,0,0,0.24068037,0,728.71616)" />
    <filter
       x="-0.71678084"
       y="-0.35839042"
       width="2.4335618"
       height="1.7167809"
       color-interpolation-filters="sRGB"
       id="filter4271-6-9-9-8">
      <feGaussianBlur
         stdDeviation="0.75422708"
         id="feGaussianBlur4273-1-5-9-4" />
    </filter>
    <filter
       x="-0.66215259"
       y="-0.37427577"
       width="2.3243051"
       height="1.7485515"
       color-interpolation-filters="sRGB"
       id="filter4275-2-7-7-2">
      <feGaussianBlur
         stdDeviation="0.75422709"
         id="feGaussianBlur4277-3-7-3-6" />
    </filter>
    <filter
       x="-0.71678084"
       y="-0.35839042"
       width="2.4335618"
       height="1.7167809"
       color-interpolation-filters="sRGB"
       id="filter4271-4-7-2-7-8">
      <feGaussianBlur
         stdDeviation="0.75422708"
         id="feGaussianBlur4273-2-5-0-1-3" />
    </filter>
    <filter
       x="-0.66215259"
       y="-0.37427577"
       width="2.3243051"
       height="1.7485515"
       color-interpolation-filters="sRGB"
       id="filter4275-3-5-5-4-2">
      <feGaussianBlur
         stdDeviation="0.75422709"
         id="feGaussianBlur4277-5-8-1-3-4" />
    </filter>
  </defs>
  <metadata
     id="metadata7">
    <rdf:RDF>
      <cc:Work
         rdf:about="">
        <dc:format>image/svg+xml</dc:format>
        <dc:type
           rdf:resource="http://purl.org/dc/dcmitype/StillImage" />
        <dc:title></dc:title>
      </cc:Work>
    </rdf:RDF>
  </metadata>
  <g
     transform="translate(0,-287.36218)"
     id="layer1">
    <g
       transform="matrix(1.3009104,0,0,1.0222836,-2.3134983,-18.719511)"
       id="g6126">
      <g
         id="g8609"
         style="stroke:url(#radialGradient3551);stroke-width:1.00030446;stroke-miterlimit:4;stroke-dasharray:none">
        <g
           id="g7856"
           style="fill:#0389ab;fill-opacity:0.97254902;stroke:url(#radialGradient4162);stroke-width:1.00030446;stroke-miterlimit:4;stroke-dasharray:none">
          <g
             id="g10490"
             style="fill:#0389ab;fill-opacity:0.97254902;stroke:url(#radialGradient4160);stroke-width:1.00030446;stroke-miterlimit:4;stroke-dasharray:none">
            <g
               id="g10404"
               style="fill:#0389ab;fill-opacity:0.97254902;stroke:url(#radialGradient4158);stroke-width:1.00030446;stroke-miterlimit:4;stroke-dasharray:none">
              <g
                 id="g10319"
                 style="fill:#0389ab;fill-opacity:0.97254902;stroke:url(#radialGradient4156);stroke-width:1.00030446;stroke-miterlimit:4;stroke-dasharray:none">
                <g
                   id="g10235"
                   style="fill:#0389ab;fill-opacity:0.97254902;stroke:url(#radialGradient4154);stroke-width:1.00030446;stroke-miterlimit:4;stroke-dasharray:none">
                  <g
                     id="g7606"
                     style="fill:#0389ab;fill-opacity:0.97254902;stroke:url(#radialGradient4152);stroke-width:1.00030446;stroke-miterlimit:4;stroke-dasharray:none">
                    <g
                       id="g7357"
                       style="fill:#0389ab;fill-opacity:0.97254902;stroke:url(#radialGradient4150);stroke-width:1.00030446;stroke-miterlimit:4;stroke-dasharray:none">
                      <g
                         id="g7109"
                         style="fill:#0389ab;fill-opacity:0.97254902;stroke:url(#radialGradient4148);stroke-width:1.00030446;stroke-miterlimit:4;stroke-dasharray:none">
                        <g
                           id="g6862"
                           style="fill:#0389ab;fill-opacity:0.97254902;stroke:url(#radialGradient4146);stroke-width:1.00030446;stroke-miterlimit:4;stroke-dasharray:none">
                          <g
                             id="g6616"
                             style="fill:#0389ab;fill-opacity:0.97254902;stroke:url(#radialGradient4144);stroke-width:1.00030446;stroke-miterlimit:4;stroke-dasharray:none">
                            <g
                               transform="translate(1.0101525,-3.5355336)"
                               id="g6371"
                               style="fill:#0389ab;fill-opacity:0.97254902;stroke:url(#radialGradient4142);stroke-width:1.00030446;stroke-miterlimit:4;stroke-dasharray:none">
                              <g
                                 transform="translate(881.42857,-71.912666)"
                                 id="layer1-6"
                                 style="fill:#0389ab;fill-opacity:0.97254902;stroke:url(#radialGradient4140);stroke-width:1.00030446;stroke-miterlimit:4;stroke-dasharray:none">
                                <rect
                                   width="762.74677"
                                   height="179.78831"
                                   x="-878.78564"
                                   y="945.25024"
                                   id="rect5030-3"
                                   style="fill:#0389ab;fill-opacity:0.97254902;stroke:url(#radialGradient4128);stroke-width:1.00030446;stroke-linejoin:bevel;stroke-miterlimit:4;stroke-opacity:0.97254902;stroke-dasharray:none;stroke-dashoffset:0" />
                                <g
                                   transform="matrix(1.0689865,0,0,0.66580617,-980.89542,170.4301)"
                                   id="g4399-0"
                                   style="fill:#0389ab;fill-opacity:0.97254902;stroke:url(#radialGradient4138);stroke-width:1.18569279;stroke-miterlimit:4;stroke-dasharray:none">
                                <flowRoot
                                   id="flowRoot10600"
                                   xml:space="preserve"
                                   style="font-size:40px;font-style:normal;font-weight:normal;line-height:125%;letter-spacing:0px;word-spacing:0px;fill:#0389ab;fill-opacity:0.97254902;stroke:url(#radialGradient4136);stroke-width:1.18569279;stroke-miterlimit:4;stroke-dasharray:none;font-family:sans-serif"><flowRegion
                                   id="flowRegion10602"
                                   style="stroke:url(#radialGradient4132)"><rect
                                   width="802.0611"
                                   height="733.37073"
                                   x="963.68555"
                                   y="78.842407"
                                   id="rect10604"
                                   style="fill:#0389ab;fill-opacity:0.97254902;stroke:url(#radialGradient4130);stroke-width:1.18569279;stroke-miterlimit:4;stroke-dasharray:none" /></flowRegion><flowPara
                                   id="flowPara10606"
                                   style="fill:#0389ab;fill-opacity:0.97254902;stroke:url(#radialGradient4134);stroke-width:1.18569279;stroke-miterlimit:4;stroke-dasharray:none" /></flowRoot>                                </g>
                              </g>
                            </g>
                          </g>
                        </g>
                      </g>
                    </g>
                  </g>
                </g>
              </g>
            </g>
          </g>
        </g>
      </g>
    </g>
    <g
       transform="matrix(1.5852332,0,0,-1.2500112,1502.7174,1380.3733)"
       id="g19580">
      <g
         id="g19665">
        <g
           transform="matrix(1.0204562,0,0,1.0245046,-8.4430993,-2.8880453)"
           id="g11178">
          <flowRoot
             transform="matrix(0.8,0,0,-0.8,-906.138,1047.2742)"
             id="flowRoot13594"
             xml:space="preserve"
             style="font-size:40px;font-style:normal;font-weight:normal;line-height:125%;letter-spacing:0px;word-spacing:0px;fill:#000000;fill-opacity:1;stroke:none;font-family:sans-serif"><flowRegion
               id="flowRegion13596"><rect
                 width="565.68542"
                 height="153.54318"
                 x="1200.0613"
                 y="1228.396"
                 id="rect13598" /></flowRegion><flowPara
               id="flowPara13600" /></flowRoot>          <text
             x="-704.57294"
             y="-333.48074"
             transform="scale(1.0563007,-0.94670012)"
             id="text11186-9"
             style="font-size:18.90077972px;font-variant:normal;font-weight:normal;writing-mode:lr-tb;fill:#f9f9f9;fill-opacity:1;fill-rule:nonzero;stroke:none;font-family:DejaVu Sans;-inkscape-font-specification:DejaVuSans">
            <tspan
               x="-704.57294 -699.33746 -687.77014 -680.36108 -668.37799 -663.14246 -651.17822 -639.66766 -627.68457 -615.70148 -608.29236 -596.6684 -585.15784 -566.69177 -547.79102 -535.80792 -517.39856 -505.83127 -500.59579 -495.41696 -489.42538 -479.04886 -467.55722"
               y="-333.48074"
               id="tspan11188-9">jardinappteam@gmail.com</tspan>
          </text>
          <text
             x="-619.02203"
             y="-337.40643"
             transform="scale(1.1455712,-0.87292697)"
             id="text11190-6"
             style="font-size:11.86411572px;font-variant:normal;font-weight:normal;writing-mode:lr-tb;fill:#f9f9f9;fill-opacity:1;fill-rule:nonzero;stroke:none;font-family:DejaVu Sans;-inkscape-font-specification:DejaVuSans">
            <tspan
               x="-619.02203 -613.80182 -606.55286 -599.03101 -591.78204 -585.64832 -581.88739 -578.60101 -571.38763 -565.21832 -561.45734 -553.93555 -546.67468 -542.03583 -534.73938 -528.22601 -520.716 -513.46704 -507.33322 -503.57236 -498.93344 -491.63705 -485.46768 -478.17123 -473.29514 -466.319 -459.0582 -451.53629 -444.28732 -438.15359"
               y="-337.40643"
               id="tspan11192-9">Todos los derechos reservados.</tspan>
          </text>
        </g>
        <text
           x="-507.3082"
           y="-510.28653"
           transform="scale(1.441077,-0.69392547)"
           id="text4065"
           xml:space="preserve"
           style="font-size:38.90134048px;font-style:normal;font-variant:normal;font-weight:500;font-stretch:normal;line-height:125%;letter-spacing:0px;word-spacing:0px;fill:#ffffff;fill-opacity:1;stroke:none;font-family:Animated;-inkscape-font-specification:Animated Medium"><tspan
             x="-507.3082"
             y="-510.28653"
             id="tspan4067">JardinApp</tspan></text>
      </g>
    </g>
    <g
       transform="matrix(-1.1341845,0,0,2.7507416,1874.2577,-1228.8581)"
       id="g4131-5">
      <g
         transform="matrix(0.74246138,0.03479521,-0.07355993,0.35119806,1103.1218,454.77408)"
         id="g3394-8"
         style="fill:#c87137;stroke:#c87137">
        <path
           d="m -274.66097,776.07405 c -5.91077,-2.31326 -10.68976,-5.40588 -22.18133,-3.8762 -0.30168,-3.88843 -3.06925,-5.83981 -5.16358,-8.41328 l -1.25885,-6.28395 c -1.37101,-0.74873 -2.5881,-0.97899 -3.73998,0.55167 -1.09208,1.12723 -0.10852,5.0887 0.98453,6.59675 l -1.30075,0.39572 -7.99647,-3.15794 c -1.68842,-0.24838 -3.8479,0.76043 -1.93769,2.85783 l 2.84958,2.51218 -4.41302,0.30827 c -3.2861,0.76212 -1.03501,2.87163 -0.5768,3.04523 l 4.30355,1.52945 -3.30346,1.58638 c -1.59312,1.66156 0.50928,3.06977 1.11815,3.08499 l 3.82259,-0.15407 c 0.15174,0.24185 -2.49409,2.6072 -2.26206,3.03301 -0.13632,1.08918 1.54978,2.49616 2.99596,2.20255 9.22526,-1.96083 5.66808,-1.25213 7.24605,-1.40998 6.32123,0.10586 5.90401,-0.73787 8.43848,-0.99778 6.17061,2.40863 10.5951,5.76021 18.5116,7.22608 13.43806,0.3613 22.07915,-1.34512 22.58357,-1.40829 l -1.27819,-5.15047 c -0.39085,-1.46404 -1.57679,-8.16872 -2.16254,-10.09917 -14.84608,5.33353 -15.27925,6.02102 -15.27925,6.02102 z"
           id="path4851-6-0-6"
           style="fill:#c87137;stroke:#c87137;stroke-width:0.47259209px;stroke-linecap:butt;stroke-linejoin:miter;stroke-opacity:1" />
        <path
           d="m -189.16515,747.07094 c 4.00811,-5.62667 6.48601,-11.37647 18.03943,-16.39594 -2.14818,-3.9904 -0.81331,-7.47775 -0.48753,-11.194 l -2.76022,-6.88649 c 0.79726,-1.5135 1.77611,-2.43042 3.79366,-1.58075 1.71067,0.48737 3.27552,4.9365 3.20845,7.03805 l 1.44664,-0.34953 5.40466,-7.64004 c 1.4023,-1.20215 4.02351,-1.43692 3.57053,1.70725 l -1.0606,4.0847 4.26259,-2.20177 c 3.50639,-1.11644 2.74654,2.23309 2.43231,2.66359 l -3.01484,3.94465 4.03678,-0.31672 c 2.50618,0.72783 1.44586,3.30416 0.89381,3.66467 l -3.62182,2.01811 c 0.0111,0.32368 3.92731,1.1453 3.979,1.69522 0.80542,0.99239 0.12826,3.33127 -1.3888,3.86365 -9.73221,3.30976 -6.00913,1.98702 -7.56301,2.72755 -5.76412,3.69148 -5.90583,2.62601 -8.40559,3.80914 -4.18824,5.86778 -6.17758,11.67077 -12.56441,17.60342 -12.1687,7.9815 -20.87395,11.00689 -21.37861,11.23112 l -2.36448,-5.5815 c -0.5531,-1.65978 -3.4431,-7.68407 -4.10748,-9.91258 17.02101,-3.18712 17.64952,-3.99182 17.64952,-3.99182 z"
           id="path4851-6-9"
           style="fill:#c87137;stroke:#c87137;stroke-width:0.53049362px;stroke-linecap:butt;stroke-linejoin:miter;stroke-opacity:1" />
      </g>
      <path
         d="m 890.54675,743.15578 -10.56128,-0.3482 2.23261,7.27611 c 0.78815,1.70813 7.69688,0.0759 7.40111,-0.46099 -0.0773,-0.0621 0.92756,-6.46692 0.92756,-6.46692 z"
         id="path4357-3-5-4"
         style="fill:#a05a2c;stroke:#803300;stroke-width:0.18631187px;stroke-linecap:butt;stroke-linejoin:miter;stroke-opacity:1;display:inline" />
      <path
         d="m 881.97378,749.9433 c -1.05187,0.49431 -2.02265,0.70631 -2.57818,1.96992 -0.55985,2.58632 19.2587,2.79747 19.88241,1.87006 5.50662,-2.51048 -8.22421,-4.78246 -9.82644,-4.0801 -0.198,1.21192 -7.58839,1.7837 -7.47779,0.24012 z"
         id="path4377-6-5-9"
         style="fill:#00ff00;stroke:#00ff00;stroke-width:0.18631187px;stroke-linecap:butt;stroke-linejoin:miter;stroke-opacity:1;display:inline" />
      <path
         d="m 879.20013,752.0071 -1.46016,1.03734 c 0.0597,1.38011 18.03255,3.85564 21.0548,2.41673 0.99512,-0.7199 1.40115,-1.46674 1.39148,-2.23253 -1.64659,2.00721 -21.23472,1.09073 -20.98612,-1.22154 z"
         id="path4379-8-0-0"
         style="fill:#808000;stroke:#808000;stroke-width:0.18631187px;stroke-linecap:butt;stroke-linejoin:miter;stroke-opacity:1;display:inline" />
      <path
         d="m 857.00806,742.08916 8.89985,0.92673 -7.09215,7.99183 c -1.82026,1.45721 -6.19006,-1.93511 -5.57953,-2.38065 0.10427,-0.0405 3.77183,-6.53791 3.77183,-6.53791 z"
         id="path4357-4-3-3-8"
         style="fill:#a05a2c;stroke:#803300;stroke-width:0.18239115px;stroke-linecap:butt;stroke-linejoin:miter;stroke-opacity:1;display:inline" />
      <path
         d="m 859.10847,750.93485 c 0.49377,0.75584 1.11976,1.21556 0.68115,2.59072 -1.35775,2.664 -17.3074,-2.30355 -17.15788,-3.36923 -2.63907,-3.88137 9.89426,-2.50913 10.68197,-1.40723 -0.68766,1.23161 4.80578,3.71726 5.79476,2.18574 z"
         id="path4377-5-0-7-7"
         style="fill:#00ff00;stroke:#00ff00;stroke-width:0.18239115px;stroke-linecap:butt;stroke-linejoin:miter;stroke-opacity:1;display:inline" />
      <path
         d="m 859.88019,753.66799 0.44045,1.391 c -1.01075,1.32793 -17.06828,-0.95332 -18.47399,-3.14298 -0.29111,-0.96061 -0.0941,-1.79364 0.44803,-2.53666 -0.0861,2.3839 16.17049,6.6047 17.58551,4.28864 z"
         id="path4379-2-7-9-5"
         style="fill:#808000;stroke:#808000;stroke-width:0.18239115px;stroke-linecap:butt;stroke-linejoin:miter;stroke-opacity:1;display:inline" />
      <g
         transform="matrix(1.1676862,0.05472323,-0.11195237,0.53449558,972.99003,281.47357)"
         id="g3317-3">
        <path
           d="m -26.056985,780.82262 c -4.614455,-14.13464 -12.991781,8.55123 -0.176195,7.33567 l -1.469673,0.15975 c 7.119349,28.27409 38.089022,27.33556 44.289262,-1.34045 l -1.89509,-0.60366 c 10.12022,4.2462 6.1659,-21.94563 -0.28341,-9.12004 3.626181,-16.22807 -37.444681,-31.85601 -40.464894,3.56873 z"
           id="path3419-2-5-5"
           style="fill:#c87137;stroke:#c87137;stroke-width:0.23468442px;stroke-linecap:butt;stroke-linejoin:miter;stroke-opacity:1;display:inline" />
        <path
           d="m 3.5517295,771.52943 c 1.6356347,-0.83703 2.6482032,-0.0876 3.6857076,0.5986 -0.8814675,-1.19694 -1.6455332,-2.51748 -3.1501225,-3.05812 -0.9961793,1.12079 -0.8650745,1.82666 -0.5355851,2.45952 z"
           id="path4345-2-4-5"
           style="fill:#000000;stroke:#000000;stroke-width:0.23468442px;stroke-linecap:butt;stroke-linejoin:miter;stroke-opacity:1;display:inline" />
        <path
           d="m 3.7129588,791.98566 c -1.44269,1.96586 -8.418404,24.18283 -19.5430538,-1.40195 z"
           id="path3425-7-1-2"
           style="fill:#ffb380;stroke:#a05a2c;stroke-width:0.23468442px;stroke-linecap:butt;stroke-linejoin:miter;stroke-opacity:1;display:inline" />
        <path
           d="m -7.7623152,786.16767 c 1.80667,-3.6112 3.01904,-2.60773 3.658,0.63084 l 0,0"
           id="path3427-7-4-3"
           style="fill:#c87137;stroke:#a05a2c;stroke-width:0.23468442px;stroke-linecap:butt;stroke-linejoin:miter;stroke-opacity:1;display:inline" />
        <path
           d="m 935.65379,434.86154 a 11.743023,20.329321 0 1 1 -23.48605,0 11.743023,20.329321 0 1 1 23.48605,0 z"
           transform="matrix(0.21968078,0,0,0.2775007,-218.3195,657.88782)"
           id="path3429-2-6-6"
           style="opacity:0.84732822;fill:#ffffff;stroke:#ffaaaa;stroke-width:0.18700001;stroke-miterlimit:4;stroke-opacity:0.93277313;stroke-dasharray:none;display:inline" />
        <path
           d="m 931.1081,435.99796 a 4.7982244,11.364216 0 1 1 -9.59645,0 4.7982244,11.364216 0 1 1 9.59645,0 z"
           transform="matrix(0.31232614,0,0,0.27698873,-304.74001,658.04102)"
           id="path3431-9-7-4"
           style="opacity:0.84732822;fill:#008080;stroke:#008080;stroke-width:0.18700001;stroke-miterlimit:4;stroke-opacity:0.93277313;stroke-dasharray:none;display:inline" />
        <path
           d="m 929.59288,438.27081 a 2.0203052,4.0406103 0 1 1 -4.04061,0 2.0203052,4.0406103 0 1 1 4.04061,0 z"
           transform="matrix(0.29564241,0,0,0.27616986,-289.45856,657.98065)"
           id="path3433-3-5-6"
           style="opacity:0.84732822;fill:#000000;stroke:#000000;stroke-width:0.18700001;stroke-miterlimit:4;stroke-opacity:0.93277313;stroke-dasharray:none;display:inline" />
        <path
           d="m 926.56243,431.7048 a 1.2626907,2.5253813 0 1 1 -2.52538,0 1.2626907,2.5253813 0 1 1 2.52538,0 z"
           transform="matrix(0.27524152,0,0,0.27577943,-270.26047,658.31526)"
           id="path3435-6-6-7"
           style="opacity:0.84732822;fill:#ffffff;stroke:#ffffff;stroke-width:0.18700001;stroke-miterlimit:4;stroke-opacity:0.93277313;stroke-dasharray:none;display:inline;filter:url(#filter4271-6-9-9-8)" />
        <path
           d="m 926.56243,431.7048 a 1.2626907,2.5253813 0 1 1 -2.52538,0 1.2626907,2.5253813 0 1 1 2.52538,0 z"
           transform="matrix(0.25181255,0.15544328,-0.07959475,0.25230467,-214.67119,525.6342)"
           id="path3435-0-2-6-0"
           style="opacity:0.84732822;fill:#ffffff;stroke:#ffffff;stroke-width:0.18700001;stroke-miterlimit:4;stroke-opacity:0.93277313;stroke-dasharray:none;display:inline;filter:url(#filter4275-2-7-7-2)" />
        <path
           d="m 935.65379,434.86154 a 11.743023,20.329321 0 1 1 -23.48605,0 11.743023,20.329321 0 1 1 23.48605,0 z"
           transform="matrix(-0.21653152,0,0,0.27751147,204.52045,659.32013)"
           id="path3429-4-8-9-9"
           style="opacity:0.84732822;fill:#ffffff;stroke:#ffaaaa;stroke-width:0.18700001;stroke-miterlimit:4;stroke-opacity:0.93277313;stroke-dasharray:none;display:inline" />
        <path
           d="m 931.1081,435.99796 a 4.7982244,11.364216 0 1 1 -9.59645,0 4.7982244,11.364216 0 1 1 9.59645,0 z"
           transform="matrix(-0.30784877,0,0,0.27699948,289.70201,659.47331)"
           id="path3431-8-3-5-3"
           style="opacity:0.84732822;fill:#008080;stroke:#008080;stroke-width:0.18700001;stroke-miterlimit:4;stroke-opacity:0.93277313;stroke-dasharray:none;display:inline" />
        <path
           d="m 929.59288,438.27081 a 2.0203052,4.0406103 0 1 1 -4.04061,0 2.0203052,4.0406103 0 1 1 4.04061,0 z"
           transform="matrix(-0.29140421,0,0,0.27618057,274.63964,659.41295)"
           id="path3433-8-8-0-0"
           style="opacity:0.84732822;fill:#000000;stroke:#000000;stroke-width:0.18700001;stroke-miterlimit:4;stroke-opacity:0.93277313;stroke-dasharray:none;display:inline" />
        <path
           d="m 926.56243,431.7048 a 1.2626907,2.5253813 0 1 1 -2.52538,0 1.2626907,2.5253813 0 1 1 2.52538,0 z"
           transform="matrix(-0.27129579,0,0,0.27579013,255.71681,659.74762)"
           id="path3435-7-9-4-2"
           style="opacity:0.84732822;fill:#ffffff;stroke:#ffffff;stroke-width:0.18700001;stroke-miterlimit:4;stroke-opacity:0.93277313;stroke-dasharray:none;display:inline;filter:url(#filter4271-4-7-2-7-8)" />
        <path
           d="m 926.56243,431.7048 a 1.2626907,2.5253813 0 1 1 -2.52538,0 1.2626907,2.5253813 0 1 1 2.52538,0 z"
           transform="matrix(-0.24820266,0.15544931,0.07845372,0.25231445,200.92442,527.06139)"
           id="path3435-0-0-1-8-6"
           style="opacity:0.84732822;fill:#ffffff;stroke:#ffffff;stroke-width:0.18700001;stroke-miterlimit:4;stroke-opacity:0.93277313;stroke-dasharray:none;display:inline;filter:url(#filter4275-3-5-5-4-2)" />
        <path
           d="m -18.053709,770.71604 c 1.123707,-0.28907 1.644423,-1.324 3.774324,-0.36852 0.04452,-1.17054 -0.14836,-1.9925 -0.797185,-2.14454 -1.835607,0.10211 -2.321383,1.38174 -2.977139,2.51306 z"
           id="path4343-6-3-5"
           style="fill:#000000;stroke:#000000;stroke-width:0.23468442px;stroke-linecap:butt;stroke-linejoin:miter;stroke-opacity:1;display:inline" />
        <path
           d="m -13.301015,791.09822 c 2.91815,9.52142 13.14189379,6.49506 14.11457379,0.96724 z"
           id="path4347-0-7-2"
           style="fill:#ffffff;stroke:#ffffff;stroke-width:0.23468442px;stroke-linecap:butt;stroke-linejoin:miter;stroke-opacity:1;display:inline" />
        <path
           d="m -10.537204,799.55838 c 5.2774988,6.10941 8.0840428,1.90791 9.80033279,0.18622 -3.69751299,-2.07018 -6.90371399,-1.85008 -9.80033279,-0.18622 z"
           id="path4349-3-1-6"
           style="fill:#ff0000;stroke:#ff0000;stroke-width:0.23468442px;stroke-linecap:butt;stroke-linejoin:miter;stroke-opacity:1;display:inline" />
        <path
           d="m -7.4190552,809.37238 c 1.28838,8.47606 4.276021,3.51565 4.18105,-0.19831 z"
           id="path4351-4-8-6"
           style="fill:#c87137;stroke:#c87137;stroke-width:0.23468442px;stroke-linecap:butt;stroke-linejoin:miter;stroke-opacity:1;display:inline" />
        <path
           d="m -7.1682641,811.23968 -16.5334199,4.46905 2.003806,10.26011 7.478656,0.83364 1.555837,-7.81445 -4.39368,20.02452 c 9.7487198,9.046 18.5380951,5.86177 26.6748951,-1.26243 l -6.5487513,-20.54644 1.62993,5.25398 8.9493602,-8.79402 -3.9521902,-10.54482 -12.9862402,7.73834 1.9081502,-1.0137 c 1.50984999,3.71227 0.2563213,8.78894 -3.088257,8.97266 -4.52139,-0.21637 -4.4330613,-3.09122 -4.957596,-6.82151 z"
           id="path4353-7-0-5"
           style="fill:#00ff00;stroke:#00ff00;stroke-width:0.23468442px;stroke-linecap:butt;stroke-linejoin:miter;stroke-opacity:1;display:inline" />
        <path
           d="m -18.15171,838.49096 c 1.567719,1.94131 4.276868,-26.91637 6.042763,-25.99117 0.263424,0.13802 1.817029,-0.90531 1.877794,0.10503 0.2569682,4.27261 -1.661973,16.10359 6.3551014,15.38134 7.2021493,-0.64884 2.0107286,-14.02887 2.6858123,-18.12763 0.1273955,-0.77348 0.98990434,-1.15318 1.6116501,-1.12323 3.5659054,0.17173 8.8646412,30.89226 9.9787342,29.41095 2.104532,9.80805 3.044242,28.29778 4.749874,36.45696 0,0 -8.5370106,3.70157 -9.2456406,4.09817 -0.70871,0.39651 -7.5887981,-18.88787 -7.5887981,-18.88787 0.065214,-3.40385 -1.2861575,-3.97276 -1.9589433,0.13517 l -8.912498,21.61913 -8.118648,-4.32145 z"
           id="path4355-2-8-9"
           style="fill:#808000;stroke:#808000;stroke-width:0.23468442px;stroke-linecap:butt;stroke-linejoin:miter;stroke-opacity:1;display:inline" />
        <path
           d="m 869.46429,493.83929 c 0.68879,-2.13777 0.46011,-2.98928 4.28696,-5.80184 3.46121,-2.54384 4.12026,1.44074 16.15719,-4.89256 0.71492,-0.37616 1.7774,-1.15506 2.32201,-0.53439 1.71204,1.95115 7.35502,2.42497 10.6722,2.80075 3.17459,0.35962 4.87477,5.14836 6.29378,8.24946 1.42857,-4.02375 2.85714,-2.22445 4.28571,-2.85714 -0.625,-6.36905 -3.52849,-17.37072 -24.01785,-17.85714 -0.1564,-0.94994 9.0704,3.42616 6.55484,2.17349 -0.14501,-3.03571 -4.64428,-1.19135 -7.09056,-2.0842 -30.30139,2.69788 -24.24024,14.69071 -24.30168,20.049 -0.0136,1.18701 0.85404,-2.35742 4.8374,0.75457 z"
           transform="matrix(-1.0254242,0.10498594,0.16226773,1.6924857,826.19554,-150.12911)"
           id="path4334"
           style="fill:#000000;stroke:#000000;stroke-width:1px;stroke-linecap:butt;stroke-linejoin:miter;stroke-opacity:1" />
        <path
           d="m 893.74998,520 a 1.4285715,1.5178572 0 1 1 -2.85714,0 1.4285715,1.5178572 0 1 1 2.85714,0 z"
           transform="matrix(-1.0254242,0.10498594,0.16226773,1.6924857,826.19554,-150.12911)"
           id="path4402"
           style="fill:#808000;fill-opacity:0.97254902;fill-rule:evenodd;stroke:#008000;stroke-width:0.88582677;stroke-linejoin:round;stroke-miterlimit:4;stroke-opacity:1;stroke-dasharray:none;stroke-dashoffset:0" />
      </g>
      <g
         transform="translate(-90.688193,74.785027)"
         id="g3179"
         style="stroke-width:0.6018154;stroke-miterlimit:4;stroke-dasharray:none">
        <path
           d="m 510.7143,86.071426 a 24.642857,2.5 0 1 1 -49.28571,0 24.642857,2.5 0 1 1 49.28571,0 z"
           transform="matrix(-0.5372945,0,0,0.23812025,1430.1897,555.28407)"
           id="path3184"
           style="fill:none;stroke:#000000;stroke-width:1.68251491;stroke-linejoin:round;stroke-miterlimit:4;stroke-opacity:1;stroke-dasharray:none;stroke-dashoffset:0" />
        <path
           d="m 1182.3645,575.71024 -0.1365,3.21558 -25.1241,-0.23447 -1.0924,-2.91412"
           id="path3186"
           style="fill:none;stroke:#000000;stroke-width:0.6018154;stroke-linecap:butt;stroke-linejoin:miter;stroke-miterlimit:4;stroke-opacity:1;stroke-dasharray:none" />
        <path
           d="m 1182.1571,578.81109 7.531,9.80558 -13.7103,2.13165 -31.2826,-14.92153 12.7448,2.74746"
           id="path3188"
           style="fill:none;stroke:#000000;stroke-width:0.6018154;stroke-linecap:butt;stroke-linejoin:miter;stroke-miterlimit:4;stroke-opacity:1;stroke-dasharray:none" />
        <path
           d="m 1144.8883,575.87416 -39.7791,-0.28422 -9.8482,13.26358 80.7168,1.8948 2.1539,27.50133 -83.8381,-2.00973 1.0924,-27.73435"
           id="path3190"
           style="fill:none;stroke:#000000;stroke-width:0.6018154;stroke-linecap:butt;stroke-linejoin:miter;stroke-miterlimit:4;stroke-opacity:1;stroke-dasharray:none" />
        <path
           d="m 1189.7614,588.57256 3.3901,25.92558 -14.953,3.70106 0,0"
           id="path3192"
           style="fill:none;stroke:#000000;stroke-width:0.6018154;stroke-linecap:butt;stroke-linejoin:miter;stroke-miterlimit:4;stroke-opacity:1;stroke-dasharray:none" />
        <path
           d="m 1148.7503,586.93504 -47.6963,-0.52107 9.6552,-8.28974 31.3791,0.18948 z"
           id="path3194"
           style="fill:none;stroke:#000000;stroke-width:0.6018154;stroke-linecap:butt;stroke-linejoin:miter;stroke-miterlimit:4;stroke-opacity:1;stroke-dasharray:none" />
      </g>
      <g
         transform="translate(39.046305,71.149644)"
         id="g3187"
         style="stroke-width:0.6018154;stroke-miterlimit:4;stroke-dasharray:none">
        <path
           d="m 1290.1014,574.97413 -24.7171,0 c -4.8304,2.4828 -9.4139,4.98074 -6.1793,7.95815 -28.4035,4.78734 -10.0563,24.48488 -8.8827,24.34814 l 50.5928,0 c 7.093,-9.79345 14.2487,-19.59945 -5.793,-23.96918 4.3298,-2.77904 3.006,-5.55808 -5.0207,-8.33711 z"
           id="path3196"
           style="fill:none;stroke:#000000;stroke-width:0.6018154;stroke-linecap:butt;stroke-linejoin:miter;stroke-miterlimit:4;stroke-opacity:1;stroke-dasharray:none" />
        <rect
           width="24.330917"
           height="3.4106348"
           x="-1290.0077"
           y="571.52423"
           transform="scale(-1,1)"
           id="rect3103"
           style="fill:none;stroke:#000000;stroke-width:0.6018154;stroke-linejoin:round;stroke-miterlimit:4;stroke-opacity:1;stroke-dasharray:none;stroke-dashoffset:0" />
      </g>
      <g
         transform="translate(-12.595582,141.26061)"
         id="g3191"
         style="stroke-width:0.6018154;stroke-miterlimit:4;stroke-dasharray:none">
        <path
           d="m 1424.8864,584.84809 -21.2595,0.08 -6.1301,2.48134 c 0,0 -1.6361,22.7323 0.1899,22.41213 1.826,-0.32018 33.2888,0.16008 33.2888,0.16008 l 0.4322,-22.0119 z"
           id="path3105"
           style="fill:none;stroke:#000000;stroke-width:0.6018154;stroke-linecap:butt;stroke-linejoin:miter;stroke-miterlimit:4;stroke-opacity:1;stroke-dasharray:none" />
        <rect
           width="21.765211"
           height="5.6599154"
           x="-1424.9886"
           y="579.30469"
           transform="scale(-1,1)"
           id="rect3107"
           style="fill:none;stroke:#000000;stroke-width:0.6018154;stroke-linejoin:round;stroke-miterlimit:4;stroke-opacity:1;stroke-dasharray:none;stroke-dashoffset:0" />
        <rect
           width="16.303314"
           height="3.8220673"
           x="-1422.2126"
           y="575.50305"
           transform="scale(-1,1)"
           id="rect3109"
           style="fill:none;stroke:#000000;stroke-width:0.6018154;stroke-linejoin:round;stroke-miterlimit:4;stroke-opacity:1;stroke-dasharray:none;stroke-dashoffset:0" />
        <path
           d="m -44.067905,203.73399 a 11.364216,16.036171 0 1 1 -22.728432,0 11.364216,16.036171 0 1 1 22.728432,0 z"
           transform="matrix(-0.69676819,0,0,0.15775447,1375.7637,540.68164)"
           id="path3111"
           style="fill:none;stroke:#000000;stroke-width:1.81521595;stroke-linejoin:round;stroke-miterlimit:4;stroke-opacity:1;stroke-dasharray:none;stroke-dashoffset:0" />
        <path
           d="m 1422.3431,575.48302 -0.2609,-4.76257 8.8089,-2.39597 -34.3079,-6.50889 -3.3201,3.90534 0.3689,3.73554 4.4268,1.47158 8.8537,-0.90559 -0.7378,5.43352 0,0"
           id="path3113"
           style="fill:none;stroke:#000000;stroke-width:0.6018154;stroke-linecap:butt;stroke-linejoin:miter;stroke-miterlimit:4;stroke-opacity:1;stroke-dasharray:none" />
        <path
           d="m 1396.2143,561.75898 -12.7271,-0.45278 -0.5534,3.90534 10.3293,0.11319 -7.0091,2.94316 7.0091,1.24519 c -4.8186,2.59566 -8.6077,3.88647 -11.6204,6.1127 l 16.6006,-4.75433"
           id="path3115"
           style="fill:none;stroke:#000000;stroke-width:0.6018154;stroke-linecap:butt;stroke-linejoin:miter;stroke-miterlimit:4;stroke-opacity:1;stroke-dasharray:none" />
      </g>
      <g
         transform="matrix(1,0,0,0.64093917,283.4006,239.59558)"
         id="g3174"
         style="stroke-width:0.75171793;stroke-miterlimit:4;stroke-dasharray:none">
        <path
           d="m 922.82961,588.70883 -37.22273,0 -2.35588,38.56224 c 8.36548,3.13759 26.19162,2.96904 39.57861,0.13243 l -0.23558,-39.33031 -13.66405,-5.28416 0,-1.91977 -10.36582,0.0621 0,2.0182 -13.19287,5.4415 0.23559,0.52971 0,0 -0.10943,1.51107"
           id="path3117"
           style="fill:none;stroke:#000000;stroke-width:0.75171793;stroke-linecap:butt;stroke-linejoin:miter;stroke-miterlimit:4;stroke-opacity:1;stroke-dasharray:none" />
        <rect
           width="8.5791349"
           height="3.221175"
           x="-908.06952"
           y="577.70068"
           transform="scale(-1,1)"
           id="rect3119"
           style="fill:none;stroke:#000000;stroke-width:0.75171793;stroke-linejoin:round;stroke-miterlimit:4;stroke-opacity:1;stroke-dasharray:none;stroke-dashoffset:0" />
        <path
           d="m 872.14284,-23.57143 a 3.5714285,3.9285715 0 1 1 -7.14286,0 3.5714285,3.9285715 0 1 1 7.14286,0 z"
           transform="matrix(-0.46643841,0,0,0.20975093,1308.9567,584.40525)"
           id="path3121"
           style="fill:none;stroke:#000000;stroke-width:2.40328789;stroke-linejoin:round;stroke-miterlimit:4;stroke-opacity:1;stroke-dasharray:none;stroke-dashoffset:0" />
      </g>
      <g
         transform="translate(215.38446,34.276471)"
         id="g3168"
         style="stroke-width:0.6018154;stroke-miterlimit:4;stroke-dasharray:none">
        <path
           d="m 1583.4142,169.26254 a 74.498749,18.940361 0 1 1 -148.9975,0 74.498749,18.940361 0 1 1 148.9975,0 z"
           transform="matrix(-0.57267583,0,0,0.26343355,1867.5005,615.00526)"
           id="path3123"
           style="fill:none;stroke:#000000;stroke-width:1.5494349;stroke-linejoin:round;stroke-miterlimit:4;stroke-opacity:1;stroke-dasharray:none;stroke-dashoffset:0" />
        <path
           d="m 1046.3879,660.00807 -2.6065,30.66364 c -34.693,5.77812 -61.00695,3.84866 -84.85517,-0.34898 l 2.31685,-30.59025"
           id="path3125"
           style="fill:none;stroke:#000000;stroke-width:0.6018154;stroke-linecap:butt;stroke-linejoin:miter;stroke-miterlimit:4;stroke-opacity:1;stroke-dasharray:none" />
        <rect
           width="56.315544"
           height="16.823778"
           x="-1030.8146"
           y="667.46136"
           transform="scale(-1,1)"
           id="rect3127"
           style="fill:none;stroke:#000000;stroke-width:0.6018154;stroke-linejoin:round;stroke-miterlimit:4;stroke-opacity:1;stroke-dasharray:none;stroke-dashoffset:0" />
        <rect
           width="34.813244"
           height="7.664887"
           x="-1019.1418"
           y="672.20319"
           transform="scale(-1,1)"
           id="rect3129"
           style="fill:none;stroke:#000000;stroke-width:0.6018154;stroke-linejoin:round;stroke-miterlimit:4;stroke-opacity:1;stroke-dasharray:none;stroke-dashoffset:0" />
      </g>
      <g
         transform="translate(-104.54333,48.298663)"
         id="g3158"
         style="stroke-width:0.6018154;stroke-miterlimit:4;stroke-dasharray:none">
        <path
           d="m 1201.3994,705.91571 -71.6743,0.51966 -7.7818,-3.44271 24.5741,-19.42204 40.3424,0.38974 24.3692,17.34343 z"
           id="path3131"
           style="fill:none;stroke:#000000;stroke-width:0.6018154;stroke-linecap:butt;stroke-linejoin:miter;stroke-miterlimit:4;stroke-opacity:1;stroke-dasharray:none" />
        <path
           d="m 1129.1107,706.43537 -46.0763,-0.12991 -11.0583,-7.92472 24.574,-12.60159"
           id="path3133"
           style="fill:none;stroke:#000000;stroke-width:0.6018154;stroke-linecap:butt;stroke-linejoin:miter;stroke-miterlimit:4;stroke-opacity:1;stroke-dasharray:none" />
        <path
           d="m 1111.3794,683.71168 35.2228,-0.12992"
           id="path3135"
           style="fill:none;stroke:#000000;stroke-width:0.6018154;stroke-linecap:butt;stroke-linejoin:miter;stroke-miterlimit:4;stroke-opacity:1;stroke-dasharray:none" />
        <path
           d="m 1400.5765,262.57538 a 8.7125654,11.490485 0 1 1 -17.4252,0 8.7125654,11.490485 0 1 1 17.4252,0 z"
           transform="matrix(-0.57339462,0,0,0.18187867,1868.585,630.3711)"
           id="path3137"
           style="fill:none;stroke:#000000;stroke-width:1.8635695;stroke-linejoin:round;stroke-miterlimit:4;stroke-opacity:1;stroke-dasharray:none;stroke-dashoffset:0" />
        <path
           d="m 1070.1357,680.17191 38.5179,8.40543"
           id="path3139"
           style="fill:none;stroke:#000000;stroke-width:0.6018154;stroke-linecap:butt;stroke-linejoin:miter;stroke-miterlimit:4;stroke-opacity:1;stroke-dasharray:none" />
        <path
           d="m 1072.4526,676.12996 44.1652,8.45136 c 5.1958,2.92855 -2.3539,4.38676 -8.109,4.08788"
           id="path3141"
           style="fill:none;stroke:#000000;stroke-width:0.6018154;stroke-linecap:butt;stroke-linejoin:miter;stroke-miterlimit:4;stroke-opacity:1;stroke-dasharray:none" />
        <path
           d="m 1187.1373,683.89235 -22.0102,-8.63509 -38.6626,-0.18372 -15.0596,8.58915"
           id="path3143"
           style="fill:none;stroke:#000000;stroke-width:0.6018154;stroke-linecap:butt;stroke-linejoin:miter;stroke-miterlimit:4;stroke-opacity:1;stroke-dasharray:none" />
        <path
           d="m 1168.7473,681.77951 -44.8893,-0.22966 9.5571,-5.00651 26.4991,0 z"
           id="path3145"
           style="fill:none;stroke:#000000;stroke-width:0.6018154;stroke-linecap:butt;stroke-linejoin:miter;stroke-miterlimit:4;stroke-opacity:1;stroke-dasharray:none" />
      </g>
    </g>
    <g
       transform="matrix(1.462966,0,0,1.2959669,-453.39371,-383.08909)"
       id="g4117">
      <path
         d="m 344.84879,843.5777 8.38703,100.6977 c 1.17553,3.3947 3.97646,3.7696 6.9892,3.7509 l 64.21436,-0.2165 c 0,0 4.36471,0.5137 4.80516,-4.4002 l 9.61042,-99.54358 z"
         id="path4284-2-7-4"
         style="fill:#ffffff;stroke:#000000;stroke-width:1.35099995;stroke-linecap:butt;stroke-linejoin:miter;stroke-miterlimit:4;stroke-opacity:1;stroke-dasharray:none" />
      <path
         d="m 355.50744,808.23258 c -1.46189,0.36422 -3.18652,-0.27592 -5.06716,2.16397 l -15.37665,21.35142 -0.87371,11.39692 10.65898,-0.14517 93.65668,0.86579 11.18288,-0.14518 -1.7473,-13.41682 -15.2019,-21.06293 c -1.0135,-1.75485 -2.97335,-1.55635 -4.89243,-1.44259 l 7.86311,18.46606 -87.89067,0 z"
         id="path4286-9-4-7"
         style="fill:#ffffff;stroke:#000000;stroke-width:1.35099995;stroke-linecap:butt;stroke-linejoin:miter;stroke-miterlimit:4;stroke-opacity:1;stroke-dasharray:none" />
      <path
         d="m 356.38094,807.79977 -1.19322,-40.56365 75.22007,-0.4576 -3.43487,40.15554 z"
         id="path4288-2-42-7"
         style="fill:#ffffff;stroke:#000000;stroke-width:1.35099995;stroke-linecap:butt;stroke-linejoin:miter;stroke-miterlimit:4;stroke-opacity:1;stroke-dasharray:none" />
      <path
         d="m 334.36466,831.17092 113.57639,0"
         id="path4290-7-6-3"
         style="fill:#ffffff;stroke:#000000;stroke-width:1.35099995;stroke-linecap:butt;stroke-linejoin:miter;stroke-miterlimit:4;stroke-opacity:1;stroke-dasharray:none" />
      <rect
         width="62.903759"
         height="30.87295"
         x="360.57474"
         y="862.52222"
         id="rect4292-0-7-5"
         style="fill:#ffffff;fill-opacity:1;stroke:#000000;stroke-width:1.35099995;stroke-miterlimit:4;stroke-opacity:1;stroke-dasharray:none;stroke-dashoffset:0" />
      <g
         transform="matrix(0.31655304,0,0,0.22686316,294.44517,791.45305)"
         id="g4413-1-8-4"
         style="fill:#ffffff;stroke:#000000;stroke-width:2.86586666;stroke-miterlimit:4;stroke-dasharray:none">
        <g
           transform="translate(0.35714286,-0.35714286)"
           id="g4409-69-5-2"
           style="fill:#ffffff;stroke:#000000;stroke-width:2.86586666;stroke-miterlimit:4;stroke-dasharray:none">
          <path
             d="m 255.53571,572.3622 7.85715,11.60714 13.21429,1.42858 23.57142,0.53571 -0.89285,31.78571 c -7.21124,-0.22162 -14.05101,0.11396 -22.14286,-1.42857 -7.41808,-2.99525 -14.66441,-15.26511 -21.60715,-43.92857 z"
             id="path4378-6-9-6"
             style="fill:#ffffff;fill-rule:evenodd;stroke:#000000;stroke-width:2.86586666;stroke-linecap:butt;stroke-linejoin:miter;stroke-miterlimit:4;stroke-opacity:1;stroke-dasharray:none" />
          <path
             d="m 255.52488,572.67787 7.86798,-19.60138 -7.67857,-5.17857 25.35714,-0.35715 8.21429,21.42857 -5.89286,-3.57142 -7.32143,19.82142 -12.68993,-1.6112 -7.76566,-10.9634"
             id="path4380-13-91-8"
             style="fill:#ffffff;fill-rule:evenodd;stroke:#000000;stroke-width:2.86586666;stroke-linecap:butt;stroke-linejoin:miter;stroke-miterlimit:4;stroke-opacity:1;stroke-dasharray:none" />
        </g>
      </g>
      <path
         d="m 384.26711,907.20311 12.71848,-0.3243 c 0.45856,-0.094 2.53522,2.3807 3.33511,3.646 l 1.92204,-0.8099 -3.10911,5.4286 -7.80064,0.042 2.60014,-1.0533 c -1.11304,-1.3451 -1.8783,-2.8946 -2.92717,-4.2741 -0.79216,-1.0409 -1.76298,-1.9676 -3.06474,-2.7343"
         id="path4382-7-6-9"
         style="fill:#ffffff;fill-rule:evenodd;stroke:#000000;stroke-width:0.76800001;stroke-linecap:butt;stroke-linejoin:miter;stroke-miterlimit:4;stroke-opacity:1;stroke-dasharray:none" />
      <path
         d="m 384.15443,907.22441 c 0.17686,0.068 3.75121,-0.051 3.96026,0.085 0.9256,0.6036 2.52442,2.0577 3.16852,3.1735 l -4.1333,4.8657 -6.83957,-3.4433 4.07898,-4.7453"
         id="path4384-2-95-7"
         style="fill:#ffffff;fill-rule:evenodd;stroke:#000000;stroke-width:0.76800001;stroke-linecap:butt;stroke-linejoin:miter;stroke-miterlimit:4;stroke-opacity:1;stroke-dasharray:none" />
      <path
         d="m 400.89957,924.46281 -3.91705,-6.0155 6.71502,-3.2657 3.27782,5.2708 c -0.39185,1.6724 -1.18941,2.7644 -1.99883,3.8385 z"
         id="path4386-6-3-3"
         style="fill:#ffffff;fill-rule:evenodd;stroke:#000000;stroke-width:0.76800001;stroke-linecap:butt;stroke-linejoin:miter;stroke-miterlimit:4;stroke-opacity:1;stroke-dasharray:none" />
      <path
         d="m 400.79472,924.55701 -0.24781,0 -4.80378,0.1274 -0.0424,-1.9193 -3.99712,4.9272 c 1.17246,1.6232 2.7446,3.5042 3.91706,5.1275 l 0.20015,-1.4896 c 2.72903,-0.086 4.2819,-0.1536 5.47606,-0.7445 3.54184,-2.5248 5.81442,-8.0522 5.71572,-10.1119 l -2.11754,3.8957"
         id="path4388-2-7-4"
         style="fill:#ffffff;fill-rule:evenodd;stroke:#000000;stroke-width:0.76800001;stroke-linecap:butt;stroke-linejoin:miter;stroke-miterlimit:4;stroke-opacity:1;stroke-dasharray:none" />
      <text
         x="435.3327"
         y="741.07965"
         transform="scale(0.83886791,1.1920828)"
         id="text6202-2-7-5"
         xml:space="preserve"
         style="font-size:13.04051018px;font-style:normal;font-weight:normal;line-height:125%;letter-spacing:0px;word-spacing:0px;fill:#ffffff;fill-opacity:1;stroke:#000000;stroke-width:0.62599999;stroke-linecap:butt;stroke-linejoin:miter;stroke-miterlimit:4;stroke-opacity:1;stroke-dasharray:none;font-family:sans-serif"><tspan
           x="435.3327"
           y="741.07965"
           id="tspan6204-2-0-2"
           style="fill:#ffffff;stroke:#000000;stroke-width:0.62599999;stroke-miterlimit:4;stroke-dasharray:none">Generales</tspan></text>
    </g>
    <text
       x="109.19852"
       y="303.48444"
       transform="scale(0.78494,1.2739827)"
       id="text3470"
       xml:space="preserve"
       style="font-size:50.95930862px;font-style:normal;font-variant:normal;font-weight:normal;font-stretch:normal;line-height:125%;letter-spacing:0px;word-spacing:0px;fill:#0389ab;fill-opacity:0.97254902;stroke:#0389ab;stroke-width:0.85614377;stroke-opacity:0.97254902;font-family:Salsa;-inkscape-font-specification:Salsa"><tspan
         x="109.19852"
         y="303.48444"
         id="tspan3474"
         style="stroke-width:0.85614377">Camilo trajo algunos objetos del taller de su tío.</tspan></text>
  </g>
</svg>
