<?xml version="1.0" encoding="UTF-8" standalone="no"?>
<!-- Created with Inkscape (http://www.inkscape.org/) -->

<svg
   xmlns:dc="http://purl.org/dc/elements/1.1/"
   xmlns:cc="http://creativecommons.org/ns#"
   xmlns:rdf="http://www.w3.org/1999/02/22-rdf-syntax-ns#"
   xmlns:svg="http://www.w3.org/2000/svg"
   xmlns="http://www.w3.org/2000/svg"
   xmlns:xlink="http://www.w3.org/1999/xlink"
   version="1.2"
   width="990"
   height="765"
   id="svg2">
  <defs
     id="defs4">
    <radialGradient
       cx="385.02646"
       cy="959.69623"
       r="383.86896"
       fx="385.02646"
       fy="959.69623"
       id="radialGradient4512"
       xlink:href="#linearGradient4643-8"
       gradientUnits="userSpaceOnUse"
       gradientTransform="matrix(1,0,0,0.24068037,0,728.71616)" />
    <linearGradient
       id="linearGradient4643-8">
      <stop
         id="stop4645-8"
         style="stop-color:#000000;stop-opacity:1"
         offset="0" />
      <stop
         id="stop4647-3"
         style="stop-color:#000000;stop-opacity:0"
         offset="1" />
    </linearGradient>
    <radialGradient
       cx="385.02646"
       cy="959.69623"
       r="383.86896"
       fx="385.02646"
       fy="959.69623"
       id="radialGradient4162"
       xlink:href="#linearGradient4643-8"
       gradientUnits="userSpaceOnUse"
       gradientTransform="matrix(1,0,0,0.24068037,0,728.71616)" />
    <radialGradient
       cx="385.02646"
       cy="959.69623"
       r="383.86896"
       fx="385.02646"
       fy="959.69623"
       id="radialGradient4160"
       xlink:href="#linearGradient4643-8"
       gradientUnits="userSpaceOnUse"
       gradientTransform="matrix(1,0,0,0.24068037,0,728.71616)" />
    <radialGradient
       cx="385.02646"
       cy="959.69623"
       r="383.86896"
       fx="385.02646"
       fy="959.69623"
       id="radialGradient4158"
       xlink:href="#linearGradient4643-8"
       gradientUnits="userSpaceOnUse"
       gradientTransform="matrix(1,0,0,0.24068037,0,728.71616)" />
    <radialGradient
       cx="385.02646"
       cy="959.69623"
       r="383.86896"
       fx="385.02646"
       fy="959.69623"
       id="radialGradient4156"
       xlink:href="#linearGradient4643-8"
       gradientUnits="userSpaceOnUse"
       gradientTransform="matrix(1,0,0,0.24068037,0,728.71616)" />
    <radialGradient
       cx="385.02646"
       cy="959.69623"
       r="383.86896"
       fx="385.02646"
       fy="959.69623"
       id="radialGradient4154"
       xlink:href="#linearGradient4643-8"
       gradientUnits="userSpaceOnUse"
       gradientTransform="matrix(1,0,0,0.24068037,0,728.71616)" />
    <radialGradient
       cx="385.02646"
       cy="959.69623"
       r="383.86896"
       fx="385.02646"
       fy="959.69623"
       id="radialGradient4152"
       xlink:href="#linearGradient4643-8"
       gradientUnits="userSpaceOnUse"
       gradientTransform="matrix(1,0,0,0.24068037,0,728.71616)" />
    <radialGradient
       cx="385.02646"
       cy="959.69623"
       r="383.86896"
       fx="385.02646"
       fy="959.69623"
       id="radialGradient4150"
       xlink:href="#linearGradient4643-8"
       gradientUnits="userSpaceOnUse"
       gradientTransform="matrix(1,0,0,0.24068037,0,728.71616)" />
    <radialGradient
       cx="385.02646"
       cy="959.69623"
       r="383.86896"
       fx="385.02646"
       fy="959.69623"
       id="radialGradient4148"
       xlink:href="#linearGradient4643-8"
       gradientUnits="userSpaceOnUse"
       gradientTransform="matrix(1,0,0,0.24068037,0,728.71616)" />
    <radialGradient
       cx="385.02646"
       cy="959.69623"
       r="383.86896"
       fx="385.02646"
       fy="959.69623"
       id="radialGradient4146"
       xlink:href="#linearGradient4643-8"
       gradientUnits="userSpaceOnUse"
       gradientTransform="matrix(1,0,0,0.24068037,0,728.71616)" />
    <radialGradient
       cx="385.02646"
       cy="959.69623"
       r="383.86896"
       fx="385.02646"
       fy="959.69623"
       id="radialGradient4144"
       xlink:href="#linearGradient4643-8"
       gradientUnits="userSpaceOnUse"
       gradientTransform="matrix(1,0,0,0.24068037,0,728.71616)" />
    <radialGradient
       cx="385.02646"
       cy="959.69623"
       r="383.86896"
       fx="385.02646"
       fy="959.69623"
       id="radialGradient4142"
       xlink:href="#linearGradient4643-8"
       gradientUnits="userSpaceOnUse"
       gradientTransform="matrix(1,0,0,0.24068037,0,728.71616)" />
    <radialGradient
       cx="385.02646"
       cy="959.69623"
       r="383.86896"
       fx="385.02646"
       fy="959.69623"
       id="radialGradient4140"
       xlink:href="#linearGradient4643-8"
       gradientUnits="userSpaceOnUse"
       gradientTransform="matrix(1,0,0,0.24068037,0,728.71616)" />
    <radialGradient
       cx="385.02646"
       cy="959.69623"
       r="383.86896"
       fx="385.02646"
       fy="959.69623"
       id="radialGradient4128"
       xlink:href="#linearGradient4643-8"
       gradientUnits="userSpaceOnUse"
       gradientTransform="matrix(1,0,0,0.24068037,0,728.71616)" />
    <radialGradient
       cx="385.02646"
       cy="959.69623"
       r="383.86896"
       fx="385.02646"
       fy="959.69623"
       id="radialGradient4138"
       xlink:href="#linearGradient4643-8"
       gradientUnits="userSpaceOnUse"
       gradientTransform="matrix(1,0,0,0.24068037,0,728.71616)" />
    <radialGradient
       cx="385.02646"
       cy="959.69623"
       r="383.86896"
       fx="385.02646"
       fy="959.69623"
       id="radialGradient4136"
       xlink:href="#linearGradient4643-8"
       gradientUnits="userSpaceOnUse"
       gradientTransform="matrix(1,0,0,0.24068037,0,728.71616)" />
    <radialGradient
       cx="385.02646"
       cy="959.69623"
       r="383.86896"
       fx="385.02646"
       fy="959.69623"
       id="radialGradient4132"
       xlink:href="#linearGradient4643-8"
       gradientUnits="userSpaceOnUse"
       gradientTransform="matrix(1,0,0,0.24068037,0,728.71616)" />
    <radialGradient
       cx="385.02646"
       cy="959.69623"
       r="383.86896"
       fx="385.02646"
       fy="959.69623"
       id="radialGradient4130"
       xlink:href="#linearGradient4643-8"
       gradientUnits="userSpaceOnUse"
       gradientTransform="matrix(1,0,0,0.24068037,0,728.71616)" />
    <radialGradient
       cx="385.02646"
       cy="959.69623"
       r="383.86896"
       fx="385.02646"
       fy="959.69623"
       id="radialGradient4134"
       xlink:href="#linearGradient4643-8"
       gradientUnits="userSpaceOnUse"
       gradientTransform="matrix(1,0,0,0.24068037,0,728.71616)" />
    <radialGradient
       cx="385.02646"
       cy="959.69623"
       r="383.86896"
       fx="385.02646"
       fy="959.69623"
       id="radialGradient3611"
       xlink:href="#linearGradient4643-8"
       gradientUnits="userSpaceOnUse"
       gradientTransform="matrix(1,0,0,0.24068037,0,728.71616)" />
  </defs>
  <metadata
     id="metadata7">
    <rdf:RDF>
      <cc:Work
         rdf:about="">
        <dc:format>image/svg+xml</dc:format>
        <dc:type
           rdf:resource="http://purl.org/dc/dcmitype/StillImage" />
        <dc:title></dc:title>
      </cc:Work>
    </rdf:RDF>
  </metadata>
  <g
     transform="translate(0,-287.36218)"
     id="layer1">
    <g
       transform="translate(32.79508,-77.640244)"
       id="layer1-9">
      <g
         transform="translate(-25.714286,-2.8571429)"
         id="g5483">
        <g
           transform="matrix(1.3009104,0,0,1.0222836,-10.822862,60.349302)"
           id="g6126">
          <g
             id="g8609"
             style="stroke:url(#radialGradient3611);stroke-width:1.00030446;stroke-miterlimit:4;stroke-dasharray:none">
            <g
               id="g7856"
               style="fill:#0389ab;fill-opacity:0.97254902;stroke:url(#radialGradient4162);stroke-width:1.00030446;stroke-miterlimit:4;stroke-dasharray:none">
              <g
                 id="g10490"
                 style="fill:#0389ab;fill-opacity:0.97254902;stroke:url(#radialGradient4160);stroke-width:1.00030446;stroke-miterlimit:4;stroke-dasharray:none">
                <g
                   id="g10404"
                   style="fill:#0389ab;fill-opacity:0.97254902;stroke:url(#radialGradient4158);stroke-width:1.00030446;stroke-miterlimit:4;stroke-dasharray:none">
                  <g
                     id="g10319"
                     style="fill:#0389ab;fill-opacity:0.97254902;stroke:url(#radialGradient4156);stroke-width:1.00030446;stroke-miterlimit:4;stroke-dasharray:none">
                    <g
                       id="g10235"
                       style="fill:#0389ab;fill-opacity:0.97254902;stroke:url(#radialGradient4154);stroke-width:1.00030446;stroke-miterlimit:4;stroke-dasharray:none">
                      <g
                         id="g7606"
                         style="fill:#0389ab;fill-opacity:0.97254902;stroke:url(#radialGradient4152);stroke-width:1.00030446;stroke-miterlimit:4;stroke-dasharray:none">
                        <g
                           id="g7357"
                           style="fill:#0389ab;fill-opacity:0.97254902;stroke:url(#radialGradient4150);stroke-width:1.00030446;stroke-miterlimit:4;stroke-dasharray:none">
                          <g
                             id="g7109"
                             style="fill:#0389ab;fill-opacity:0.97254902;stroke:url(#radialGradient4148);stroke-width:1.00030446;stroke-miterlimit:4;stroke-dasharray:none">
                            <g
                               id="g6862"
                               style="fill:#0389ab;fill-opacity:0.97254902;stroke:url(#radialGradient4146);stroke-width:1.00030446;stroke-miterlimit:4;stroke-dasharray:none">
                              <g
                                 id="g6616"
                                 style="fill:#0389ab;fill-opacity:0.97254902;stroke:url(#radialGradient4144);stroke-width:1.00030446;stroke-miterlimit:4;stroke-dasharray:none">
                                <g
                                   transform="translate(1.0101525,-3.5355336)"
                                   id="g6371"
                                   style="fill:#0389ab;fill-opacity:0.97254902;stroke:url(#radialGradient4142);stroke-width:1.00030446;stroke-miterlimit:4;stroke-dasharray:none">
                                <g
                                   transform="translate(881.42857,-71.912666)"
                                   id="layer1-6"
                                   style="fill:#0389ab;fill-opacity:0.97254902;stroke:url(#radialGradient4140);stroke-width:1.00030446;stroke-miterlimit:4;stroke-dasharray:none">
                                <rect
                                   width="762.74677"
                                   height="179.78831"
                                   x="-878.78564"
                                   y="945.25024"
                                   id="rect5030-3"
                                   style="fill:#0389ab;fill-opacity:0.97254902;stroke:url(#radialGradient4128);stroke-width:1.00030446;stroke-linejoin:bevel;stroke-miterlimit:4;stroke-opacity:0.97254902;stroke-dasharray:none;stroke-dashoffset:0" />
                                <g
                                   transform="matrix(1.0689865,0,0,0.66580617,-980.89542,170.4301)"
                                   id="g4399-0"
                                   style="fill:#0389ab;fill-opacity:0.97254902;stroke:url(#radialGradient4138);stroke-width:1.18569279;stroke-miterlimit:4;stroke-dasharray:none">
                                <flowRoot
                                   id="flowRoot10600"
                                   xml:space="preserve"
                                   style="font-size:40px;font-style:normal;font-weight:normal;line-height:125%;letter-spacing:0px;word-spacing:0px;fill:#0389ab;fill-opacity:0.97254902;stroke:url(#radialGradient4136);stroke-width:1.18569279;stroke-miterlimit:4;stroke-dasharray:none;font-family:sans-serif"><flowRegion
                                   id="flowRegion10602"
                                   style="stroke:url(#radialGradient4132)"><rect
                                   width="802.0611"
                                   height="733.37073"
                                   x="963.68555"
                                   y="78.842407"
                                   id="rect10604"
                                   style="fill:#0389ab;fill-opacity:0.97254902;stroke:url(#radialGradient4130);stroke-width:1.18569279;stroke-miterlimit:4;stroke-dasharray:none" /></flowRegion><flowPara
                                   id="flowPara10606"
                                   style="fill:#0389ab;fill-opacity:0.97254902;stroke:url(#radialGradient4134);stroke-width:1.18569279;stroke-miterlimit:4;stroke-dasharray:none" /></flowRoot>                                </g>
                                </g>
                                </g>
                              </g>
                            </g>
                          </g>
                        </g>
                      </g>
                    </g>
                  </g>
                </g>
              </g>
            </g>
          </g>
        </g>
        <g
           transform="matrix(1.5852332,0,0,-1.2500112,1494.208,1459.4422)"
           id="g19580">
          <g
             id="g19665">
            <g
               transform="matrix(1.0204562,0,0,1.0245046,-8.4430993,-2.8880453)"
               id="g11178">
              <flowRoot
                 transform="matrix(0.8,0,0,-0.8,-906.138,1047.2742)"
                 id="flowRoot13594"
                 xml:space="preserve"
                 style="font-size:40px;font-style:normal;font-weight:normal;line-height:125%;letter-spacing:0px;word-spacing:0px;fill:#000000;fill-opacity:1;stroke:none;font-family:sans-serif"><flowRegion
                   id="flowRegion13596"><rect
                     width="565.68542"
                     height="153.54318"
                     x="1200.0613"
                     y="1228.396"
                     id="rect13598" /></flowRegion><flowPara
                   id="flowPara13600" /></flowRoot>              <text
                 x="-704.57294"
                 y="-333.48074"
                 transform="scale(1.0563007,-0.94670012)"
                 id="text11186-9"
                 style="font-size:18.90077972px;font-variant:normal;font-weight:normal;writing-mode:lr-tb;fill:#f9f9f9;fill-opacity:1;fill-rule:nonzero;stroke:none;font-family:DejaVu Sans;-inkscape-font-specification:DejaVuSans">
                <tspan
                   x="-704.57294 -699.33746 -687.77014 -680.36108 -668.37799 -663.14246 -651.17822 -639.66766 -627.68457 -615.70148 -608.29236 -596.6684 -585.15784 -566.69177 -547.79102 -535.80792 -517.39856 -505.83127 -500.59579 -495.41696 -489.42538 -479.04886 -467.55722"
                   y="-333.48074"
                   id="tspan11188-9">jardinappteam@gmail.com</tspan>
              </text>
              <text
                 x="-619.02203"
                 y="-337.40643"
                 transform="scale(1.1455712,-0.87292697)"
                 id="text11190-6"
                 style="font-size:11.86411572px;font-variant:normal;font-weight:normal;writing-mode:lr-tb;fill:#f9f9f9;fill-opacity:1;fill-rule:nonzero;stroke:#f9f9f9;font-family:DejaVu Sans;-inkscape-font-specification:DejaVuSans">
                <tspan
                   x="-619.02203 -613.80182 -606.55286 -599.03101 -591.78204 -585.64832 -581.88739 -578.60101 -571.38763 -565.21832 -561.45734 -553.93555 -546.67468 -542.03583 -534.73938 -528.22601 -520.716 -513.46704 -507.33322 -503.57236 -498.93344 -491.63705 -485.46768 -478.17123 -473.29514 -466.319 -459.0582 -451.53629 -444.28732 -438.15359"
                   y="-337.40643"
                   id="tspan11192-9">Todos los derechos reservados.</tspan>
              </text>
            </g>
            <text
               x="-507.3082"
               y="-510.28653"
               transform="scale(1.441077,-0.69392547)"
               id="text4065"
               xml:space="preserve"
               style="font-size:38.90134048px;font-style:normal;font-variant:normal;font-weight:500;font-stretch:normal;line-height:125%;letter-spacing:0px;word-spacing:0px;fill:#ffffff;fill-opacity:1;stroke:none;font-family:Animated;-inkscape-font-specification:Animated Medium"><tspan
                 x="-507.3082"
                 y="-510.28653"
                 id="tspan4067">JardinApp</tspan></text>
          </g>
        </g>
        <text
           x="7.2627115"
           y="583.2193"
           transform="scale(1.4098977,0.70927134)"
           id="text4145"
           xml:space="preserve"
           style="font-size:39.27353287px;font-style:normal;font-variant:normal;font-weight:normal;font-stretch:normal;line-height:125%;letter-spacing:0px;word-spacing:0px;fill:#0389ab;fill-opacity:0.97254902;stroke:#0389ab;stroke-width:0.93507618;stroke-miterlimit:4;stroke-opacity:0.97254902;stroke-dasharray:none;font-family:Salsa;-inkscape-font-specification:Salsa"><tspan
             x="7.2627115"
             y="583.2193"
             id="tspan7576"
             style="stroke-width:0.93507618;stroke-miterlimit:4;stroke-dasharray:none">Diviertete y señala cada color de los</tspan><tspan
             x="7.2627115"
             y="632.31122"
             id="tspan4603"
             style="stroke-width:0.93507618;stroke-miterlimit:4;stroke-dasharray:none">recipentes de reciclaje con el niño que</tspan><tspan
             x="7.2627115"
             y="681.40314"
             id="tspan4605"
             style="stroke-width:0.93507618;stroke-miterlimit:4;stroke-dasharray:none">le corresponde.</tspan></text>
        <text
           x="459.16095"
           y="1038.9415"
           transform="scale(1.7975972,0.55629814)"
           id="text4541"
           xml:space="preserve"
           style="font-size:26.64615822px;font-style:normal;font-variant:normal;font-weight:normal;font-stretch:normal;line-height:125%;letter-spacing:0px;word-spacing:0px;fill:#0389ab;fill-opacity:0.97254902;stroke:#0389ab;stroke-width:0.66615397;stroke-opacity:0.97254902;font-family:Abyssinica SIL;-inkscape-font-specification:Abyssinica SIL"><tspan
             x="459.16095"
             y="1038.9415"
             id="tspan4543"
             style="stroke-width:0.66615397">Metal.</tspan></text>
        <text
           x="612.69702"
           y="888.47015"
           transform="scale(1.3459259,0.74298297)"
           id="text4545"
           xml:space="preserve"
           style="font-size:27.70923805px;font-style:normal;font-variant:normal;font-weight:normal;font-stretch:normal;line-height:125%;letter-spacing:0px;word-spacing:0px;fill:#0389ab;fill-opacity:0.97254902;stroke:#0389ab;stroke-width:0.69273096;stroke-opacity:0.97254902;font-family:Abyssinica SIL;-inkscape-font-specification:Abyssinica SIL"><tspan
             x="612.69702"
             y="888.47015"
             id="tspan4547"
             style="stroke-width:0.69273096">Vidrio.</tspan></text>
        <text
           x="882.8457"
           y="675.07965"
           transform="scale(0.92181721,1.0848138)"
           id="text4549"
           xml:space="preserve"
           style="font-size:25.8335743px;font-style:normal;font-variant:normal;font-weight:normal;font-stretch:normal;line-height:125%;letter-spacing:0px;word-spacing:0px;fill:#0389ab;fill-opacity:0.97254902;stroke:#0389ab;stroke-width:0.64583933;stroke-opacity:0.97254902;font-family:Abyssinica SIL;-inkscape-font-specification:Abyssinica SIL"><tspan
             x="882.8457"
             y="675.07965"
             id="tspan4551"
             style="stroke-width:0.64583933">Papel y cartón.</tspan></text>
        <text
           x="566.96771"
           y="1200.1609"
           transform="scale(1.458469,0.6856505)"
           id="text4553"
           xml:space="preserve"
           style="font-size:25.67737198px;font-style:normal;font-variant:normal;font-weight:normal;font-stretch:normal;line-height:125%;letter-spacing:0px;word-spacing:0px;fill:#0389ab;fill-opacity:0.97254902;stroke:#0389ab;stroke-width:0.64193428;stroke-opacity:0.97254902;font-family:Abyssinica SIL;-inkscape-font-specification:Abyssinica SIL"><tspan
             x="566.96771"
             y="1200.1609"
             id="tspan4555"
             style="stroke-width:0.64193428">Plástico.</tspan></text>
        <g
           transform="matrix(1.0032654,0,0,0.35241902,-584.29487,675.44365)"
           id="g4100">
          <path
             d="m 640.37445,579.48994 8.38703,100.69776 c 1.17553,3.3946 3.97646,3.7695 6.9892,3.7509 l 64.21436,-0.2165 c 0,0 4.36471,0.5136 4.80516,-4.4002 l 9.61042,-99.54364 z"
             id="path4284-2-2-2"
             style="fill:none;stroke:#552200;stroke-width:2.85141945;stroke-linecap:butt;stroke-linejoin:miter;stroke-miterlimit:4;stroke-opacity:1;stroke-dasharray:none" />
          <path
             d="m 651.0331,544.14482 c -1.46189,0.36422 -3.18652,-0.27592 -5.06716,2.16397 l -15.37665,21.35142 -0.87371,11.39692 10.65898,-0.14517 93.65668,0.86579 11.18288,-0.14518 -1.7473,-13.41682 -15.2019,-21.06293 c -1.0135,-1.75485 -2.97335,-1.55635 -4.89243,-1.44259 l 7.86311,18.46606 -87.89067,0 z"
             id="path4286-9-5-3"
             style="fill:none;stroke:#552200;stroke-width:2.85114646;stroke-linecap:butt;stroke-linejoin:miter;stroke-miterlimit:4;stroke-opacity:1;stroke-dasharray:none" />
          <path
             d="m 651.9066,543.71201 -1.19322,-40.56365 75.22007,-0.4576 -3.43487,40.15554 z"
             id="path4288-2-4-5"
             style="fill:none;stroke:#552200;stroke-width:2.85141945;stroke-linecap:butt;stroke-linejoin:miter;stroke-miterlimit:4;stroke-opacity:1;stroke-dasharray:none" />
          <path
             d="m 629.89032,567.08316 113.57639,0"
             id="path4290-7-3-7"
             style="fill:none;stroke:#552200;stroke-width:2.85141945;stroke-linecap:butt;stroke-linejoin:miter;stroke-miterlimit:4;stroke-opacity:1;stroke-dasharray:none" />
          <rect
             width="62.903759"
             height="30.87295"
             x="656.1004"
             y="598.43439"
             id="rect4292-0-5-7"
             style="fill:#ffffff;fill-opacity:1;stroke:#552200;stroke-width:2.85114646;stroke-miterlimit:4;stroke-opacity:1;stroke-dasharray:none;stroke-dashoffset:0" />
          <g
             transform="matrix(0.31655304,0,0,0.22686316,590.47591,523.82976)"
             id="g4413-1-3-0"
             style="fill:#784421;stroke:#a05a2c">
            <g
               transform="translate(0.35714286,-0.35714286)"
               id="g4409-69-4-6"
               style="fill:#784421;stroke:#a05a2c">
              <path
                 d="m 255.53571,572.3622 7.85715,11.60714 13.21429,1.42858 23.57142,0.53571 -0.89285,31.78571 c -7.21124,-0.22162 -14.05101,0.11396 -22.14286,-1.42857 -7.41808,-2.99525 -14.66441,-15.26511 -21.60715,-43.92857 z"
                 id="path4378-6-2-8"
                 style="fill:#784421;fill-rule:evenodd;stroke:#a05a2c;stroke-width:1px;stroke-linecap:butt;stroke-linejoin:miter;stroke-opacity:1" />
              <path
                 d="m 255.52488,572.67787 7.86798,-19.60138 -7.67857,-5.17857 25.35714,-0.35715 8.21429,21.42857 -5.89286,-3.57142 -7.32143,19.82142 -12.68993,-1.6112 -7.76566,-10.9634"
                 id="path4380-13-9-9"
                 style="fill:#784421;fill-rule:evenodd;stroke:#a05a2c;stroke-width:1px;stroke-linecap:butt;stroke-linejoin:miter;stroke-opacity:1" />
            </g>
          </g>
          <path
             d="m 680.29784,639.5798 12.71848,-0.3243 c 0.45856,-0.094 2.53522,2.3807 3.33511,3.646 l 1.92204,-0.8099 -3.10911,5.4286 -7.80064,0.042 2.60014,-1.0533 c -1.11304,-1.345 -1.8783,-2.8946 -2.92717,-4.274 -0.79216,-1.041 -1.76298,-1.9676 -3.06474,-2.7344"
             id="path4382-7-1-0"
             style="fill:#784421;fill-rule:evenodd;stroke:#a05a2c;stroke-width:0.26798177px;stroke-linecap:butt;stroke-linejoin:miter;stroke-opacity:1" />
          <path
             d="m 680.18516,639.6011 c 0.17686,0.068 3.75121,-0.051 3.96026,0.085 0.9256,0.6036 2.52442,2.0577 3.16852,3.1735 l -4.1333,4.8657 -6.83957,-3.4433 4.07898,-4.7453"
             id="path4384-2-9-5"
             style="fill:#784421;fill-rule:evenodd;stroke:#a05a2c;stroke-width:0.26798177px;stroke-linecap:butt;stroke-linejoin:miter;stroke-opacity:1" />
          <path
             d="m 696.9303,656.8395 -3.91705,-6.0155 6.71502,-3.2657 3.27782,5.2708 c -0.39185,1.6724 -1.18941,2.7644 -1.99883,3.8385 z"
             id="path4386-6-1-5"
             style="fill:#784421;fill-rule:evenodd;stroke:#a05a2c;stroke-width:0.26798177px;stroke-linecap:butt;stroke-linejoin:miter;stroke-opacity:1" />
          <path
             d="m 696.82545,656.9338 -0.24781,0 -4.80378,0.1273 -0.0424,-1.9193 -3.99712,4.9272 c 1.17246,1.6232 2.7446,3.5042 3.91706,5.1275 l 0.20015,-1.4895 c 2.72903,-0.086 4.2819,-0.1537 5.47606,-0.7446 3.54184,-2.5248 5.81442,-8.0522 5.71572,-10.1119 l -2.11754,3.8957"
             id="path4388-2-5-7"
             style="fill:#784421;fill-rule:evenodd;stroke:#a05a2c;stroke-width:0.26798177px;stroke-linecap:butt;stroke-linejoin:miter;stroke-opacity:1" />
          <text
             x="792.31946"
             y="517.42657"
             transform="scale(0.83886791,1.1920828)"
             id="text6202-2-6-2"
             xml:space="preserve"
             style="font-size:13.04051018px;font-style:normal;font-weight:normal;line-height:125%;letter-spacing:0px;word-spacing:0px;fill:#784421;fill-opacity:1;stroke:#a05a2c;stroke-width:0.3260127px;stroke-linecap:butt;stroke-linejoin:miter;stroke-opacity:1;font-family:sans-serif"><tspan
               x="792.31946"
               y="517.42657"
               id="tspan6204-2-5-1"
               style="fill:#784421;stroke:#a05a2c;stroke-width:0.3260127px">Orgánico</tspan></text>
        </g>
        <g
           transform="matrix(0.57949436,0,0,0.33654724,609.3698,583.55678)"
           id="g6097-0"
           style="stroke-width:1.88184714;stroke-miterlimit:4;stroke-dasharray:none">
          <path
             d="m 2113.2391,-115.85302 a 30.304577,6.0609155 0 1 1 -60.6091,0 30.304577,6.0609155 0 1 1 60.6091,0 z"
             transform="matrix(0.31482254,0,0,0.25426671,-181.74421,517.63036)"
             id="path6025-8"
             style="fill:none;stroke:#000000;stroke-width:6.65130234;stroke-linejoin:round;stroke-miterlimit:4;stroke-opacity:0.97254902;stroke-dasharray:none;stroke-dashoffset:0" />
          <path
             d="m 464.33828,488.20395 1.4038,32.84541 c -4.6865,7.6424 -11.5766,11.7806 -14.6289,18.2362 l -0.636,83.7325 c 6.2728,16.1422 48.5841,9.5604 45.7947,-0.2568 l 0.636,-82.7051 c -1.4631,-4.5264 -9.3285,-12.5 -13.9928,-18.75 l 0.636,-32.87653 0,6.1332 -19.0811,0.0312 z"
             id="path6027-9"
             style="fill:none;stroke:#000000;stroke-width:1.88184714;stroke-linecap:butt;stroke-linejoin:miter;stroke-miterlimit:4;stroke-opacity:1;stroke-dasharray:none" />
          <rect
             width="40.070366"
             height="51.754902"
             x="453.97534"
             y="552.89844"
             id="rect6029-8"
             style="fill:none;stroke:#000000;stroke-width:1.88184714;stroke-linejoin:round;stroke-miterlimit:4;stroke-opacity:0.97254902;stroke-dasharray:none;stroke-dashoffset:0" />
        </g>
        <g
           transform="matrix(0.10714453,0,0,0.09556867,965.94208,803.91371)"
           id="g3281"
           style="stroke-width:9.10414886;stroke-miterlimit:4;stroke-dasharray:none">
          <path
             d="m -1074.8023,425.58875 c 1.0804,-11.23508 -17.1263,-30.73603 18.119,-27.32904 70.79584,80.49775 133.28695,-22.30396 198.40987,-155.636 17.54681,-35.92517 59.95166,0.98232 84.49659,-23.10608 17.62175,-17.76169 13.93994,-34.83355 10.10152,-68.69037 l 48.48732,12.12183 -34.34518,70.71067 c 28.54649,-13.31951 57.54238,-9.79674 66.25438,21.75254 21.47597,77.77227 4.90869,240.63761 176.18223,119.66883 7.17227,-1.72938 4.76078,10.32122 2.86688,14.43562 -112.98712,245.4585 -190.03358,106.45151 -251.36441,30.01108 -9.37681,66.69836 55.59037,245.4731 -155.56349,236.3757 80.0976,-109.31638 71.86795,-208.81862 107.07617,-313.14729 -85.3361,37.3668 -86.01969,291.3111 -270.72088,82.83251 z"
             transform="translate(0,287.36218)"
             id="path3207"
             style="fill:none;stroke:#000000;stroke-width:9.10414886;stroke-linecap:butt;stroke-linejoin:miter;stroke-miterlimit:4;stroke-opacity:1;stroke-dasharray:none" />
          <path
             d="m -854.28573,359.28571 c -19.82963,-1.38859 -25.79575,22.07349 -27.14286,37.14285 -1.25148,13.99957 -27.14286,-16.62942 -27.14286,-37.14285 0,-20.51344 12.15228,-37.14286 27.14286,-37.14286 14.99059,0 48.88451,38.66534 27.14286,37.14286 z"
             transform="matrix(0.55921344,-0.26373215,0,0.63658478,-362.0933,165.47101)"
             id="path3209"
             style="fill:none;stroke:#000000;stroke-width:15.25887203;stroke-linejoin:round;stroke-miterlimit:4;stroke-opacity:1;stroke-dasharray:none;stroke-dashoffset:0" />
          <path
             d="m -913.36322,714.62766 c -11.089,4.34576 -14.42533,20.85482 -15.17866,30.80302 -0.69984,9.24197 -24.78631,-7.64202 -15.17865,-16.48613 12.21938,-11.24826 12.16794,-26.05364 15.17865,-30.80302 4.96235,-7.82809 27.33688,11.72135 15.17866,16.48613 z"
             id="path3209-1"
             style="fill:none;stroke:#000000;stroke-width:9.10414886;stroke-linejoin:round;stroke-miterlimit:4;stroke-opacity:1;stroke-dasharray:none;stroke-dashoffset:0" />
          <path
             d="m -693.57143,324.64287 c 0,16.3713 -11.17185,-13.92857 -21.42857,-13.92857 -10.25672,0 -32.85714,-38.98585 -32.85714,-55.35715 0,-16.3713 22.60042,-3.92856 32.85714,-3.92856 10.25672,0 21.42857,56.84298 21.42857,73.21428 z"
             transform="translate(0,287.36218)"
             id="path3230"
             style="fill:none;stroke:#000000;stroke-width:9.10414886;stroke-linejoin:round;stroke-miterlimit:4;stroke-opacity:1;stroke-dasharray:none;stroke-dashoffset:0" />
          <path
             d="m -769.99999,408.92858 c 0,22.68313 -17.18491,78.21429 -24.28572,78.21429 -7.1008,0 -1.42857,-19.81687 -1.42857,-42.5 0,-22.68312 -5.67223,-39.64286 1.42857,-39.64286 7.10081,0 24.28572,-18.75455 24.28572,3.92857 z"
             transform="translate(0,287.36218)"
             id="path3233"
             style="fill:none;stroke:#000000;stroke-width:9.10414886;stroke-linejoin:round;stroke-miterlimit:4;stroke-opacity:1;stroke-dasharray:none;stroke-dashoffset:0" />
          <path
             d="m -715.87355,730.7117 c 0,-15.08403 28.83516,-52.01162 40.74987,-52.01162 11.91467,0 2.39703,13.17799 2.39703,28.26203 0,15.08401 9.51764,26.36203 -2.39703,26.36203 -11.91471,0 -40.74987,12.47158 -40.74987,-2.61244 z"
             id="path3233-3"
             style="fill:none;stroke:#000000;stroke-width:9.10414886;stroke-linejoin:round;stroke-miterlimit:4;stroke-opacity:1;stroke-dasharray:none;stroke-dashoffset:0" />
          <path
             d="m -801.68052,850.82645 c -11.089,4.34576 -14.42533,20.85482 -15.17866,30.80302 -0.69984,9.24197 -24.78631,-7.64202 -15.17865,-16.48613 12.21938,-11.24826 12.16794,-26.05364 15.17865,-30.80302 4.96235,-7.82809 27.33688,11.72135 15.17866,16.48613 z"
             id="path3209-1-6"
             style="fill:none;stroke:#000000;stroke-width:9.10414886;stroke-linejoin:round;stroke-miterlimit:4;stroke-opacity:1;stroke-dasharray:none;stroke-dashoffset:0" />
          <path
             d="m -569.34545,732.6386 c -11.089,4.34576 -14.42533,20.85482 -15.17866,30.80302 -0.69984,9.24197 -24.7863,-7.64202 -15.17864,-16.48613 12.21937,-11.24826 12.16793,-26.05364 15.17864,-30.80302 4.96235,-7.82809 27.33688,11.72135 15.17866,16.48613 z"
             id="path3209-1-1"
             style="fill:none;stroke:#000000;stroke-width:9.10414886;stroke-linejoin:round;stroke-miterlimit:4;stroke-opacity:1;stroke-dasharray:none;stroke-dashoffset:0" />
        </g>
        <g
           transform="translate(-212.85714,-298.57143)"
           id="g3462">
          <path
             d="m 405.71428,912.85712 a 41.07143,62.857143 0 1 1 -82.14286,0 41.07143,62.857143 0 1 1 82.14286,0 z"
             transform="matrix(0.1302864,0,0,0.24083812,1026.1961,616.32469)"
             id="path4655"
             style="fill:none;stroke:#000000;stroke-width:5.20079803;stroke-linejoin:round;stroke-miterlimit:4;stroke-opacity:0.94901961;stroke-dasharray:none;stroke-dashoffset:0" />
          <path
             d="m 405.71428,912.85712 a 41.07143,62.857143 0 1 1 -82.14286,0 41.07143,62.857143 0 1 1 82.14286,0 z"
             transform="matrix(0.06960039,0,0,0.16264762,1048.2826,687.87359)"
             id="path4655-9"
             style="fill:none;stroke:#000000;stroke-width:8.65869522;stroke-linejoin:round;stroke-miterlimit:4;stroke-opacity:0.94901961;stroke-dasharray:none;stroke-dashoffset:0" />
          <rect
             width="36.687675"
             height="6.0246129"
             x="1078.891"
             y="831.52789"
             id="rect4675"
             style="fill:none;stroke:#000000;stroke-width:0.92125982;stroke-linejoin:round;stroke-miterlimit:4;stroke-opacity:0.94901961;stroke-dasharray:none;stroke-dashoffset:0" />
          <path
             d="m 429.28572,898.57141 a 8.5714283,33.57143 0 1 1 -17.14285,0 8.5714283,33.57143 0 1 1 17.14285,0 z"
             transform="matrix(0.09986011,0,0,0.21098344,1038.8182,645.90329)"
             id="path4677"
             style="fill:none;stroke:#000000;stroke-width:6.34690428;stroke-linejoin:round;stroke-miterlimit:4;stroke-opacity:0.94901961;stroke-dasharray:none;stroke-dashoffset:0" />
          <rect
             width="4.8916898"
             height="5.8524809"
             x="1067.3364"
             y="833.42139"
             id="rect4679"
             style="fill:none;stroke:#000000;stroke-width:0.92125982;stroke-linejoin:round;stroke-miterlimit:4;stroke-opacity:0.94901961;stroke-dasharray:none;stroke-dashoffset:0" />
          <path
             d="m 1107.4821,837.38042 -0.1687,17.21319 2.9519,-0.12172 -0.3374,-6.07504 2.2729,0 -0.3476,5.9742 2.9068,-0.0504 -0.2778,-16.76808 0,0.34426"
             id="path4681"
             style="fill:none;stroke:#000000;stroke-width:0.92125982;stroke-linecap:butt;stroke-linejoin:miter;stroke-miterlimit:4;stroke-opacity:1;stroke-dasharray:none" />
        </g>
        <g
           transform="matrix(0.66502084,0,0,0.65803697,486.37517,208.04166)"
           id="g3821"
           style="stroke-width:1.01018023;stroke-miterlimit:4;stroke-dasharray:none">
          <g
             transform="matrix(0.6525936,0,0,0.46900065,196.30301,418.81216)"
             id="g6798"
             style="stroke-width:1.82595778;stroke-miterlimit:4;stroke-dasharray:none">
            <path
               d="m 556.76549,617.0622 103.29938,0 12.11545,110.81569 -108.40061,7.1916 z"
               id="path6775"
               style="fill:none;stroke:#000000;stroke-width:1.82595778;stroke-linecap:butt;stroke-linejoin:miter;stroke-miterlimit:4;stroke-opacity:1;stroke-dasharray:none" />
            <path
               d="m 653.68837,616.73524 -0.63764,-3.92268 -97.24163,0.98071 -13.07182,117.02658 21.68007,3.92268"
               id="path6777"
               style="fill:none;stroke:#000000;stroke-width:1.82595778;stroke-linecap:butt;stroke-linejoin:miter;stroke-miterlimit:4;stroke-opacity:1;stroke-dasharray:none" />
            <rect
               width="33.157822"
               height="9.1529217"
               x="595.53009"
               y="602.81104"
               id="rect6779"
               style="fill:none;stroke:#000000;stroke-width:1.82595778;stroke-linejoin:round;stroke-miterlimit:4;stroke-opacity:0.97254902;stroke-dasharray:none;stroke-dashoffset:0" />
            <path
               d="m 590.34357,613.40957 0,-10.63268 4.05803,-5.31639 34.83099,0.23113 4.62158,4.73849 0.22549,10.40164"
               id="path6781"
               style="fill:none;stroke:#000000;stroke-width:1.82595778;stroke-linecap:butt;stroke-linejoin:miter;stroke-miterlimit:4;stroke-opacity:1;stroke-dasharray:none" />
            <path
               d="m 582.90396,613.06288 c 0,-0.57788 0,-11.09501 0,-11.09501 l 4.95973,-4.85405 6.87606,0.11556"
               id="path6783"
               style="fill:none;stroke:#000000;stroke-width:1.82595778;stroke-linecap:butt;stroke-linejoin:miter;stroke-miterlimit:4;stroke-opacity:1;stroke-dasharray:none" />
            <path
               d="m 588.54008,613.06288 -0.22549,-10.40156 2.02898,0"
               id="path6785"
               style="fill:none;stroke:#000000;stroke-width:1.82595778;stroke-linecap:butt;stroke-linejoin:miter;stroke-miterlimit:4;stroke-opacity:1;stroke-dasharray:none" />
          </g>
        </g>
      </g>
      <g
         transform="matrix(1.056421,0,0,0.3609454,-804.63744,394.9663)"
         id="g4066">
        <path
           d="m 792.42982,581.44451 8.38703,100.69773 c 1.17553,3.39466 3.97646,3.76957 6.9892,3.75089 l 64.21436,-0.21649 c 0,0 4.36471,0.51364 4.80516,-4.4002 l 9.61043,-99.54361 z"
           id="path4284"
           style="fill:none;stroke:#0000ff;stroke-width:2.85141945;stroke-linecap:butt;stroke-linejoin:miter;stroke-miterlimit:4;stroke-opacity:1;stroke-dasharray:none" />
        <path
           d="m 803.08847,546.09939 c -1.46189,0.36422 -3.18652,-0.27592 -5.06716,2.16397 l -15.37665,21.35142 -0.87371,11.39692 10.65898,-0.14517 93.65669,0.86579 11.18288,-0.14518 -1.7473,-13.41682 -15.20191,-21.06293 c -1.0135,-1.75485 -2.97335,-1.55635 -4.89243,-1.44259 l 7.86312,18.46606 -87.89068,0 z"
           id="path4286"
           style="fill:none;stroke:#0000ff;stroke-width:2.85114646;stroke-linecap:butt;stroke-linejoin:miter;stroke-miterlimit:4;stroke-opacity:1;stroke-dasharray:none" />
        <path
           d="m 803.96197,545.66658 -1.19322,-40.56365 75.22007,-0.4576 -3.43487,40.15554 z"
           id="path4288"
           style="fill:none;stroke:#0000ff;stroke-width:2.85141945;stroke-linecap:butt;stroke-linejoin:miter;stroke-miterlimit:4;stroke-opacity:1;stroke-dasharray:none" />
        <path
           d="m 781.94569,569.03773 113.5764,0"
           id="path4290"
           style="fill:none;stroke:#0000ff;stroke-width:2.85141945;stroke-linecap:butt;stroke-linejoin:miter;stroke-miterlimit:4;stroke-opacity:1;stroke-dasharray:none" />
        <rect
           width="62.903759"
           height="30.87295"
           x="808.15576"
           y="600.38898"
           id="rect4292"
           style="fill:#ffffff;fill-opacity:1;stroke:#0000ff;stroke-width:2.85114646;stroke-miterlimit:4;stroke-opacity:1;stroke-dasharray:none;stroke-dashoffset:0" />
        <g
           transform="matrix(0.31655304,0,0,0.22686316,742.53128,525.78433)"
           id="g4413"
           style="fill:#0000ff;stroke:#2ad4ff">
          <g
             transform="translate(0.35714286,-0.35714286)"
             id="g4409"
             style="fill:#0000ff;stroke:#2ad4ff">
            <path
               d="m 255.53571,572.3622 7.85715,11.60714 13.21429,1.42858 23.57142,0.53571 -0.89285,31.78571 c -7.21124,-0.22162 -14.05101,0.11396 -22.14286,-1.42857 -7.41808,-2.99525 -14.66441,-15.26511 -21.60715,-43.92857 z"
               id="path4378"
               style="fill:#0000ff;fill-rule:evenodd;stroke:#2ad4ff;stroke-width:1px;stroke-linecap:butt;stroke-linejoin:miter;stroke-opacity:1" />
            <path
               d="m 255.52488,572.67787 7.86798,-19.60138 -7.67857,-5.17857 25.35714,-0.35715 8.21429,21.42857 -5.89286,-3.57142 -7.32143,19.82142 -12.68993,-1.6112 -7.76566,-10.9634"
               id="path4380"
               style="fill:#0000ff;fill-rule:evenodd;stroke:#2ad4ff;stroke-width:1px;stroke-linecap:butt;stroke-linejoin:miter;stroke-opacity:1" />
          </g>
        </g>
        <path
           d="m 832.35321,641.53436 12.71848,-0.32432 c 0.45856,-0.0942 2.53522,2.38072 3.33511,3.64605 l 1.92204,-0.80993 -3.10911,5.42865 -7.80064,0.0424 2.60014,-1.05334 c -1.11304,-1.34504 -1.8783,-2.8946 -2.92717,-4.27404 -0.79216,-1.04093 -1.76298,-1.9676 -3.06474,-2.73432"
           id="path4382"
           style="fill:#0000ff;fill-rule:evenodd;stroke:#2ad4ff;stroke-width:0.26798177px;stroke-linecap:butt;stroke-linejoin:miter;stroke-opacity:1" />
        <path
           d="m 832.24053,641.55567 c 0.17686,0.0679 3.75121,-0.0509 3.96026,0.0849 0.9256,0.60363 2.52442,2.05768 3.16852,3.1735 l -4.1333,4.86569 -6.83957,-3.4433 4.07898,-4.74531"
           id="path4384"
           style="fill:#0000ff;fill-rule:evenodd;stroke:#2ad4ff;stroke-width:0.26798177px;stroke-linecap:butt;stroke-linejoin:miter;stroke-opacity:1" />
        <path
           d="m 848.98567,658.7941 -3.91705,-6.01556 6.71502,-3.2657 3.27782,5.27083 c -0.39185,1.67241 -1.18941,2.76438 -1.99883,3.83851 z"
           id="path4386"
           style="fill:#0000ff;fill-rule:evenodd;stroke:#2ad4ff;stroke-width:0.26798177px;stroke-linecap:butt;stroke-linejoin:miter;stroke-opacity:1" />
        <path
           d="m 848.88082,658.88833 -0.24781,0 -4.80378,0.12735 -0.0424,-1.91929 -3.99712,4.92715 c 1.17246,1.62326 2.7446,3.50426 3.91706,5.12752 l 0.20015,-1.48954 c 2.72903,-0.0857 4.2819,-0.15366 5.47606,-0.74456 3.54184,-2.52479 5.81442,-8.05217 5.71572,-10.11189 l -2.11754,3.89572"
           id="path4388"
           style="fill:#0000ff;fill-rule:evenodd;stroke:#2ad4ff;stroke-width:0.26798177px;stroke-linecap:butt;stroke-linejoin:miter;stroke-opacity:1" />
        <text
           x="1230.5651"
           y="408.49133"
           transform="scale(0.65939129,1.5165502)"
           id="text6202"
           xml:space="preserve"
           style="font-size:11.79239082px;font-style:normal;font-weight:normal;line-height:125%;letter-spacing:0px;word-spacing:0px;fill:#0000ff;fill-opacity:1;stroke:#2a7fff;stroke-width:0.29480973px;stroke-linecap:butt;stroke-linejoin:miter;stroke-opacity:1;font-family:sans-serif"><tspan
             x="1230.5651"
             y="408.49133"
             id="tspan6204"
             style="fill:#0000ff;stroke:#2a7fff;stroke-width:0.29480973px">Papel y cartón</tspan></text>
      </g>
      <g
         transform="matrix(1.056421,0,0,0.3609454,-55.783878,485.33492)"
         id="g4032">
        <path
           d="m 79.966671,588.32134 8.38703,100.69773 c 1.17553,3.39466 3.97646,3.76957 6.9892,3.75089 l 64.214359,-0.21649 c 0,0 4.36471,0.51364 4.80516,-4.4002 l 9.61042,-99.54361 z"
           id="path4284-2"
           style="fill:none;stroke:#ffff00;stroke-width:2.85141945;stroke-linecap:butt;stroke-linejoin:miter;stroke-miterlimit:4;stroke-opacity:1;stroke-dasharray:none" />
        <path
           d="m 90.625321,552.97622 c -1.46189,0.36422 -3.18652,-0.27592 -5.06716,2.16397 l -15.37665,21.35142 -0.87371,11.39692 10.65898,-0.14517 93.656679,0.86579 11.18288,-0.14518 -1.7473,-13.41682 -15.2019,-21.06293 c -1.0135,-1.75485 -2.97335,-1.55635 -4.89243,-1.44259 l 7.86311,18.46606 -87.890669,0 z"
           id="path4286-9"
           style="fill:none;stroke:#ffff00;stroke-width:2.85114646;stroke-linecap:butt;stroke-linejoin:miter;stroke-miterlimit:4;stroke-opacity:1;stroke-dasharray:none" />
        <path
           d="m 91.498821,552.54341 -1.19322,-40.56365 75.220069,-0.4576 -3.43487,40.15554 z"
           id="path4288-2"
           style="fill:none;stroke:#ffff00;stroke-width:2.85141945;stroke-linecap:butt;stroke-linejoin:miter;stroke-miterlimit:4;stroke-opacity:1;stroke-dasharray:none" />
        <path
           d="m 69.482541,575.91456 113.576389,0"
           id="path4290-7"
           style="fill:none;stroke:#ffff00;stroke-width:2.85141945;stroke-linecap:butt;stroke-linejoin:miter;stroke-miterlimit:4;stroke-opacity:1;stroke-dasharray:none" />
        <rect
           width="62.903759"
           height="30.87295"
           x="95.692612"
           y="607.26581"
           id="rect4292-0"
           style="fill:#ffffff;fill-opacity:1;stroke:#ffff00;stroke-width:2.85114646;stroke-miterlimit:4;stroke-opacity:1;stroke-dasharray:none;stroke-dashoffset:0" />
        <g
           transform="matrix(0.31655304,0,0,0.22686316,30.068131,532.66116)"
           id="g4413-1"
           style="fill:#ffff00;stroke:#ffcc00">
          <g
             transform="translate(0.35714286,-0.35714286)"
             id="g4409-69"
             style="fill:#ffff00;stroke:#ffcc00">
            <path
               d="m 255.53571,572.3622 7.85715,11.60714 13.21429,1.42858 23.57142,0.53571 -0.89285,31.78571 c -7.21124,-0.22162 -14.05101,0.11396 -22.14286,-1.42857 -7.41808,-2.99525 -14.66441,-15.26511 -21.60715,-43.92857 z"
               id="path4378-6"
               style="fill:#ffff00;fill-rule:evenodd;stroke:#ffcc00;stroke-width:1px;stroke-linecap:butt;stroke-linejoin:miter;stroke-opacity:1" />
            <path
               d="m 255.52488,572.67787 7.86798,-19.60138 -7.67857,-5.17857 25.35714,-0.35715 8.21429,21.42857 -5.89286,-3.57142 -7.32143,19.82142 -12.68993,-1.6112 -7.76566,-10.9634"
               id="path4380-13"
               style="fill:#ffff00;fill-rule:evenodd;stroke:#ffcc00;stroke-width:1px;stroke-linecap:butt;stroke-linejoin:miter;stroke-opacity:1" />
          </g>
        </g>
        <path
           d="m 119.89006,648.41119 12.71848,-0.32432 c 0.45856,-0.0942 2.53522,2.38072 3.33511,3.64605 l 1.92204,-0.80993 -3.10911,5.42865 -7.80064,0.0424 2.60014,-1.05334 c -1.11304,-1.34504 -1.8783,-2.8946 -2.92717,-4.27404 -0.79216,-1.04093 -1.76298,-1.9676 -3.06474,-2.73432"
           id="path4382-7"
           style="fill:#ffff00;fill-rule:evenodd;stroke:#ffcc00;stroke-width:0.26798177px;stroke-linecap:butt;stroke-linejoin:miter;stroke-opacity:1" />
        <path
           d="m 119.77738,648.4325 c 0.17686,0.0679 3.75121,-0.0509 3.96026,0.0849 0.9256,0.60363 2.52442,2.05768 3.16852,3.1735 l -4.1333,4.86569 -6.83957,-3.4433 4.07898,-4.74531"
           id="path4384-2"
           style="fill:#ffff00;fill-rule:evenodd;stroke:#ffcc00;stroke-width:0.26798177px;stroke-linecap:butt;stroke-linejoin:miter;stroke-opacity:1" />
        <path
           d="m 136.52252,665.67093 -3.91705,-6.01556 6.71502,-3.2657 3.27782,5.27083 c -0.39185,1.67241 -1.18941,2.76438 -1.99883,3.83851 z"
           id="path4386-6"
           style="fill:#ffff00;fill-rule:evenodd;stroke:#ffcc00;stroke-width:0.26798177px;stroke-linecap:butt;stroke-linejoin:miter;stroke-opacity:1" />
        <path
           d="m 136.41767,665.76516 -0.24781,0 -4.80378,0.12735 -0.0424,-1.91929 -3.99712,4.92715 c 1.17246,1.62326 2.7446,3.50426 3.91706,5.12752 l 0.20015,-1.48954 c 2.72903,-0.0857 4.2819,-0.15366 5.47606,-0.74456 3.54184,-2.52479 5.81442,-8.05217 5.71572,-10.11189 l -2.11754,3.89572"
           id="path4388-2"
           style="fill:#ffff00;fill-rule:evenodd;stroke:#ffcc00;stroke-width:0.26798177px;stroke-linecap:butt;stroke-linejoin:miter;stroke-opacity:1" />
        <text
           x="131.49208"
           y="526.52966"
           transform="scale(0.83886791,1.1920828)"
           id="text6202-2"
           xml:space="preserve"
           style="font-size:13.04051018px;font-style:normal;font-weight:normal;line-height:125%;letter-spacing:0px;word-spacing:0px;fill:#ffff00;fill-opacity:1;stroke:#ffcc00;stroke-width:0.3260127px;stroke-linecap:butt;stroke-linejoin:miter;stroke-opacity:1;font-family:sans-serif"><tspan
             x="131.49208"
             y="526.52966"
             id="tspan6204-2"
             style="fill:#ffff00;stroke:#ffcc00;stroke-width:0.3260127px">Metal</tspan></text>
      </g>
      <g
         transform="matrix(1.056421,0,0,0.3609454,-351.27786,577.19834)"
         id="g4049">
        <path
           d="m 357.19531,587.10857 8.38703,100.69773 c 1.17553,3.39466 3.97646,3.76957 6.9892,3.75089 l 64.21436,-0.21649 c 0,0 4.36471,0.51364 4.80516,-4.4002 l 9.61042,-99.54361 z"
           id="path4284-2-2"
           style="fill:none;stroke:#005522;stroke-width:2.85141945;stroke-linecap:butt;stroke-linejoin:miter;stroke-miterlimit:4;stroke-opacity:1;stroke-dasharray:none" />
        <path
           d="m 367.85396,551.76345 c -1.46189,0.36422 -3.18652,-0.27592 -5.06716,2.16397 l -15.37665,21.35142 -0.87371,11.39692 10.65898,-0.14517 93.65668,0.86579 11.18288,-0.14518 -1.7473,-13.41682 -15.2019,-21.06293 c -1.0135,-1.75485 -2.97335,-1.55635 -4.89243,-1.44259 l 7.86311,18.46606 -87.89067,0 z"
           id="path4286-9-5"
           style="fill:none;stroke:#005522;stroke-width:2.85114646;stroke-linecap:butt;stroke-linejoin:miter;stroke-miterlimit:4;stroke-opacity:1;stroke-dasharray:none" />
        <path
           d="m 368.72746,551.33064 -1.19322,-40.56365 75.22007,-0.4576 -3.43487,40.15554 z"
           id="path4288-2-4"
           style="fill:none;stroke:#005522;stroke-width:2.85141945;stroke-linecap:butt;stroke-linejoin:miter;stroke-miterlimit:4;stroke-opacity:1;stroke-dasharray:none" />
        <path
           d="m 346.71118,574.70179 113.57639,0"
           id="path4290-7-3"
           style="fill:none;stroke:#005522;stroke-width:2.85141945;stroke-linecap:butt;stroke-linejoin:miter;stroke-miterlimit:4;stroke-opacity:1;stroke-dasharray:none" />
        <rect
           width="62.903759"
           height="30.87295"
           x="372.92123"
           y="606.05304"
           id="rect4292-0-5"
           style="fill:#ffffff;fill-opacity:1;stroke:#005522;stroke-width:2.85114646;stroke-miterlimit:4;stroke-opacity:1;stroke-dasharray:none;stroke-dashoffset:0" />
        <g
           transform="matrix(0.31655304,0,0,0.22686316,307.29677,531.44839)"
           id="g4413-1-3"
           style="fill:#16502d;stroke:#55ff99">
          <g
             transform="translate(0.35714286,-0.35714286)"
             id="g4409-69-4"
             style="fill:#16502d;stroke:#55ff99">
            <path
               d="m 255.53571,572.3622 7.85715,11.60714 13.21429,1.42858 23.57142,0.53571 -0.89285,31.78571 c -7.21124,-0.22162 -14.05101,0.11396 -22.14286,-1.42857 -7.41808,-2.99525 -14.66441,-15.26511 -21.60715,-43.92857 z"
               id="path4378-6-2"
               style="fill:#16502d;fill-rule:evenodd;stroke:#55ff99;stroke-width:1px;stroke-linecap:butt;stroke-linejoin:miter;stroke-opacity:1" />
            <path
               d="m 255.52488,572.67787 7.86798,-19.60138 -7.67857,-5.17857 25.35714,-0.35715 8.21429,21.42857 -5.89286,-3.57142 -7.32143,19.82142 -12.68993,-1.6112 -7.76566,-10.9634"
               id="path4380-13-9"
               style="fill:#16502d;fill-rule:evenodd;stroke:#55ff99;stroke-width:1px;stroke-linecap:butt;stroke-linejoin:miter;stroke-opacity:1" />
          </g>
        </g>
        <path
           d="m 397.1187,647.19842 12.71848,-0.32432 c 0.45856,-0.0942 2.53522,2.38072 3.33511,3.64605 l 1.92204,-0.80993 -3.10911,5.42865 -7.80064,0.0424 2.60014,-1.05334 c -1.11304,-1.34504 -1.8783,-2.8946 -2.92717,-4.27404 -0.79216,-1.04093 -1.76298,-1.9676 -3.06474,-2.73432"
           id="path4382-7-1"
           style="fill:#16502d;fill-rule:evenodd;stroke:#55ff99;stroke-width:0.26798177px;stroke-linecap:butt;stroke-linejoin:miter;stroke-opacity:1" />
        <path
           d="m 397.00602,647.21973 c 0.17686,0.0679 3.75121,-0.0509 3.96026,0.0849 0.9256,0.60363 2.52442,2.05768 3.16852,3.1735 l -4.1333,4.86569 -6.83957,-3.4433 4.07898,-4.74531"
           id="path4384-2-9"
           style="fill:#16502d;fill-rule:evenodd;stroke:#55ff99;stroke-width:0.26798177px;stroke-linecap:butt;stroke-linejoin:miter;stroke-opacity:1" />
        <path
           d="m 413.75116,664.45816 -3.91705,-6.01556 6.71502,-3.2657 3.27782,5.27083 c -0.39185,1.67241 -1.18941,2.76438 -1.99883,3.83851 z"
           id="path4386-6-1"
           style="fill:#16502d;fill-rule:evenodd;stroke:#55ff99;stroke-width:0.26798177px;stroke-linecap:butt;stroke-linejoin:miter;stroke-opacity:1" />
        <path
           d="m 413.64631,664.55239 -0.24781,0 -4.80378,0.12735 -0.0424,-1.91929 -3.99712,4.92715 c 1.17246,1.62326 2.7446,3.50426 3.91706,5.12752 l 0.20015,-1.48954 c 2.72903,-0.0857 4.2819,-0.15366 5.47606,-0.74456 3.54184,-2.52479 5.81442,-8.05217 5.71572,-10.11189 l -2.11754,3.89572"
           id="path4388-2-5"
           style="fill:#16502d;fill-rule:evenodd;stroke:#55ff99;stroke-width:0.26798177px;stroke-linecap:butt;stroke-linejoin:miter;stroke-opacity:1" />
        <text
           x="461.97156"
           y="525.51233"
           transform="scale(0.83886791,1.1920828)"
           id="text6202-2-6"
           xml:space="preserve"
           style="font-size:13.04051018px;font-style:normal;font-weight:normal;line-height:125%;letter-spacing:0px;word-spacing:0px;fill:#16502d;fill-opacity:1;stroke:#55ff99;stroke-width:0.3260127px;stroke-linecap:butt;stroke-linejoin:miter;stroke-opacity:1;font-family:sans-serif"><tspan
             x="461.97156"
             y="525.51233"
             id="tspan6204-2-5"
             style="fill:#16502d;stroke:#55ff99;stroke-width:0.3260127px">Vidrio</tspan></text>
      </g>
      <g
         transform="matrix(1.056421,0,0,0.3609454,-500.31626,307.91235)"
         id="g4083">
        <path
           d="m 508.16385,585.16217 8.38703,100.69773 c 1.17553,3.39466 3.97646,3.76957 6.9892,3.75089 l 64.21436,-0.21649 c 0,0 4.36471,0.51364 4.80516,-4.4002 l 9.61042,-99.54361 z"
           id="path4284-2-7"
           style="fill:#ffffff;stroke:#666666;stroke-width:0.45100001;stroke-linecap:butt;stroke-linejoin:miter;stroke-miterlimit:4;stroke-opacity:1;stroke-dasharray:none" />
        <path
           d="m 518.8225,549.81705 c -1.46189,0.36422 -3.18652,-0.27592 -5.06716,2.16397 l -15.37665,21.35142 -0.87371,11.39692 10.65898,-0.14517 93.65668,0.86579 11.18288,-0.14518 -1.7473,-13.41682 -15.2019,-21.06293 c -1.0135,-1.75485 -2.97335,-1.55635 -4.89243,-1.44259 l 7.86311,18.46606 -87.89067,0 z"
           id="path4286-9-4"
           style="fill:#ffffff;stroke:#666666;stroke-width:0.45100001;stroke-linecap:butt;stroke-linejoin:miter;stroke-miterlimit:4;stroke-opacity:1;stroke-dasharray:none" />
        <path
           d="m 519.696,549.38424 -1.19322,-40.56365 75.22007,-0.4576 -3.43487,40.15554 z"
           id="path4288-2-42"
           style="fill:#ffffff;stroke:#666666;stroke-width:0.45100001;stroke-linecap:butt;stroke-linejoin:miter;stroke-miterlimit:4;stroke-opacity:1;stroke-dasharray:none" />
        <path
           d="m 497.67972,572.75539 113.57639,0"
           id="path4290-7-6"
           style="fill:#ffffff;stroke:#666666;stroke-width:0.45100001;stroke-linecap:butt;stroke-linejoin:miter;stroke-miterlimit:4;stroke-opacity:1;stroke-dasharray:none" />
        <rect
           width="62.903759"
           height="30.87295"
           x="523.88977"
           y="604.10663"
           id="rect4292-0-7"
           style="fill:#ffffff;fill-opacity:1;stroke:#666666;stroke-width:0.45100001;stroke-miterlimit:4;stroke-opacity:1;stroke-dasharray:none;stroke-dashoffset:0" />
        <g
           transform="matrix(0.31655304,0,0,0.22686316,458.77039,528.99691)"
           id="g4413-1-8"
           style="fill:#ffffff;stroke:#666666">
          <g
             transform="translate(0.35714286,-0.35714286)"
             id="g4409-69-5"
             style="fill:#ffffff;stroke:#666666">
            <path
               d="m 255.53571,572.3622 7.85715,11.60714 13.21429,1.42858 23.57142,0.53571 -0.89285,31.78571 c -7.21124,-0.22162 -14.05101,0.11396 -22.14286,-1.42857 -7.41808,-2.99525 -14.66441,-15.26511 -21.60715,-43.92857 z"
               id="path4378-6-9"
               style="fill:#ffffff;fill-rule:evenodd;stroke:#666666;stroke-width:1px;stroke-linecap:butt;stroke-linejoin:miter;stroke-opacity:1" />
            <path
               d="m 255.52488,572.67787 7.86798,-19.60138 -7.67857,-5.17857 25.35714,-0.35715 8.21429,21.42857 -5.89286,-3.57142 -7.32143,19.82142 -12.68993,-1.6112 -7.76566,-10.9634"
               id="path4380-13-91"
               style="fill:#ffffff;fill-rule:evenodd;stroke:#666666;stroke-width:1px;stroke-linecap:butt;stroke-linejoin:miter;stroke-opacity:1" />
          </g>
        </g>
        <path
           d="m 548.59232,644.74694 12.71848,-0.32432 c 0.45856,-0.0942 2.53522,2.38072 3.33511,3.64605 l 1.92204,-0.80993 -3.10911,5.42865 -7.80064,0.0424 2.60014,-1.05334 c -1.11304,-1.34504 -1.8783,-2.8946 -2.92717,-4.27404 -0.79216,-1.04093 -1.76298,-1.9676 -3.06474,-2.73432"
           id="path4382-7-6"
           style="fill:#ffffff;fill-rule:evenodd;stroke:#666666;stroke-width:0.26798177px;stroke-linecap:butt;stroke-linejoin:miter;stroke-opacity:1" />
        <path
           d="m 548.47964,644.76825 c 0.17686,0.0679 3.75121,-0.0509 3.96026,0.0849 0.9256,0.60363 2.52442,2.05768 3.16852,3.1735 l -4.1333,4.86569 -6.83957,-3.4433 4.07898,-4.74531"
           id="path4384-2-95"
           style="fill:#ffffff;fill-rule:evenodd;stroke:#666666;stroke-width:0.26798177px;stroke-linecap:butt;stroke-linejoin:miter;stroke-opacity:1" />
        <path
           d="m 565.22478,662.00668 -3.91705,-6.01556 6.71502,-3.2657 3.27782,5.27083 c -0.39185,1.67241 -1.18941,2.76438 -1.99883,3.83851 z"
           id="path4386-6-3"
           style="fill:#ffffff;fill-rule:evenodd;stroke:#666666;stroke-width:0.26798177px;stroke-linecap:butt;stroke-linejoin:miter;stroke-opacity:1" />
        <path
           d="m 565.11993,662.10091 -0.24781,0 -4.80378,0.12735 -0.0424,-1.91929 -3.99712,4.92715 c 1.17246,1.62326 2.7446,3.50426 3.91706,5.12752 l 0.20015,-1.48954 c 2.72903,-0.0857 4.2819,-0.15366 5.47606,-0.74456 3.54184,-2.52479 5.81442,-8.05217 5.71572,-10.11189 l -2.11754,3.89572"
           id="path4388-2-7"
           style="fill:#ffffff;fill-rule:evenodd;stroke:#666666;stroke-width:0.26798177px;stroke-linecap:butt;stroke-linejoin:miter;stroke-opacity:1" />
        <text
           x="634.23242"
           y="525.15057"
           transform="scale(0.83886791,1.1920828)"
           id="text6202-2-7"
           xml:space="preserve"
           style="font-size:13.04051018px;font-style:normal;font-weight:normal;line-height:125%;letter-spacing:0px;word-spacing:0px;fill:#ffffff;fill-opacity:1;stroke:#666666;stroke-width:0.3260127px;stroke-linecap:butt;stroke-linejoin:miter;stroke-opacity:1;font-family:sans-serif"><tspan
             x="634.23242"
             y="525.15057"
             id="tspan6204-2-0"
             style="fill:#ffffff;stroke:#666666;stroke-width:0.3260127px">Plástico</tspan></text>
      </g>
      <g
         transform="matrix(0.77785343,0,0,0.55254624,474.12847,215.46479)"
         id="g6108"
         style="stroke-width:1.40523493;stroke-miterlimit:4;stroke-dasharray:none">
        <path
           d="m 2179.2856,587.85712 a 55,7.1428571 0 1 1 -110,0 55,7.1428571 0 1 1 110,0 z"
           transform="matrix(0.31367333,0,0,0.34882656,-179.69814,461.10341)"
           id="path6031"
           style="fill:none;stroke:#000000;stroke-width:4.24820423;stroke-linejoin:round;stroke-miterlimit:4;stroke-opacity:0.97254902;stroke-dasharray:none;stroke-dashoffset:0" />
        <path
           d="m 469.31838,665.80036 c 0.7198,28.6305 -10.1167,55.3942 2.2488,85.9058 12.2253,10.7566 26.363,5.0815 31.0325,0.3633 13.0744,-25.5213 1.6555,-57.1293 0.8994,-86.0875 3.7727,22.0257 18.7704,47.1104 -0.8994,93.3522 -2.617,2.0019 -18.6319,10.3117 -31.0326,-0.7265 -17.2374,-34.3631 -5.526,-77.3199 -2.2487,-92.8073 z"
           id="path6033"
           style="fill:none;stroke:#000000;stroke-width:1.40523493;stroke-linecap:butt;stroke-linejoin:miter;stroke-miterlimit:4;stroke-opacity:1;stroke-dasharray:none" />
        <path
           d="M 468.64378,666.16356 z"
           id="path6035"
           style="fill:none;stroke:#000000;stroke-width:1.40523493;stroke-linecap:butt;stroke-linejoin:miter;stroke-miterlimit:4;stroke-opacity:1;stroke-dasharray:none" />
      </g>
    </g>
    <text
       x="854.71588"
       y="821.41528"
       transform="scale(0.9763819,1.0241894)"
       id="text4549-7"
       xml:space="preserve"
       style="font-size:27.36273003px;font-style:normal;font-variant:normal;font-weight:normal;font-stretch:normal;line-height:125%;letter-spacing:0px;word-spacing:0px;fill:#0389ab;fill-opacity:0.97254902;stroke:#0389ab;stroke-width:0.6840682;stroke-opacity:0.97254902;font-family:Abyssinica SIL;-inkscape-font-specification:Abyssinica SIL"><tspan
         x="854.71588"
         y="821.41528"
         id="tspan4551-2"
         style="stroke-width:0.6840682">Orgánico.</tspan></text>
  </g>
</svg>
